change,Component,References,DNI,Quantity Per PCB,manf#,Digi-Key,Substitute,Mount,Value,Note,Footprint,Desc,Description,Datasheet,Part
,1,BT1,,1,54,,,,Battery Holder,,Batt_Conn_18650_18mm,Battery Holder for 18650 battery,,54,Battery-RESCUE-Handheld_board-RESCUE-main
,44,R7 R8 R10 R11 R88,,5,ERJ-3GEYJ103V,,,,10K,,r_0603,,, ERJ-3GEYJ103V,R-RESCUE-main
,19,D11,,1,LHUV-0385-A045,,,,LED_Z,,Luxeon_Z+t_single,,, LHUV-0385-A045 ,LED_Z
,16,D2,,1,QBLP617-IG,,,,GREEN LED,,Led_0603_QBLP617,,,~,LED_ALT
,2,C1 C5 C24 C34,,4,CC0603KRX7R8BB104,,,,.1u,,c_0603,,,06035C104K4T2A,C_Small-RESCUE-main
,33,P2,,1,10118194-0001LF,,,,USB_MICRO,,conn_usb_B_micro_smd-4,,,10118194-0001LF,USB_A-RESCUE-Handheld_board-RESCUE-main
,36,Q11,,1,2N7002K-T1-E3,,,,Q_NMOS_GDS,,sot23,,,2N7002K-T1-E3,Q_NMOS_GDS-RESCUE-main
,68,U8 U21,,2,AD8665ARZ,,,,AD8655,OO,SOIC-8_3.9x4.9mm_P1.27mm,AD8655,,AD8665ARZ,OPA333D-RESCUE-main
,27,D9,,1,APT1608SF4C-PRV,,,,LED_Z,,LED_0603_cathode_up_anode_1,,,APT1608SF4C-PRV,LED_Z
,64,SW1,,1,APTCLGTVTR,,,,RESET,,SW_PB_RA_tape,,,APTCLGTVTR,SW_PUSH-RESCUE-main
,70,U4,,1,BME680,,,,BME680,O?,BME680_UL,BME680,,BME680,BME680
,71,U16,,1,BQ24092DGQR,,,,BQ24093DGQR,OO,TSSOP-10_3x3mm_Pitch0.5mm,,,BQ24092DGQR,bq24093-RESCUE-main
,9,C6,,1,CL10C220FB8NNNC,,,,22p,,c_0603,,,CL10C220FB8NNNC,C-RESCUE-main
,10,C3 C15 C31,,3,GRM1885C1H472JA01D,,,,4.7n,precision,c_0603,,,CL10C220FB8NNNC,C-RESCUE-main
,4,C51 C55,,2,GRM32ER61A107ME20L,,,,100u,,C_1210_3225Metric,,,CL32A107MPVNNNE,C-RESCUE-main
,43,R11 R22 R87 R91,,3,CRCW0603100KJNEA,,,,100K,,r_0603,,,CRCW0603100KJNEA,R-RESCUE-main
,81,X1,,1,CX3225SB16000D0GZJC1,,,,16Mhz,,crystal_FA238-TSX3225_tape,,,CX3225SB16000D0GZJC1,CRYSTAL_SMD_4PIN
,78,U5,,1,DG4157EDL-T1-GE3,,,,SW_SPDT,OO,SOT-363_SC-70-6-Vishay,,,DG4157DL-T1-E3,DG4157DL-T1-E3-RESCUE-main
,37,Q1 Q2 Q3,,3,DMG2305UX-7,,,,Q_PMOS_GSD,OO,sot23,,,DMG2305UX-7,Q_PMOS_GDS-RESCUE-main
,59,R32 R77 R93,,3,ERA-3AEB3160V,,,,316,,r_0603,,,ERA-3AEB3160VL,R-RESCUE-main
,39,R21 R33 R34 R35 R39 R63 R84 R85,,8,ERJ-3GEY0R00V,,,,0,,r_0603,ERJ-3GEY0R00V,,ERJ-3GEY0R00V,R-RESCUE-main
,60,R45 R46,,2,ERJ-3GEYJ330V,,,,33,,r_0603,,,ERJ-3GEYJ330V,R-RESCUE-main
,63,R5 R47 R48,,3,ERJ-3GEYJ681V,,,,680,,r_0603,,,ERJ-3GEYJ681V,R-RESCUE-main
,8,C50,,1,GRM1885C1H102JA01D,,,,1n,,c_0603,,,GRM1885C1H102JA01D,C-RESCUE-main
,7,C12,,1,GRM1885C1H151JA01D,,,,150p,precision,c_0603,,,GRM1885C1H151JA01D,C-RESCUE-main
,12,C62,,1,GRM1885C1H561JA01D,,,,560p,precision,c_0603,,,GRM1885C1H561JA01D ,C-RESCUE-main
,5,C2 C4 C7 C8 C9 C10 C11 C14 C16 C18 C19 C20 C23 C25 C27 C28 C29 C30 C35 C36 C37 C38 C39 C40 C41 C42 C43 C44 C59 C64 C66,,31,GRM188R61A106KE69D,,,,10u,,c_0603,,,GRM188R61A106KE69D,C_Small-RESCUE-main
,32,P1,,1,GRPB052VWVN-RC,,,,SWD,,2x5_SWG_ISP_0.05_reversed,,,GRPB052VWVN-RC,CONN_02X05-RESCUE-main
,57,R25 R90,,2,KTR18EZPF3R00,,,,3,,R_1206_3216Metric,,,KTR18EZPF3R00,R-RESCUE-main
,65,U3,,1,LDL1117S50R,,,,5V Linear Reg,OO,SOT-223-3_TabPin2_LL,,,LDL1117S50R,AP1117-50-RESCUE-main
,23,D15,,1,LXZ1-PD01,,,,LED_Z,,Luxeon_Z+t_single,,,LXZ1-PD01,LED_Z
,24,D16,,1,LXZ1-PE01,,,,LED_Z,,Luxeon_Z+t_single,,,LXZ1-PE01,LED_Z
,22,D14,,1,LXZ1-PL01,,,,LED_Z,,Luxeon_Z+t_single,,,LXZ1-PL01,LED_Z
,21,D13,,1,LXZ1-PM01,,,,LED_Z,,Luxeon_Z+t_single,,,LXZ1-PM01,LED_Z
,20,D12,,1,LXZ1-PR01,,,,LED_Z,,Luxeon_Z+t_single,,,LXZ1-PR01,LED_Z
,31,L1 L2 L4 L5 L6 L7 L8 L10,,8,MI0805K601R-10,,,,ferrite,,L_0805_2012Metric,,,MI0805K601R-10,INDUCTOR-RESCUE-main
,75,U15,,1,MK20DX256VLH7,,,,MK20DX256VLH7,,MK20,,,MK20DX256VLH7,MK20DX256VLH7-RESCUE-main
,50,R57,,1,RC0603FR-071ML,,,,1M,,r_0603,,,RC0603FR-071ML,R-RESCUE-main
,52,R58,,1,RC0603FR-07249KL,,,,249K,,r_0603,,,RC0603FR-07249KL,R-RESCUE-main
,46,R3 R6 R52,,3,RC0603JR-07130KL,,,,130K,,r_0603,,,RC0603JR-07130KL,R-RESCUE-main
,48,R12 R13 R14 R16 R17 R23 R26 R67 R68 R69 R70 R71,,12,RC0603JR-07150RL,,,,150,,r_0603,,,RC0603JR-07150RL,R-RESCUE-main
,45,R27 R30 R36 R43 R44 R56,,6,RR0816P-103-D,,,,10K,precision,r_0603,,,RR0816P-103-D,R-RESCUE-main
,47,R29,,1,RT0603DRD0713KL,,N,,13K,thin film,r_0603,,,RT0603DRD0713KL,R-RESCUE-main
,49,R15 R31 R92,,3,RT0603DRD071KL,,,,1K,,r_0603,,,RT0603DRD071KL,R-RESCUE-main
,54,R1 R2 R4 R9 R18 R19 R20 R24 R49 R53 R64 R65 R66 R72 R73 R74 R75 R76 R86,,19,ERJ-3GEYJ202V,,,,2K,,r_0603,,,RT0603DRD072KL,R-RESCUE-main
,51,R28 R55,,2,RT0603DRE07240RL,,,,240,,r_0603,,,RT0603DRE07240RL,R-RESCUE-main
,26,D8,,1,SFH4056,,,,LED_Z,,SFH4056_cathode_up_anode_1,,,SFH4056,LED_Z
,35,Q12,,1,SIA483DJ-T1-GE3,,,,P-MOS,,sc70-6L,,,SIA461DJ-T1-GE3,MOSP-TSOP6-RESCUE-main
,28,J1,,1,SJ1-3523N,,,,Audio-Jack-3_2Switches,,SJ1-3523N,,,SJ1-3523N,Audio-Jack-3_2Switches-RESCUE-main
,34,Q4,,1,SIA418DJ-T1-GE3,,,,MOSN,OO,SC70-6L,,,SQA410EJ-T1_GE3,MOSN-TSOP6-RESCUE-main
,30,L3,,1,SRN4026-1R2Y,,,,1.2uH,,Neosid_Inductor_4R7,,,SRN4026-1R2Y,INDUCTOR_SMALL-RESCUE-main
,79,U18,,1,TPS61251DSGR,,,,TPS61251,OO,DFN-8-1EP_2x2mm_Pitch0.5mm_UR,,,TPS61251DSGR,TPS61252-RESCUE-main
,80,U6 U17,,2,TSV911ILT,,,,TSV911ILT,OO,SOT-23-5_LL,,,TSV911ILT,TSV911-RESCUE-main
,38,Q13 Q14 Q15 Q16 Q17,,5,TT8J13TCR,,,,TT8J13T,,tsst8_UR,,,TT8J13TCR,TT8J13T
,18,D10,,1,VLMU1610-365-135,,,,LED_Z,,VLMU1610_cathode_up_anode_1,,,VLMU1610-365-135,LED_Z
,25,D20,,1,XZTNI53W-8,,,,LED_Z,,LED_0603_cathode_up_anode_1,,,XZTNI53W-8,LED_Z
,41,R78 R79,,2,RC0603FR-0710RL,,,,10,,r_0603,,,OPTIONAL-16B-DET,R-RESCUE-main
,55,R59,,1,RR0816P-202-D,,,,2K,precision thin film,r_0603,,,OPTIONAL-16B-DET,R-RESCUE-main
,,,,,,,,,,,,,,,
,,,,,,,,,,,,,,,
,Component Groups:,82,,,,,,,,,,,,,
,Component Count:,210,,,,,,,,,,,,,
,Fitted Components:,210,,,,,,,,,,,,,
,Number of PCBs:,1,,,,,,,,,,,,,
,Total components:,210,,,,,,,,,,,,,
,Schematic Version:,1,,,,,,,,,,,,,
,Schematic Date:,2017-04-24,,,,,,,,,,,,,
,BoM Date:,Wed 12 Sep 2018 11:28:13 AM EDT,,,,,,,,,,,,,
,Schematic Source:,/home/greg/Dropbox/our-sci/reflectance-spec-PCB/main/main.sch,,,,,,,,,,,,,
,KiCad Version:,Eeschema 5.0.0-fee4fd1~66~ubuntu16.04.1,,,,,,,,,,,,,
