Refs,Desc,datasheet,footprint,manf#,value
C1,,C0603C104M5RACTU,multispeq:c_0603,C0603C104M5RACTU,0.1u
C10,,GRM188R61A106KE69D,multispeq:c_0603,GRM188R61A106KE69D,10u
C12,,GRM1885C1H151JA01D,multispeq:c_0603,GRM1885C1H151JA01D,150p
C15,,06035A220JAT2A,multispeq:c_0603,06035A220JAT2A,22p
C2,,DNI - GRM188R61A106KE69D,multispeq:c_0603,DNI - GRM188R61A106KE69D,10u
C3,,06035A220JAT2A,multispeq:c_0603,06035A220JAT2A,22p
C4,,GRM188R61A106KE69D,multispeq:c_0603,GRM188R61A106KE69D,10u
C62,,GRM1885C1H561JA01D ,multispeq:c_0603,GRM1885C1H561JA01D ,560p
C66,,OPTIONAL-HALL,multispeq:c_0603,GRM188R61A106KE69D,10u
C8,,GRM188R61A106KE69D,multispeq:c_0603,GRM188R61A106KE69D,10u
D1,,S6775 Hamamatsu,multispeq:Pin_diode_SIPS_down,S6775 Hamamatsu,DET1
D17,,S6775-01 Hamamatsu,multispeq:Pin_diode_SIPS_down,S6775-01 Hamamatsu,DET2
D2,,,multispeq:Led_0603_QBLP617,QBLP617-IG,Power LED
J1,,SJ1-3523N,multispeq:SJ1-3523N,SJ1-3523N,Audio-Jack-3_2Switches
J5,,,PINTST,DNI,Conn_01x01
J6,,,PINTST,DNI,Conn_01x01
Q1,,DMG2305UX-7,multispeq:sot23,DMG2305UX-7,Q_PMOS_GSD
Q2,,DMG2305UX-7,multispeq:sot23,DMG2305UX-7,Q_PMOS_GSD
Q3,,DMG2305UX-7,multispeq:sot23,DMG2305UX-7,Q_PMOS_GSD
R1,,RT0603DRD072KL,multispeq:r_0603,RT0603DRD072KL,2K
R10,,RC1608J103CS,multispeq:r_0603,RC1608J103CS,10K
R15,,RT0603DRD071KL,multispeq:r_0603,RT0603DRD071KL,1K
R2,,RC0603JR-072KL,multispeq:r_0603,RC0603JR-072KL,2K
R29,,RT0603DRD0713KL,multispeq:r_0603,RT0603DRD0713KL,13K
R3,,RC0603JR-07130KL,multispeq:r_0603,RC0603JR-07130KL,130K
R31,,RT0603DRD071KL,multispeq:r_0603,RT0603DRD071KL,1K
R32,,RT0603DRE07360RL,multispeq:r_0603,RT0603DRE07360RL,360
R34,RC0603JR-070RL,RC0603JR-070RL,multispeq:r_0603,RC0603JR-070RL,0
R35,RC0603JR-070RL,RC0603JR-070RL,multispeq:r_0603,RC0603JR-070RL,0
R4,,RC0603JR-072KL,multispeq:r_0603,RC0603JR-072KL,2K
R5,,RC0603JR-07680RL,multispeq:r_0603,RC0603JR-07680RL,680
R59,,RT0603DRD072KL,multispeq:r_0603,RT0603DRD072KL,2K
R6,,RC0603JR-07130KL,multispeq:r_0603,RC0603JR-07130KL,130K
R7,,RC1608J103CS,multispeq:r_0603,RC1608J103CS,10K
R77,,RT0603DRE07360RL,multispeq:r_0603,RT0603DRE07360RL,360
R8,,RC1608J103CS,multispeq:r_0603,RC1608J103CS,10K
R86,,RC0603JR-072KL,multispeq:r_0603,RC0603JR-072KL,2K
R88,,OPTIONAL-HALL,multispeq:r_0603,RC1608J103CS,10K
R89,,OPTIONAL-HALL,multispeq:r_0603,RC0603JR-0727KL,27K
R9,,RC0603JR-072KL,multispeq:r_0603,RC0603JR-072KL,2K
R92,,RC0603FR-0743KL,Resistors_SMD:R_0603,RC0603FR-0743KL,43K
R93,,RC0603FR-0713KL,Resistors_SMD:R_0603,RC0603FR-0713KL,13K
SW1,,APTCLGTVTR,multispeq:SW_PB_RA,APTCLGTVTR,RESET
U1,,Bluetooth HC-06,multispeq:HC_05_Bluetooth,Bluetooth HC-06,Bluetooth HC-06
U2,,OPTIONAL-IR-TEMP,multispeq:TO-72_4Pin,MLX90615SSG-DAG-000-TU,MLX90615
U22,,OPTIONAL-HALL,multispeq:TO-92_Inline_Narrow_Oval,OHS3150U,OHS3150U
U3,,LDL1117S50R,TO_SOT_Packages_SMD:SOT-223-3Lead_TabPin2,LDL1117S50R,5V Linear Reg
U4,BME680,BME680,multispeq:BME680,BME680,BME680
