EESchema Schematic File Version 4
LIBS:main-cache
EELAYER 26 0
EELAYER END
$Descr USLegal 14000 8500
encoding utf-8
Sheet 1 9
Title "Reflectance"
Date "2017-04-24"
Rev "1.0"
Comp "OurSci"
Comment1 "Robert Zegarac"
Comment2 "Greg Austic"
Comment3 "Jon Zeeff"
Comment4 ""
$EndDescr
$Sheet
S 1320 1000 750  500 
U 563D36C9
F0 "ACToPULSer" 60
F1 "ACToPULSer.sch" 60
F2 "+5v" I R 2070 1100 39 
F3 "PULSE" I R 2070 1300 39 
F4 "ACT" I R 2070 1200 39 
F5 "AGND" I R 2070 1400 60 
F6 "ACTO_Out" O L 1320 1100 60 
$EndSheet
$Sheet
S 6310 4785 1700 2925
U 563D36EF
F0 "Teensy31" 60
F1 "Teensy31.sch" 60
F2 "23/A9" O L 6310 5985 40 
F3 "22/A8" I R 8010 7340 40 
F4 "21/A7" O L 6310 6910 40 
F5 "20/A6" O L 6310 5785 40 
F6 "19/A5" O L 6310 7235 40 
F7 "18/A4" B L 6310 7135 40 
F8 "17/A3" O L 6310 6785 40 
F9 "16/A2" O L 6310 6685 40 
F10 "15/A1" O L 6310 6585 40 
F11 "13(LED)" O L 6310 7620 40 
F12 "12" I L 6310 7350 40 
F13 "11" O L 6310 7440 40 
F14 "10" O L 6310 7530 39 
F15 "9" B R 8010 7460 40 
F16 "8" I R 8010 7560 40 
F17 "7" O R 8010 7660 40 
F18 "6" O L 6310 7010 40 
F19 "5" O L 6310 5685 40 
F20 "3" O L 6310 5485 40 
F21 "2" O R 8010 6160 40 
F22 "28" O L 6310 5885 40 
F23 "27" O L 6310 6385 40 
F24 "A11" I R 8010 5935 39 
F25 "AREF" O R 8010 5260 40 
F26 "A10" I R 8010 6035 40 
F27 "4" O L 6310 5585 40 
F28 "1" O R 8010 7010 40 
F29 "0" I R 8010 6910 40 
F30 "33" O R 8010 5635 40 
F31 "32" B R 8010 6685 40 
F32 "31" O R 8010 6285 39 
F33 "30" B R 8010 7135 40 
F34 "29" O R 8010 7235 40 
F35 "26" O L 6310 6285 40 
F36 "25" O L 6310 6185 40 
F37 "24" O L 6310 6085 40 
F38 "+5V" I L 6310 4885 40 
F39 "RESET" I R 8010 5335 40 
F40 "14/A0" B R 8010 6585 40 
F41 "D+" B L 6310 5160 60 
F42 "D-" B L 6310 5260 60 
F43 "DAC/A14" O R 8010 6785 40 
F44 "A12" I R 8010 5835 39 
F45 "A13" I R 8010 5735 39 
F46 "+3.3V" O L 6310 4960 39 
F47 "3.3Vperm" I L 6310 5035 39 
F48 "AGND" O R 8010 5160 40 
$EndSheet
$Sheet
S 9390 1130 700  650 
U 563D36F5
F0 "BMS" 40
F1 "BMS.sch" 40
F2 "D+" I L 9390 1430 60 
F3 "D-" B L 9390 1330 60 
F4 "Iset" O R 10090 1280 60 
F5 "Vbatt" O R 10090 1180 60 
F6 "Vusb" O L 9390 1180 60 
F7 "NTC" I R 10090 1655 60 
$EndSheet
$Sheet
S 10490 1030 700  750 
U 563D371A
F0 "SMPS" 40
F1 "SMPS.sch" 40
F2 "+6V" O R 11190 1340 60 
F3 "Vbatt" I L 10490 1180 60 
F4 "DC/DC_on" I L 10490 1680 60 
$EndSheet
$Sheet
S 4425 3495 725  1400
U 590FF6D9
F0 "LEDS" 60
F1 "LEDS.sch" 60
F2 "PULSE1" I L 4425 3895 60 
F3 "PULSE2" I L 4425 3985 60 
F4 "+5" I L 4425 3720 60 
F5 "PULSE3" I L 4425 4075 60 
F6 "PULSE9" I L 4425 4615 60 
F7 "PULSE7" I L 4425 4435 60 
F8 "PULSE8" I L 4425 4525 60 
F9 "PULSE6" I L 4425 4345 60 
F10 "PULSE4" I L 4425 4165 60 
F11 "PULSE5" I L 4425 4255 60 
F12 "PULSE10" I L 4425 4705 60 
F13 "Acto_drive" I L 4425 3595 60 
$EndSheet
$Sheet
S 1295 2720 745  700 
U 563D36D0
F0 "detector1" 60
F1 "detector_m.sch" 60
F2 "AnaOut_N" O R 2040 3300 39 
F3 "AnaOut_P" O R 2040 3095 39 
F4 "det_out" O L 1295 3075 39 
F5 "det_return" O L 1295 3375 39 
$EndSheet
$Sheet
S 1300 4225 740  675 
U 5948C701
F0 "detector2" 60
F1 "detector_m.sch" 60
F2 "AnaOut_N" O R 2040 4770 39 
F3 "AnaOut_P" O R 2040 4600 39 
F4 "det_out" O L 1300 4515 39 
F5 "det_return" O L 1300 4815 39 
$EndSheet
$Sheet
S 1320 6380 680  1070
U 5A981327
F0 "Ham-Det" 40
F1 "Ham-Det.sch" 40
F2 "AD2N" I L 1320 6810 60 
F3 "AD2P" I L 1320 6920 60 
F4 "AD1N" I L 1320 7020 60 
F5 "AD1P" I L 1320 7130 60 
$EndSheet
$Comp
L main-rescue:GND-RESCUE-main #PWR02
U 1 1 563D36C6
P 10135 5985
F 0 "#PWR02" H 10135 5985 30  0001 C CNN
F 1 "GND" H 10135 5915 30  0001 C CNN
F 2 "" H 10135 5985 60  0000 C CNN
F 3 "" H 10135 5985 60  0000 C CNN
	1    10135 5985
	-1   0    0    -1  
$EndComp
$Comp
L multispec:MLX90615 U2
U 1 1 563D36D5
P 10135 5610
F 0 "U2" V 9860 5760 60  0000 C CNN
F 1 "MLX90615" V 10385 5785 40  0000 C CNN
F 2 "multispeq:TO-72_4Pin" H 10135 5610 60  0001 C CNN
F 3 "OPTIONAL-IR-TEMP" H 10135 5610 60  0001 C CNN
F 4 "OO" H 10135 5610 50  0001 C CNN "Note"
F 5 "MLX90615SSG-DAG-000-TU" H 10135 5610 60  0001 C CNN "manf#"
	1    10135 5610
	0    1    1    0   
$EndComp
$Comp
L main-rescue:GND-RESCUE-main #PWR03
U 1 1 563D36D6
P 10010 5260
F 0 "#PWR03" H 10010 5260 30  0001 C CNN
F 1 "GND" H 10010 5190 30  0001 C CNN
F 2 "" H 10010 5260 60  0000 C CNN
F 3 "" H 10010 5260 60  0000 C CNN
	1    10010 5260
	-1   0    0    -1  
$EndComp
$Comp
L main-rescue:R-RESCUE-main R4
U 1 1 563D3713
P 4775 1875
F 0 "R4" V 4855 1875 50  0000 C CNN
F 1 "2K" V 4775 1875 50  0000 C CNN
F 2 "multispeq:r_0603" V 4705 1875 30  0001 C CNN
F 3 " ERJ-3GEYJ202V" H 4775 1875 30  0001 C CNN
F 4 " ERJ-3GEYJ202V" H 4775 1875 60  0001 C CNN "manf#"
	1    4775 1875
	1    0    0    -1  
$EndComp
$Comp
L main-rescue:R-RESCUE-main R5
U 1 1 563D3714
P 4775 2225
F 0 "R5" V 4700 2150 50  0000 C CNN
F 1 "680" V 4775 2225 50  0000 C CNN
F 2 "multispeq:r_0603" V 4705 2225 30  0001 C CNN
F 3 "ERJ-3GEYJ681V" H 4775 2225 30  0001 C CNN
F 4 "ERJ-3GEYJ681V" H 4775 2225 60  0001 C CNN "manf#"
	1    4775 2225
	-1   0    0    1   
$EndComp
$Comp
L main-rescue:GND-RESCUE-main #PWR07
U 1 1 563D3715
P 4775 2425
F 0 "#PWR07" H 4775 2425 30  0001 C CNN
F 1 "GND" H 4775 2355 30  0001 C CNN
F 2 "" H 4775 2425 60  0000 C CNN
F 3 "" H 4775 2425 60  0000 C CNN
	1    4775 2425
	-1   0    0    -1  
$EndComp
$Comp
L main-rescue:Q_PMOS_GDS-RESCUE-main Q1
U 1 1 563D3718
P 4675 1475
F 0 "Q1" H 4975 1525 50  0000 R CNN
F 1 "Q_PMOS_GSD" H 5325 1425 50  0000 R CNN
F 2 "multispeq:sot23" H 4875 1575 29  0001 C CNN
F 3 "DMG2305UX-7" H 4675 1475 60  0001 C CNN
F 4 "OO" H 4675 1475 50  0001 C CNN "Note"
F 5 "DMG2305UX-7" H 4675 1475 60  0001 C CNN "manf#"
	1    4675 1475
	1    0    0    1   
$EndComp
$Comp
L main-rescue:C_Small-RESCUE-main C1
U 1 1 563D371C
P 4650 2250
F 0 "C1" H 4720 2310 50  0000 L CNN
F 1 ".1u" H 4660 2185 50  0000 L CNN
F 2 "multispeq:c_0603" H 4650 2250 10  0001 C CNN
F 3 "06035C104K4T2A" H 4650 2250 10  0001 C CNN
F 4 "CC0603KRX7R8BB104" H 4650 2250 60  0001 C CNN "manf#"
	1    4650 2250
	-1   0    0    1   
$EndComp
$Comp
L main-rescue:R-RESCUE-main R3
U 1 1 565885AE
P 4575 1225
F 0 "R3" V 4500 1150 50  0000 C CNN
F 1 "130K" V 4575 1225 50  0000 C CNN
F 2 "multispeq:r_0603" V 4505 1225 30  0001 C CNN
F 3 "RC0603JR-07130KL" H 4575 1225 30  0001 C CNN
F 4 "RC0603JR-07130KL" H 4575 1225 60  0001 C CNN "manf#"
	1    4575 1225
	0    -1   -1   0   
$EndComp
$Comp
L main-rescue:C_Small-RESCUE-main C2
U 1 1 56624548
P 10735 3860
F 0 "C2" V 10845 3825 50  0000 L CNN
F 1 "10u" V 10640 3825 50  0000 L CNN
F 2 "multispeq:c_0603" H 10735 3860 10  0000 C CNN
F 3 "DNI - GRM188R61A106KE69D" H 10735 3860 10  0001 C CNN
F 4 "DNI - GRM188R61A106KE69D" H 10735 3860 60  0001 C CNN "manf#"
	1    10735 3860
	-1   0    0    1   
$EndComp
$Comp
L main-rescue:R-RESCUE-main R10
U 1 1 566077B7
P 10390 1930
F 0 "R10" V 10470 1930 50  0000 C CNN
F 1 "10K" V 10390 1930 50  0000 C CNN
F 2 "multispeq:r_0603" V 10320 1930 30  0001 C CNN
F 3 " ERJ-3GEYJ103V" H 10390 1930 30  0001 C CNN
F 4 " ERJ-3GEYJ103V" H 10390 1930 60  0001 C CNN "manf#"
	1    10390 1930
	1    0    0    -1  
$EndComp
$Comp
L main-rescue:SW_PUSH-RESCUE-main SW1
U 1 1 56611EC2
P 6530 2455
F 0 "SW1" H 6680 2565 50  0000 C CNN
F 1 "RESET" H 6530 2375 50  0000 C CNN
F 2 "multispeq:SW_PB_RA_tape" H 6530 2455 60  0001 C CNN
F 3 "APTCLGTVTR" H 6530 2455 60  0001 C CNN
F 4 "APTCLGTVTR" H 6530 2455 60  0001 C CNN "manf#"
	1    6530 2455
	1    0    0    -1  
$EndComp
$Comp
L main-rescue:GND-RESCUE-main #PWR08
U 1 1 56F15E70
P 10190 1280
F 0 "#PWR08" H 10190 1280 30  0001 C CNN
F 1 "GND" H 10190 1210 30  0001 C CNN
F 2 "" H 10190 1280 60  0000 C CNN
F 3 "" H 10190 1280 60  0000 C CNN
	1    10190 1280
	-1   0    0    -1  
$EndComp
$Comp
L main-rescue:R-RESCUE-main R1
U 1 1 57463752
P 11640 4505
F 0 "R1" V 11530 4495 50  0000 C CNN
F 1 "2K" V 11640 4505 50  0000 C CNN
F 2 "multispeq:r_0603" V 11570 4505 30  0001 C CNN
F 3 "RT0603DRD072KL" H 11640 4505 30  0001 C CNN
F 4 "ERJ-3GEYJ202V" H 11640 4505 60  0001 C CNN "manf#"
	1    11640 4505
	0    1    1    0   
$EndComp
$Comp
L main-rescue:R-RESCUE-main R2
U 1 1 57466A80
P 11640 4605
F 0 "R2" V 11740 4600 50  0000 C CNN
F 1 "2K" V 11640 4605 50  0000 C CNN
F 2 "multispeq:r_0603" V 11570 4605 30  0001 C CNN
F 3 " ERJ-3GEYJ202V" H 11640 4605 30  0001 C CNN
F 4 " ERJ-3GEYJ202V" H 11640 4605 60  0001 C CNN "manf#"
	1    11640 4605
	0    1    1    0   
$EndComp
$Comp
L main-rescue:Q_PMOS_GDS-RESCUE-main Q3
U 1 1 574EAF4F
P 6880 2205
F 0 "Q3" V 6805 2430 50  0000 R CNN
F 1 "Q_PMOS_GSD" V 7080 2430 50  0000 R CNN
F 2 "multispeq:sot23" H 7080 2305 29  0001 C CNN
F 3 "DMG2305UX-7" H 6880 2205 60  0001 C TNN
F 4 "OO" H 6880 2205 50  0001 C CNN "Note"
F 5 "DMG2305UX-7" H 6880 2205 60  0001 C CNN "manf#"
	1    6880 2205
	0    1    -1   0   
$EndComp
$Comp
L main-rescue:R-RESCUE-main R7
U 1 1 574F7FDE
P 6880 2655
F 0 "R7" H 6705 2630 50  0000 C CNN
F 1 "10K" V 6880 2655 50  0000 C CNN
F 2 "multispeq:r_0603" V 6810 2655 30  0001 C CNN
F 3 " ERJ-3GEYJ103V" H 6880 2655 30  0001 C CNN
F 4 " ERJ-3GEYJ103V" H 6880 2655 60  0001 C CNN "manf#"
	1    6880 2655
	-1   0    0    1   
$EndComp
$Comp
L main-rescue:GND-RESCUE-main #PWR010
U 1 1 574FE6B9
P 6880 2805
F 0 "#PWR010" H 6880 2805 30  0001 C CNN
F 1 "GND" H 6880 2735 30  0001 C CNN
F 2 "" H 6880 2805 60  0000 C CNN
F 3 "" H 6880 2805 60  0000 C CNN
	1    6880 2805
	-1   0    0    -1  
$EndComp
$Comp
L main-rescue:Q_PMOS_GDS-RESCUE-main Q2
U 1 1 57539CDF
P 6705 1130
F 0 "Q2" V 6655 1380 50  0000 R CNN
F 1 "Q_PMOS_GSD" V 6905 1355 50  0000 R CNN
F 2 "multispeq:sot23" H 6905 1230 29  0001 C CNN
F 3 "DMG2305UX-7" H 6705 1130 60  0001 C CNN
F 4 "OO" H 6705 1130 50  0001 C CNN "Note"
F 5 "DMG2305UX-7" H 6705 1130 60  0001 C CNN "manf#"
	1    6705 1130
	0    1    -1   0   
$EndComp
$Comp
L main-rescue:R-RESCUE-main R6
U 1 1 5754AA77
P 6455 1430
F 0 "R6" V 6355 1405 50  0000 C CNN
F 1 "130K" V 6455 1430 50  0000 C CNN
F 2 "multispeq:r_0603" V 6385 1430 30  0001 C CNN
F 3 "RC0603JR-07130KL" H 6455 1430 30  0001 C CNN
F 4 "RC0603JR-07130KL" H 6455 1430 60  0001 C CNN "manf#"
	1    6455 1430
	0    -1   -1   0   
$EndComp
$Comp
L main-rescue:PWR_FLAG-RESCUE-main #FLG011
U 1 1 574301CA
P 7050 1030
F 0 "#FLG011" H 7050 1125 30  0001 C CNN
F 1 "PWR_FLAG" H 7050 1210 30  0000 C CNN
F 2 "" H 7050 1030 60  0000 C CNN
F 3 "" H 7050 1030 60  0000 C CNN
	1    7050 1030
	-1   0    0    -1  
$EndComp
$Comp
L main-rescue:GND-RESCUE-main #PWR012
U 1 1 574A52F4
P 9040 1855
F 0 "#PWR012" H 9040 1855 30  0001 C CNN
F 1 "GND" H 9040 1785 30  0001 C CNN
F 2 "" H 9040 1855 60  0000 C CNN
F 3 "" H 9040 1855 60  0000 C CNN
	1    9040 1855
	-1   0    0    -1  
$EndComp
$Comp
L main-rescue:R-RESCUE-main R9
U 1 1 5749F1E0
P 9040 1705
F 0 "R9" V 9120 1705 50  0000 C CNN
F 1 "2K" V 9040 1705 50  0000 C CNN
F 2 "multispeq:r_0603" V 8970 1705 30  0001 C CNN
F 3 " ERJ-3GEYJ202V" H 9040 1705 30  0001 C CNN
F 4 " ERJ-3GEYJ202V" H 9040 1705 60  0001 C CNN "manf#"
	1    9040 1705
	1    0    0    -1  
$EndComp
$Comp
L main-rescue:R-RESCUE-main R8
U 1 1 574F0D17
P 9040 1330
F 0 "R8" V 9120 1330 50  0000 C CNN
F 1 "10K" V 9040 1330 50  0000 C CNN
F 2 "multispeq:r_0603" V 8970 1330 30  0001 C CNN
F 3 " ERJ-3GEYJ103V" H 9040 1330 30  0001 C CNN
F 4 " ERJ-3GEYJ103V" H 9040 1330 60  0001 C CNN "manf#"
	1    9040 1330
	1    0    0    -1  
$EndComp
$Comp
L multispec:ITEAD_HC-05 U1
U 1 1 5760CD0B
P 4500 6700
F 0 "U1" H 4500 6675 60  0000 C CNN
F 1 "Bluetooth HC-06" H 4500 5500 60  0000 C CNN
F 2 "multispeq:HC_05_Bluetooth" H 4500 6700 60  0001 C CNN
F 3 "Bluetooth HC-06" H 4500 6700 60  0001 C CNN
F 4 "Bluetooth HC-06" H 4500 6700 60  0001 C CNN "manf#"
	1    4500 6700
	1    0    0    -1  
$EndComp
$Comp
L main-rescue:GND-RESCUE-main #PWR013
U 1 1 59021FCF
P 11430 5560
F 0 "#PWR013" H 11430 5560 30  0001 C CNN
F 1 "GND" H 11430 5490 30  0001 C CNN
F 2 "" H 11430 5560 60  0000 C CNN
F 3 "" H 11430 5560 60  0000 C CNN
	1    11430 5560
	-1   0    0    -1  
$EndComp
$Comp
L main-rescue:C_Small-RESCUE-main C4
U 1 1 590222D7
P 12730 5460
F 0 "C4" H 12530 5510 50  0000 L CNN
F 1 "10u" H 12580 5410 50  0000 L CNN
F 2 "multispeq:c_0603" H 12730 5460 10  0000 C CNN
F 3 "GRM188R61A106KE69D" H 12730 5460 10  0000 C CNN
F 4 "GRM188R61A106KE69D" H 12730 5460 60  0001 C CNN "manf#"
	1    12730 5460
	-1   0    0    1   
$EndComp
$Comp
L main-rescue:GND-RESCUE-main #PWR014
U 1 1 5902288A
P 13080 5660
F 0 "#PWR014" H 13080 5660 30  0001 C CNN
F 1 "GND" H 13080 5590 30  0001 C CNN
F 2 "" H 13080 5660 60  0000 C CNN
F 3 "" H 13080 5660 60  0000 C CNN
	1    13080 5660
	-1   0    0    -1  
$EndComp
$Comp
L main-rescue:GND-RESCUE-main #PWR015
U 1 1 59042BA2
P 12630 5860
F 0 "#PWR015" H 12630 5860 30  0001 C CNN
F 1 "GND" H 12630 5790 30  0001 C CNN
F 2 "" H 12630 5860 60  0000 C CNN
F 3 "" H 12630 5860 60  0000 C CNN
	1    12630 5860
	-1   0    0    -1  
$EndComp
$Comp
L multispec:OHS3150U U22
U 1 1 5949D58A
P 12330 3555
F 0 "U22" H 12102 3623 40  0000 R CNN
F 1 "OHS3150U" H 12102 3547 40  0000 R CNN
F 2 "multispeq:TO-92_Inline_Narrow_Oval" H 12102 3494 12  0000 R CNN
F 3 "OPTIONAL-HALL" H 12102 3464 12  0000 R CNN
F 4 "OO" H 12330 3555 50  0001 C CNN "Note"
F 5 "OHS3150U" H 12330 3555 60  0001 C CNN "manf#"
	1    12330 3555
	1    0    0    -1  
$EndComp
$Comp
L main-rescue:C_Small-RESCUE-main C66
U 1 1 594A5A0B
P 12155 3230
F 0 "C66" V 12215 3310 50  0000 L CNN
F 1 "10u" V 12225 3055 50  0000 L CNN
F 2 "multispeq:c_0603" H 12155 3230 10  0001 C CNN
F 3 "OPTIONAL-HALL" H 12155 3230 10  0001 C CNN
F 4 "GRM188R61A106KE69D" H 12155 3230 60  0001 C CNN "manf#"
	1    12155 3230
	0    -1   -1   0   
$EndComp
$Comp
L main-rescue:R-RESCUE-main R88
U 1 1 594A5F94
P 12655 3755
F 0 "R88" V 12735 3755 50  0000 C CNN
F 1 "10K" V 12655 3755 50  0000 C CNN
F 2 "multispeq:r_0603" V 12585 3755 30  0001 C CNN
F 3 "OPTIONAL-HALL" H 12655 3755 30  0001 C CNN
F 4 " ERJ-3GEYJ103V" H 12655 3755 60  0001 C CNN "manf#"
	1    12655 3755
	1    0    0    -1  
$EndComp
$Comp
L main-rescue:R-RESCUE-main R89
U 1 1 594A74CC
P 12655 4155
F 0 "R89" V 12735 4155 50  0000 C CNN
F 1 "27K" V 12655 4155 50  0000 C CNN
F 2 "multispeq:r_0603" V 12585 4155 30  0001 C CNN
F 3 "OPTIONAL-HALL" H 12655 4155 30  0001 C CNN
F 4 "RC0603JR-0727KL" H 12655 4155 60  0001 C CNN "manf#"
	1    12655 4155
	1    0    0    -1  
$EndComp
$Comp
L main-rescue:GND-RESCUE-main #PWR016
U 1 1 594AEB5C
P 11880 3280
F 0 "#PWR016" H 11880 3280 30  0001 C CNN
F 1 "GND" H 11880 3210 30  0001 C CNN
F 2 "" H 11880 3280 60  0000 C CNN
F 3 "" H 11880 3280 60  0000 C CNN
	1    11880 3280
	-1   0    0    -1  
$EndComp
$Comp
L main-rescue:GND-RESCUE-main #PWR017
U 1 1 594AF57C
P 12330 3905
F 0 "#PWR017" H 12330 3905 30  0001 C CNN
F 1 "GND" H 12330 3835 30  0001 C CNN
F 2 "" H 12330 3905 60  0000 C CNN
F 3 "" H 12330 3905 60  0000 C CNN
	1    12330 3905
	-1   0    0    -1  
$EndComp
$Comp
L main-rescue:GND-RESCUE-main #PWR018
U 1 1 594AFA7B
P 12655 4305
F 0 "#PWR018" H 12655 4305 30  0001 C CNN
F 1 "GND" H 12655 4235 30  0001 C CNN
F 2 "" H 12655 4305 60  0000 C CNN
F 3 "" H 12655 4305 60  0000 C CNN
	1    12655 4305
	-1   0    0    -1  
$EndComp
$Comp
L main-rescue:GND-RESCUE-main #PWR019
U 1 1 5973FBD2
P 4500 7650
F 0 "#PWR019" H 4500 7400 50  0001 C CNN
F 1 "GND" H 4500 7500 50  0000 C CNN
F 2 "" H 4500 7650 60  0000 C CNN
F 3 "" H 4500 7650 60  0000 C CNN
	1    4500 7650
	1    0    0    -1  
$EndComp
$Comp
L main-rescue:GNDA-RESCUE-main #PWR021
U 1 1 597A5AE7
P 8360 5160
F 0 "#PWR021" H 8360 4910 50  0001 C CNN
F 1 "GNDA" H 8360 5010 50  0000 C CNN
F 2 "" H 8360 5160 60  0000 C CNN
F 3 "" H 8360 5160 60  0000 C CNN
	1    8360 5160
	1    0    0    -1  
$EndComp
$Comp
L main-rescue:R-RESCUE-main R32
U 1 1 59603333
P 2635 3270
F 0 "R32" V 2710 3280 30  0000 C CNN
F 1 "316" V 2635 3270 50  0000 C CNN
F 2 "multispeq:r_0603" H 2635 3270 60  0001 C CNN
F 3 "ERA-3AEB3160VL" V 2635 3270 10  0001 C CNN
F 4 "ERA-3AEB3160V" H 2635 3270 60  0001 C CNN "manf#"
	1    2635 3270
	-1   0    0    1   
$EndComp
$Comp
L main-rescue:R-RESCUE-main R15
U 1 1 59603348
P 2485 3095
F 0 "R15" V 2560 3085 30  0000 C CNN
F 1 "1K" V 2485 3095 50  0000 C CNN
F 2 "multispeq:r_0603" H 2485 3095 60  0001 C CNN
F 3 "RT0603DRD071KL" V 2485 3095 10  0001 C CNN
F 4 "RT0603DRD071KL" H 2485 3095 60  0001 C CNN "manf#"
	1    2485 3095
	0    1    1    0   
$EndComp
$Comp
L main-rescue:C-RESCUE-main C3
U 1 1 59603350
P 2785 3270
F 0 "C3" V 2810 3320 30  0000 L CNN
F 1 "4.7n" V 2810 3145 30  0000 L CNN
F 2 "multispeq:c_0603" H 2785 3270 60  0001 C CNN
F 3 "CL10C220FB8NNNC" H 2785 3270 10  0001 C CNN
F 4 "precision" H 2785 3270 50  0001 C CNN "Note"
F 5 "GRM1885C1H472JA01D" H 2785 3270 60  0001 C CNN "manf#"
	1    2785 3270
	1    0    0    -1  
$EndComp
$Comp
L main-rescue:R-RESCUE-main R31
U 1 1 59612DEC
P 2490 4600
F 0 "R31" V 2565 4605 30  0000 C CNN
F 1 "1K" V 2490 4600 50  0000 C CNN
F 2 "multispeq:r_0603" H 2490 4600 60  0001 C CNN
F 3 "RT0603DRD071KL" V 2490 4600 10  0001 C CNN
F 4 "RT0603DRD071KL" H 2490 4600 60  0001 C CNN "manf#"
	1    2490 4600
	0    1    1    0   
$EndComp
$Comp
L main-rescue:R-RESCUE-main R77
U 1 1 59615188
P 2715 4750
F 0 "R77" V 2790 4755 30  0000 C CNN
F 1 "316" V 2715 4750 50  0000 C CNN
F 2 "multispeq:r_0603" H 2715 4750 60  0001 C CNN
F 3 "ERA-3AEB3160V" V 2715 4750 10  0001 C CNN
F 4 "ERA-3AEB3160V" H 2715 4750 60  0001 C CNN "manf#"
	1    2715 4750
	-1   0    0    1   
$EndComp
$Comp
L main-rescue:C-RESCUE-main C15
U 1 1 59616150
P 2870 4750
F 0 "C15" V 2895 4800 30  0000 L CNN
F 1 "4.7n" V 2895 4625 30  0000 L CNN
F 2 "multispeq:c_0603" H 2870 4750 60  0001 C CNN
F 3 "" H 2870 4750 10  0001 C CNN
F 4 "precision" H 2870 4750 50  0001 C CNN "Note"
F 5 "GRM1885C1H472JA01D" H 2870 4750 60  0001 C CNN "manf#"
	1    2870 4750
	1    0    0    -1  
$EndComp
$Comp
L main-rescue:Audio-Jack-3_2Switches-RESCUE-main J1
U 1 1 5966635A
P 10175 3860
F 0 "J1" H 10151 4285 50  0000 C CNN
F 1 "Audio-Jack-3_2Switches" H 10151 4194 50  0000 C CNN
F 2 "multispeq:SJ1-3523N" H 10425 3960 50  0001 C CNN
F 3 "SJ1-3523N" H 10425 3960 50  0001 C CNN
F 4 "SJ1-3523N" H 10175 3860 60  0001 C CNN "manf#"
	1    10175 3860
	1    0    0    -1  
$EndComp
$Comp
L main-rescue:PhotoD-RESCUE-main D1
U 1 1 59689400
P 1160 3225
F 0 "D1" V 1225 3110 50  0000 R CNN
F 1 "DET1" V 1305 3160 50  0000 R CNN
F 2 "multispeq:Pin_diode_SIPS_down" V 1165 3265 12  0000 R CNN
F 3 "S6775 Hamamatsu" H 1220 3225 10  0000 C CNN
F 4 "S6775 Hamamatsu" V 1160 3225 60  0001 C CNN "manf#"
	1    1160 3225
	0    1    1    0   
$EndComp
$Comp
L main-rescue:PhotoD-RESCUE-main D17
U 1 1 5968E318
P 1200 4665
F 0 "D17" V 1265 4575 50  0000 R CNN
F 1 "DET2" V 1340 4595 50  0000 R CNN
F 2 "multispeq:Pin_diode_SIPS_down" V 1200 4705 12  0000 R CNN
F 3 "S6775-01 Hamamatsu" H 1260 4665 10  0000 C CNN
F 4 "S6775-01 Hamamatsu" V 1200 4665 60  0001 C CNN "manf#"
	1    1200 4665
	0    1    1    0   
$EndComp
$Comp
L main-rescue:GNDA-RESCUE-main #PWR022
U 1 1 5969D9A9
P 10735 3960
F 0 "#PWR022" H 10735 3710 50  0001 C CNN
F 1 "GNDA" H 10735 3810 50  0000 C CNN
F 2 "" H 10735 3960 60  0000 C CNN
F 3 "" H 10735 3960 60  0000 C CNN
	1    10735 3960
	1    0    0    -1  
$EndComp
$Comp
L multispec:BME680 U4
U 1 1 5A3692C9
P 12230 5710
F 0 "U4" H 12430 5410 60  0000 C CNN
F 1 "BME680" H 12030 6010 40  0000 C CNN
F 2 "multispeq:BME680_UL" H 12230 5710 60  0001 C CNN
F 3 "BME680" H 12235 5295 60  0000 C CNN
F 4 "O?" H 12230 5710 50  0001 C CNN "Note"
F 5 "BME680" H 12230 5710 50  0001 C CNN "Desc"
F 6 "BME680" H 12230 5710 60  0001 C CNN "manf#"
	1    12230 5710
	1    0    0    -1  
$EndComp
$Comp
L main-rescue:C-RESCUE-main C12
U 1 1 5A3DCE40
P 1410 2315
F 0 "C12" V 1435 2365 30  0000 L CNN
F 1 "150p" V 1435 2190 30  0000 L CNN
F 2 "multispeq:c_0603" H 1410 2315 60  0001 C CNN
F 3 "GRM1885C1H151JA01D" H 1410 2315 10  0001 C CNN
F 4 "precision" H 1410 2315 50  0001 C CNN "Note"
F 5 "GRM1885C1H151JA01D" H 1410 2315 60  0001 C CNN "manf#"
	1    1410 2315
	0    1    1    0   
$EndComp
$Comp
L main-rescue:R-RESCUE-main R29
U 1 1 5A3DDB46
P 1410 2545
F 0 "R29" V 1485 2555 30  0000 C CNN
F 1 "13K" V 1410 2545 50  0000 C CNN
F 2 "multispeq:r_0603" H 1410 2545 60  0001 C CNN
F 3 "RT0603DRD0713KL" V 1410 2545 10  0001 C CNN
F 4 "N" H 1410 2545 50  0001 C CNN "Substitute"
F 5 "thin film" H 1410 2545 50  0001 C CNN "Note"
F 6 "RT0603DRD0713KL" H 1410 2545 60  0001 C CNN "manf#"
	1    1410 2545
	0    -1   -1   0   
$EndComp
$Comp
L main-rescue:C-RESCUE-main C62
U 1 1 5A3DECD3
P 1415 3790
F 0 "C62" V 1440 3840 30  0000 L CNN
F 1 "560p" V 1440 3665 30  0000 L CNN
F 2 "multispeq:c_0603" H 1415 3790 60  0001 C CNN
F 3 "GRM1885C1H561JA01D " H 1415 3790 10  0001 C CNN
F 4 "precision" H 1415 3790 50  0001 C CNN "Note"
F 5 "GRM1885C1H561JA01D " H 1415 3790 60  0001 C CNN "manf#"
	1    1415 3790
	0    -1   -1   0   
$EndComp
$Comp
L main-rescue:R-RESCUE-main R59
U 1 1 5A3DEFE9
P 1415 4030
F 0 "R59" V 1490 4040 30  0000 C CNN
F 1 "2K" V 1415 4030 50  0000 C CNN
F 2 "multispeq:r_0603" H 1415 4030 60  0001 C CNN
F 3 "RR0816P-202-D" V 1415 4030 10  0001 C CNN
F 4 "thin film" H 1415 4030 50  0001 C CNN "Note"
F 5 "RR0816P-202-D" H 1415 4030 60  0001 C CNN "manf#"
	1    1415 4030
	0    -1   -1   0   
$EndComp
$Comp
L main-rescue:R-RESCUE-main R35
U 1 1 5A997BFA
P 3105 4900
F 0 "R35" V 3180 4905 30  0000 C CNN
F 1 "0" V 3105 4900 50  0000 C CNN
F 2 "multispeq:r_0603" H 3105 4900 60  0001 C CNN
F 3 "ERJ-3GEY0R00V" V 3105 4900 10  0001 C CNN
F 4 "ERJ-3GEY0R00V" H 3105 4900 50  0001 C CNN "Desc"
F 5 "ERJ-3GEY0R00V" H 3105 4900 60  0001 C CNN "manf#"
	1    3105 4900
	0    1    1    0   
$EndComp
$Comp
L main-rescue:R-RESCUE-main R34
U 1 1 5A9980A2
P 3030 3420
F 0 "R34" V 3105 3425 30  0000 C CNN
F 1 "0" V 3030 3420 50  0000 C CNN
F 2 "multispeq:r_0603" H 3030 3420 60  0001 C CNN
F 3 "ERJ-3GEY0R00V" V 3030 3420 10  0001 C CNN
F 4 "ERJ-3GEY0R00V" H 3030 3420 50  0001 C CNN "Desc"
F 5 "ERJ-3GEY0R00V" H 3030 3420 60  0001 C CNN "manf#"
	1    3030 3420
	0    1    1    0   
$EndComp
$Comp
L main-rescue:+5V-power #PWR04
U 1 1 5AA43BAC
P 12800 1340
F 0 "#PWR04" H 12800 1190 50  0001 C CNN
F 1 "+5V" H 12915 1490 50  0000 C CNN
F 2 "" H 12800 1340 50  0001 C CNN
F 3 "" H 12800 1340 50  0001 C CNN
	1    12800 1340
	1    0    0    -1  
$EndComp
$Comp
L main-rescue:C_Small-RESCUE-main C8
U 1 1 5AA99242
P 11680 1540
F 0 "C8" H 11705 1465 50  0000 L CNN
F 1 "10u" H 11705 1615 50  0000 L CNN
F 2 "multispeq:c_0603" H 11680 1540 10  0001 C CNN
F 3 "GRM188R61A106KE69D" H 11680 1540 10  0001 C CNN
F 4 "GRM188R61A106KE69D" H 11680 1540 60  0001 C CNN "manf#"
	1    11680 1540
	-1   0    0    1   
$EndComp
$Comp
L main-rescue:C_Small-RESCUE-main C10
U 1 1 5AA9924A
P 12685 1535
F 0 "C10" H 12710 1460 50  0000 L CNN
F 1 "10u" H 12710 1610 50  0000 L CNN
F 2 "multispeq:c_0603" H 12685 1535 10  0001 C CNN
F 3 "GRM188R61A106KE69D" H 12685 1535 10  0001 C CNN
F 4 "GRM188R61A106KE69D" H 12685 1535 60  0001 C CNN "manf#"
	1    12685 1535
	-1   0    0    1   
$EndComp
$Comp
L main-rescue:AP1117-50-RESCUE-main U3
U 1 1 5AA99252
P 12120 1340
F 0 "U3" H 12090 1355 50  0000 C CNN
F 1 "5V Linear Reg" H 11815 1495 50  0000 L CNN
F 2 "multispeq:SOT-223-3_TabPin2_LL" H 12120 1540 50  0001 C CNN
F 3 "LDL1117S50R" H 12220 1090 50  0001 C CNN
F 4 "OO" H 12120 1340 50  0001 C CNN "Note"
F 5 "LDL1117S50R" H 12120 1340 60  0001 C CNN "manf#"
	1    12120 1340
	1    0    0    -1  
$EndComp
$Comp
L main-rescue:GND-RESCUE-main #PWR06
U 1 1 5ABB5F27
P 12940 1760
F 0 "#PWR06" H 12940 1760 30  0001 C CNN
F 1 "GND" H 12940 1690 30  0001 C CNN
F 2 "" H 12940 1760 60  0000 C CNN
F 3 "" H 12940 1760 60  0000 C CNN
	1    12940 1760
	-1   0    0    -1  
$EndComp
$Comp
L main-rescue:GND-RESCUE-main #PWR020
U 1 1 5AC122AB
P 2300 1400
F 0 "#PWR020" H 2300 1400 30  0001 C CNN
F 1 "GND" H 2300 1330 30  0001 C CNN
F 2 "" H 2300 1400 60  0000 C CNN
F 3 "" H 2300 1400 60  0000 C CNN
	1    2300 1400
	-1   0    0    -1  
$EndComp
$Comp
L main-rescue:PWR_FLAG-RESCUE-main #FLG02
U 1 1 5ACE8D01
P 7255 2105
F 0 "#FLG02" H 7255 2200 30  0001 C CNN
F 1 "PWR_FLAG" H 7255 2285 30  0000 C CNN
F 2 "" H 7255 2105 60  0000 C CNN
F 3 "" H 7255 2105 60  0000 C CNN
	1    7255 2105
	-1   0    0    -1  
$EndComp
$Comp
L main-rescue:PWR_FLAG-RESCUE-main #FLG05
U 1 1 5AED48DF
P 12940 1760
F 0 "#FLG05" H 12940 1855 30  0001 C CNN
F 1 "PWR_FLAG" H 12940 1940 30  0000 C CNN
F 2 "" H 12940 1760 60  0000 C CNN
F 3 "" H 12940 1760 60  0000 C CNN
	1    12940 1760
	-1   0    0    -1  
$EndComp
$Comp
L main-rescue:Conn_01x01-Connector_Generic J5
U 1 1 5AA211BA
P 8260 7560
F 0 "J5" H 8340 7556 50  0000 L CNN
F 1 "Conn_01x01" H 8340 7511 50  0001 L CNN
F 2 "PINTST" H 8260 7560 50  0001 C CNN
F 3 "" H 8260 7560 50  0001 C CNN
F 4 "DNI" H 8260 7560 50  0001 C CNN "manf#"
	1    8260 7560
	1    0    0    -1  
$EndComp
$Comp
L main-rescue:Conn_01x01-Connector_Generic J6
U 1 1 5AA3F5D1
P 8260 7660
F 0 "J6" H 8340 7656 50  0000 L CNN
F 1 "Conn_01x01" H 8340 7611 50  0001 L CNN
F 2 "PINTST" H 8260 7660 50  0001 C CNN
F 3 "" H 8260 7660 50  0001 C CNN
F 4 "DNI" H 8260 7660 50  0001 C CNN "manf#"
	1    8260 7660
	1    0    0    -1  
$EndComp
$Comp
L main-rescue:GND-RESCUE-main #PWR070
U 1 1 5AA70E3F
P 7260 1630
F 0 "#PWR070" H 7260 1630 30  0001 C CNN
F 1 "GND" H 7260 1560 30  0001 C CNN
F 2 "" H 7260 1630 60  0000 C CNN
F 3 "" H 7260 1630 60  0000 C CNN
	1    7260 1630
	-1   0    0    -1  
$EndComp
$Comp
L main-rescue:R-RESCUE-main R86
U 1 1 5AA80BDA
P 7260 1180
F 0 "R86" V 7340 1180 50  0000 C CNN
F 1 "2K" V 7260 1180 50  0000 C CNN
F 2 "multispeq:r_0603" V 7190 1180 30  0001 C CNN
F 3 " ERJ-3GEYJ202V" H 7260 1180 30  0001 C CNN
F 4 " ERJ-3GEYJ202V" H 7260 1180 60  0001 C CNN "manf#"
	1    7260 1180
	1    0    0    -1  
$EndComp
$Comp
L Mechanical:MountingHole Fid2
U 1 1 5B81DA4A
P 2570 6830
F 0 "Fid2" H 2670 6876 50  0000 L CNN
F 1 "Fiducial" H 2670 6785 50  0000 L CNN
F 2 "Fiducial:Fiducial_0.75mm_Dia_1.5mm_Outer" H 2570 6830 50  0001 C CNN
F 3 "~" H 2570 6830 50  0001 C CNN
	1    2570 6830
	1    0    0    -1  
$EndComp
$Comp
L Mechanical:MountingHole Fid1
U 1 1 5B83D4B1
P 2560 7055
F 0 "Fid1" H 2660 7101 50  0000 L CNN
F 1 "Fiducial" H 2660 7010 50  0000 L CNN
F 2 "Fiducial:Fiducial_0.75mm_Dia_1.5mm_Outer" H 2560 7055 50  0001 C CNN
F 3 "~" H 2560 7055 50  0001 C CNN
	1    2560 7055
	1    0    0    -1  
$EndComp
$Comp
L Mechanical:MountingHole Fid3
U 1 1 5B84CFC5
P 2570 7295
F 0 "Fid3" H 2670 7341 50  0000 L CNN
F 1 "Fiducial" H 2670 7250 50  0000 L CNN
F 2 "Fiducial:Fiducial_0.75mm_Dia_1.5mm_Outer" H 2570 7295 50  0001 C CNN
F 3 "~" H 2570 7295 50  0001 C CNN
	1    2570 7295
	1    0    0    -1  
$EndComp
Text GLabel 10535 5610 2    40   BiDi ~ 0
SDA
Text GLabel 9710 5610 0    40   Input ~ 0
SCL
Text GLabel 10535 5260 2    40   Input ~ 0
+3.3V_SW
Text Notes 10150 5095 0    60   ~ 0
IR temperature
Text GLabel 8060 6785 2    40   Output ~ 0
Intensity
Text GLabel 2120 1100 2    39   Input ~ 0
+5V
Text GLabel 2120 1200 2    40   Input ~ 0
Intensity
Text GLabel 2120 1300 2    40   Input ~ 0
PULSEOFF
Text GLabel 3265 3420 2    39   Output ~ 0
A1_N
Text GLabel 6260 6185 0    40   Output ~ 0
PULSE7
Text GLabel 6260 6385 0    40   Output ~ 0
PULSE8
Text GLabel 6260 5885 0    40   Output ~ 0
PULSE9
Text GLabel 6260 5585 0    40   Output ~ 0
PULSE6
Text GLabel 6260 5985 0    40   Output ~ 0
PULSE10
Text GLabel 6260 5785 0    40   Output ~ 0
PULSE3
Text GLabel 6260 7235 0    40   Output ~ 0
SCL
Text GLabel 6260 7135 0    40   BiDi ~ 0
SDA
Text GLabel 6260 5485 0    40   Output ~ 0
PULSE5
Text GLabel 6260 6285 0    40   Output ~ 0
PULSE1
Text GLabel 6260 5685 0    40   Output ~ 0
PULSE2
Text GLabel 6260 6085 0    40   Output ~ 0
PULSE4
Text GLabel 8060 6910 2    40   Input ~ 0
BLE_TXd
Text GLabel 8060 7010 2    40   Output ~ 0
BLE_RXd
Text GLabel 6260 4960 0    39   Output ~ 0
+3.3V
Text GLabel 9340 1430 0    39   Output ~ 0
D+
Text GLabel 9340 1330 0    39   Output ~ 0
D-
Text GLabel 6260 5160 0    39   BiDi ~ 0
D+
Text GLabel 6260 5260 0    39   BiDi ~ 0
D-
Text GLabel 6260 5035 0    39   Input ~ 0
+3.3V
Text GLabel 6260 6685 0    40   Input ~ 0
Bat_test
Text GLabel 4550 2050 0    40   Output ~ 0
Bat_test
Text GLabel 10265 980  0    39   Output ~ 0
Vbatt
Text GLabel 5075 1225 2    39   Input ~ 0
Vbatt
Text GLabel 8085 5635 2    39   Output ~ 0
~Bat_meas
Text GLabel 4275 1475 0    39   Input ~ 0
~Bat_meas
Text Notes 3725 1890 0    60   ~ 0
Battery level\nvoltage measurement\nswitch 
Text GLabel 8060 7340 2    40   Input ~ 0
5V_USB_meas
Text GLabel 11790 4505 2    40   Input ~ 0
SDA
Text GLabel 11790 4605 2    40   Input ~ 0
SCL
Text GLabel 11415 4555 0    39   Input ~ 0
+3.3V_SW
Text Notes 11195 4335 0    60   ~ 0
I2C pull-up's\n(optional)
Text GLabel 10340 2205 0    40   Input ~ 0
wake_DC/DC
Text GLabel 6180 2105 0    39   Input ~ 0
Vbatt
Text GLabel 7380 2105 2    39   Output ~ 0
Vbatt/SW
Text GLabel 6260 4885 0    39   Input ~ 0
Vbatt/SW
Text GLabel 6755 1430 2    39   Input ~ 0
~3.3V_ON
Text GLabel 6255 1030 0    39   Input ~ 0
+3.3V
Text GLabel 7350 1030 2    39   Output ~ 0
+3.3V_SW
Text GLabel 8085 6160 2    40   Output ~ 0
wake_DC/DC
Text Notes 7180 2405 0    60   ~ 0
main SW RESET \ncircuit
Text Notes 5965 1350 0    60   ~ 0
3.3V switched \ncircuit
Text GLabel 8085 6285 2    39   Output ~ 0
~3.3V_ON
Text Notes 8585 7060 1    24   ~ 0
BLE_DATA
Text Notes 8585 7135 3    16   ~ 0
External I2C
Text Label 6905 2455 0    39   ~ 0
reset
Text GLabel 8990 1530 0    40   Output ~ 0
5V_USB_meas
Text GLabel 3625 5750 0    39   Input ~ 0
+3.3V_SW
Text GLabel 3625 6250 0    40   Input ~ 0
BLE_RXd
Text GLabel 3625 6350 0    40   Output ~ 0
BLE_TXd
Text Notes 3850 5525 0    60   ~ 0
Bluetooth Classic Module
Text GLabel 12905 5560 2    40   Input ~ 0
+3.3V_SW
Text GLabel 11830 5860 0    40   Input ~ 0
SCL
Text GLabel 11830 5760 0    40   BiDi ~ 0
SDA
Text GLabel 11830 5660 0    40   Input ~ 0
+3.3V_SW
Text GLabel 4350 3595 0    40   Input ~ 0
LED_Drive
Text GLabel 4375 4705 0    40   Input ~ 0
PULSE10
Text GLabel 4375 4525 0    40   Input ~ 0
PULSE8
Text GLabel 4375 4435 0    40   Input ~ 0
PULSE7
Text GLabel 4375 4345 0    40   Input ~ 0
PULSE6
Text GLabel 4375 3895 0    40   Input ~ 0
PULSE1
Text GLabel 4375 3985 0    40   Input ~ 0
PULSE2
Text GLabel 4375 4075 0    40   Input ~ 0
PULSE3
Text GLabel 4375 4165 0    40   Input ~ 0
PULSE4
Text GLabel 4375 4255 0    40   Input ~ 0
PULSE5
Text GLabel 4350 3720 0    39   Input ~ 0
+5V
Text Notes 11955 5285 0    60   ~ 0
Humidity Sensor
Text GLabel 8085 5935 2    39   Input ~ 0
A1_N
Text GLabel 8085 6035 2    39   Input ~ 0
A1_P
Text Notes 8410 5960 0    40   ~ 0
Differential inputs\nParallel traces\nall the way to detector GND
Text GLabel 3305 4900 2    39   Output ~ 0
A2_N
Text GLabel 8085 5735 2    39   Input ~ 0
A2_N
Text GLabel 8085 5835 2    39   Input ~ 0
A2_P
Text GLabel 12405 3230 2    40   Input ~ 0
+5V
Text GLabel 12780 3955 2    40   Output ~ 0
Hall_out
Text GLabel 6260 6785 0    40   Input ~ 0
Hall_out
Text GLabel 4375 4615 0    40   Input ~ 0
PULSE9
Text GLabel 8060 6685 2    40   Output ~ 0
PULSEOFF
Text GLabel 3295 4600 2    39   Output ~ 0
A2_P
Text GLabel 3255 3095 2    39   Output ~ 0
A1_P
Text Notes 8050 5115 0    39   ~ 0
Use for analog out (via audio jack)
Text Notes 2730 2890 0    39   ~ 0
place filter near MK20
Text Notes 2755 4415 0    39   ~ 0
place filter near MK20
Text GLabel 10855 3760 2    40   Input ~ 0
+3.3V_SW
Text Notes 9425 3345 0    60   ~ 0
SDI-12 or Analog input via audio jack
Text GLabel 8060 6585 2    40   Input ~ 0
Analog_out
Text GLabel 9915 4085 0    40   Input ~ 0
Analog_out
Text Notes 12745 3405 0    60   ~ 0
Hall effect
Text Notes 2390 3035 0    60   ~ 0
thin film
Text Notes 2395 4540 0    60   ~ 0
thin film
Text Notes 2935 3285 0    60   ~ 0
C0G
Text Notes 2990 4775 0    60   ~ 0
C0G
Text Notes 4925 800  0    60   ~ 0
USE ONLY 5MILS GRID
Text Notes 825  3835 0    40   ~ 0
NP0/C0G
Text Notes 895  4085 0    39   ~ 0
low ppm\nthin film
Text Notes 835  2350 0    40   ~ 0
NP0/C0G
Text Notes 865  2610 0    39   ~ 0
low ppm\nthin film
Text Notes 1595 3930 0    39   ~ 0
place near op amp
Text Notes 1580 2450 0    39   ~ 0
place near op amp
Text Label 2120 3095 0    30   ~ 0
DET1_P
Text Label 2125 4600 0    30   ~ 0
DET2_P
Text Label 2315 3420 0    30   ~ 0
DET1_N
Text Label 2345 4900 0    30   ~ 0
DET2_N
Text Notes 1115 6210 0    60   ~ 0
Hammamatsu Detectors
Text GLabel 980  7050 0    39   Output ~ 0
A1_N
Text GLabel 980  6840 0    39   Output ~ 0
A2_N
Text GLabel 980  6950 0    39   Output ~ 0
A2_P
Text GLabel 980  7160 0    39   Input ~ 0
A1_P
Text GLabel 12850 1340 2    40   Input ~ 0
+5V
Text GLabel 6260 7010 0    40   Output ~ 0
~LDAC
Text GLabel 6310 7620 0    40   Output ~ 0
CLK
Text GLabel 6310 7350 0    40   Input ~ 0
MISO
Text GLabel 6310 7440 0    40   Output ~ 0
MOSI
Text Notes 6470 7460 0    40   ~ 0
SPI
Text Notes 6570 7210 0    40   ~ 0
I2C
Text GLabel 6310 7530 0    40   Output ~ 0
CNV
Text Notes 8080 7800 0    60   ~ 0
Serial Port
Text Notes 9260 5505 0    31   ~ 0
DNI - another 10u is right next \nto it from the BME
Text GLabel 6310 6910 0    40   Input ~ 0
voltage_sample
Text Notes 6540 5250 0    60   ~ 0
USB
Wire Wire Line
	8010 6035 8085 6035
Wire Wire Line
	6310 5260 6260 5260
Wire Wire Line
	6310 5160 6260 5160
Wire Wire Line
	9340 1430 9390 1430
Wire Wire Line
	9340 1330 9390 1330
Wire Wire Line
	10090 1180 10290 1180
Wire Wire Line
	6310 5035 6260 5035
Wire Wire Line
	6260 4960 6310 4960
Wire Wire Line
	8010 6160 8085 6160
Wire Wire Line
	8010 7010 8060 7010
Wire Wire Line
	8010 6910 8060 6910
Wire Wire Line
	6310 6785 6260 6785
Wire Wire Line
	6310 6685 6260 6685
Wire Wire Line
	6310 6585 6260 6585
Wire Wire Line
	6310 7010 6260 7010
Wire Wire Line
	8060 7460 8010 7460
Wire Wire Line
	8010 7660 8060 7660
Wire Wire Line
	8010 7560 8060 7560
Wire Wire Line
	8010 7235 8060 7235
Wire Wire Line
	8010 7135 8060 7135
Wire Wire Line
	8010 5935 8085 5935
Wire Wire Line
	8010 6785 8060 6785
Wire Wire Line
	8010 6685 8060 6685
Wire Wire Line
	8010 6585 8060 6585
Wire Wire Line
	8010 5635 8085 5635
Wire Wire Line
	6310 7235 6260 7235
Wire Wire Line
	6310 7135 6260 7135
Wire Wire Line
	6260 4885 6310 4885
Wire Wire Line
	6260 6385 6310 6385
Wire Wire Line
	6260 6285 6310 6285
Wire Wire Line
	6260 6185 6310 6185
Wire Wire Line
	6260 6085 6310 6085
Wire Wire Line
	6260 5985 6310 5985
Wire Wire Line
	6260 5885 6310 5885
Wire Wire Line
	6260 5785 6310 5785
Wire Wire Line
	6260 5685 6310 5685
Wire Wire Line
	6260 5585 6310 5585
Wire Wire Line
	6260 5485 6310 5485
Wire Wire Line
	10010 5260 10135 5260
Wire Wire Line
	9785 5610 9710 5610
Wire Wire Line
	10135 5960 10135 5985
Wire Wire Line
	10535 5610 10485 5610
Wire Wire Line
	2070 1300 2120 1300
Wire Wire Line
	2070 1200 2120 1200
Wire Wire Line
	2120 1100 2070 1100
Wire Wire Line
	10290 980  10290 1180
Wire Wire Line
	10265 980  10290 980 
Wire Wire Line
	4275 1475 4425 1475
Wire Wire Line
	4425 1475 4425 1225
Wire Wire Line
	4725 1225 4775 1225
Wire Wire Line
	4775 1225 4775 1275
Wire Wire Line
	4775 1675 4775 1725
Wire Wire Line
	4775 2025 4775 2050
Wire Wire Line
	4650 2150 4650 2050
Wire Wire Line
	4650 2350 4650 2375
Wire Wire Line
	4650 2375 4775 2375
Wire Wire Line
	4775 2375 4775 2425
Wire Wire Line
	4550 2050 4650 2050
Wire Wire Line
	8010 5835 8085 5835
Wire Wire Line
	8010 5735 8085 5735
Wire Wire Line
	10390 1780 10390 1680
Wire Wire Line
	10390 1680 10490 1680
Wire Wire Line
	10090 1280 10190 1280
Wire Wire Line
	10390 2080 10390 2205
Wire Wire Line
	11415 4555 11490 4555
Wire Wire Line
	11490 4505 11490 4555
Wire Wire Line
	10390 2205 10340 2205
Wire Wire Line
	6880 2405 6880 2455
Wire Wire Line
	6830 2455 6880 2455
Wire Wire Line
	6230 2455 6230 2105
Wire Wire Line
	7080 2105 7255 2105
Wire Wire Line
	6255 1030 6305 1030
Wire Wire Line
	6705 1430 6705 1330
Wire Wire Line
	6905 1030 7050 1030
Wire Wire Line
	6305 1430 6305 1030
Wire Wire Line
	6605 1430 6705 1430
Wire Wire Line
	8085 6285 8010 6285
Wire Bus Line
	8460 6885 8535 6885
Wire Bus Line
	8535 6885 8535 7060
Wire Bus Line
	8535 7060 8460 7060
Wire Bus Line
	8460 7110 8535 7110
Wire Bus Line
	8535 7110 8535 7285
Wire Bus Line
	8535 7285 8460 7285
Wire Bus Line
	8385 7210 8460 7210
Wire Wire Line
	9040 1180 9390 1180
Wire Wire Line
	9040 1480 9040 1530
Wire Wire Line
	8990 1530 9040 1530
Wire Wire Line
	3625 5750 4500 5750
Wire Wire Line
	3625 6250 3900 6250
Wire Wire Line
	3625 6350 3900 6350
Wire Wire Line
	12630 5560 12730 5560
Wire Wire Line
	11430 5560 11830 5560
Wire Wire Line
	12730 5360 11430 5360
Wire Wire Line
	11430 5360 11430 5560
Wire Wire Line
	12630 5660 13080 5660
Wire Wire Line
	12730 5560 12730 5760
Wire Wire Line
	12730 5760 12630 5760
Wire Wire Line
	6180 2105 6230 2105
Wire Wire Line
	4350 3595 4425 3595
Wire Wire Line
	4375 4705 4425 4705
Wire Wire Line
	4375 4525 4425 4525
Wire Wire Line
	4375 4435 4425 4435
Wire Wire Line
	4375 4345 4425 4345
Wire Wire Line
	4375 4255 4425 4255
Wire Wire Line
	4375 4165 4425 4165
Wire Wire Line
	4375 4075 4425 4075
Wire Wire Line
	4375 3985 4425 3985
Wire Wire Line
	4375 3895 4425 3895
Wire Wire Line
	4400 7650 4500 7650
Wire Wire Line
	4350 3720 4425 3720
Wire Wire Line
	8060 7340 8010 7340
Wire Wire Line
	12655 3905 12655 3955
Wire Wire Line
	12580 3555 12655 3555
Wire Wire Line
	12655 3555 12655 3605
Wire Wire Line
	12330 3305 12330 3230
Wire Wire Line
	12255 3230 12330 3230
Wire Wire Line
	12055 3230 11880 3230
Wire Wire Line
	11880 3230 11880 3280
Wire Wire Line
	12330 3805 12330 3905
Wire Wire Line
	12655 3955 12780 3955
Wire Wire Line
	4375 4615 4425 4615
Wire Wire Line
	8010 5535 8070 5535
Wire Wire Line
	2040 3095 2335 3095
Wire Wire Line
	2040 4600 2340 4600
Wire Wire Line
	8010 5160 8360 5160
Wire Wire Line
	2635 3095 2785 3095
Wire Wire Line
	2785 3095 2785 3120
Wire Wire Line
	2635 3120 2635 3095
Wire Wire Line
	2640 4600 2715 4600
Wire Wire Line
	2140 4900 2715 4900
Wire Wire Line
	9975 4060 9975 4085
Wire Wire Line
	9975 4085 9915 4085
Wire Wire Line
	1160 3075 1205 3075
Wire Wire Line
	1295 3375 1160 3375
Wire Wire Line
	1300 4815 1200 4815
Wire Wire Line
	1200 4515 1230 4515
Wire Wire Line
	2040 3300 2165 3300
Wire Wire Line
	2040 4770 2140 4770
Wire Wire Line
	2140 4770 2140 4900
Wire Wire Line
	2635 3420 2635 3415
Wire Wire Line
	2785 3420 2785 3425
Wire Wire Line
	2165 3420 2635 3420
Wire Wire Line
	1560 2315 1560 2545
Wire Wire Line
	1565 3790 1565 4030
Wire Wire Line
	1560 2545 2335 2545
Wire Wire Line
	2335 2545 2335 3095
Wire Wire Line
	1565 4030 2340 4030
Wire Wire Line
	2340 4030 2340 4600
Wire Wire Line
	1260 2315 1205 2315
Wire Wire Line
	1205 2315 1205 2545
Wire Wire Line
	1260 2545 1205 2545
Wire Wire Line
	1230 3790 1230 4030
Wire Wire Line
	1230 3790 1265 3790
Wire Wire Line
	1265 4030 1230 4030
Wire Wire Line
	2165 3300 2165 3420
Wire Wire Line
	10135 5260 10535 5260
Wire Wire Line
	10290 1180 10490 1180
Wire Wire Line
	4775 2050 4775 2075
Wire Wire Line
	4425 1475 4475 1475
Wire Wire Line
	4775 1225 5075 1225
Wire Wire Line
	4650 2050 4775 2050
Wire Wire Line
	11490 4555 11490 4605
Wire Wire Line
	6880 2455 6880 2505
Wire Wire Line
	6880 2455 6905 2455
Wire Wire Line
	6230 2105 6680 2105
Wire Wire Line
	6305 1030 6505 1030
Wire Wire Line
	6705 1430 6755 1430
Wire Wire Line
	9040 1530 9040 1555
Wire Wire Line
	12730 5560 12905 5560
Wire Wire Line
	4500 7650 4600 7650
Wire Wire Line
	12330 3230 12405 3230
Wire Wire Line
	12655 3955 12655 4005
Wire Wire Line
	2785 3095 3255 3095
Wire Wire Line
	2635 3420 2785 3420
Wire Wire Line
	2715 4600 2870 4600
Wire Wire Line
	2870 4600 3295 4600
Wire Wire Line
	2715 4900 2870 4900
Wire Wire Line
	1205 3075 1295 3075
Wire Wire Line
	1205 2545 1205 3075
Wire Wire Line
	1230 4515 1300 4515
Wire Wire Line
	1230 4030 1230 4515
Wire Wire Line
	2870 4900 2955 4900
Wire Wire Line
	2785 3420 2880 3420
Wire Wire Line
	3255 4900 3305 4900
Wire Wire Line
	3180 3420 3265 3420
Wire Wire Line
	12120 1640 12120 1760
Wire Wire Line
	11680 1760 12120 1760
Wire Wire Line
	12685 1760 12940 1760
Wire Wire Line
	12120 1760 12685 1760
Wire Wire Line
	12685 1635 12685 1760
Wire Wire Line
	11680 1640 11680 1760
Wire Wire Line
	12685 1435 12685 1340
Wire Wire Line
	12420 1340 12685 1340
Wire Wire Line
	12685 1340 12800 1340
Wire Wire Line
	11680 1440 11680 1340
Wire Wire Line
	11680 1340 11820 1340
Wire Wire Line
	11190 1340 11680 1340
Wire Wire Line
	12800 1340 12850 1340
Wire Wire Line
	2070 1400 2300 1400
Wire Wire Line
	7255 2105 7380 2105
Wire Notes Line
	6470 7350 6580 7350
Wire Notes Line
	6590 7350 6640 7350
Wire Notes Line
	6640 7350 6640 7690
Wire Notes Line
	6640 7690 6490 7690
Wire Wire Line
	7050 1030 7260 1030
Wire Wire Line
	7260 1030 7350 1030
Connection ~ 10135 5260
Connection ~ 10290 1180
Connection ~ 4775 2050
Connection ~ 4425 1475
Connection ~ 4775 1225
Connection ~ 4650 2050
Connection ~ 11490 4555
Connection ~ 6880 2455
Connection ~ 6230 2105
Connection ~ 6305 1030
Connection ~ 6705 1430
Connection ~ 9040 1530
Connection ~ 11430 5560
Connection ~ 12730 5560
Connection ~ 4500 7650
Connection ~ 12330 3230
Connection ~ 12655 3955
Connection ~ 2785 3095
Connection ~ 2785 3420
Connection ~ 2635 3420
Connection ~ 2635 3095
Connection ~ 2715 4600
Connection ~ 2870 4600
Connection ~ 2870 4900
Connection ~ 2715 4900
Connection ~ 2335 3095
Connection ~ 2340 4600
Connection ~ 1205 3075
Connection ~ 1205 2545
Connection ~ 1230 4515
Connection ~ 1230 4030
Connection ~ 12685 1760
Connection ~ 12120 1760
Connection ~ 12685 1340
Connection ~ 11680 1340
Connection ~ 12800 1340
Connection ~ 7050 1030
Connection ~ 7255 2105
Connection ~ 12940 1760
Connection ~ 7260 1030
Connection ~ 1560 2545
Connection ~ 1565 4030
NoConn ~ 5100 6000
NoConn ~ 5100 6100
NoConn ~ 5100 6300
NoConn ~ 5100 6400
NoConn ~ 5100 6500
NoConn ~ 5100 6600
NoConn ~ 5100 6700
NoConn ~ 5100 6800
NoConn ~ 5100 6900
NoConn ~ 5100 7000
NoConn ~ 5100 7100
NoConn ~ 5100 7200
NoConn ~ 5100 7300
NoConn ~ 5100 7400
NoConn ~ 3900 6050
NoConn ~ 3900 6150
NoConn ~ 3900 6500
NoConn ~ 3900 6600
NoConn ~ 3900 6700
NoConn ~ 3900 6800
NoConn ~ 3900 6950
NoConn ~ 3900 7050
NoConn ~ 3900 7200
NoConn ~ 3900 7300
NoConn ~ 3900 7400
NoConn ~ 3900 7500
NoConn ~ 3900 5900
NoConn ~ 8060 7135
NoConn ~ 8060 7235
NoConn ~ 6260 6585
NoConn ~ 10375 3660
NoConn ~ 10375 3960
NoConn ~ 1320 6810
NoConn ~ 1320 6920
NoConn ~ 1320 7020
NoConn ~ 1320 7130
$Comp
L main-rescue:PWR_FLAG-RESCUE-main #FLG0101
U 1 1 5B8D1AE4
P 12685 1340
F 0 "#FLG0101" H 12685 1435 30  0001 C CNN
F 1 "PWR_FLAG" H 12685 1520 30  0000 C CNN
F 2 "" H 12685 1340 60  0000 C CNN
F 3 "" H 12685 1340 60  0000 C CNN
	1    12685 1340
	-1   0    0    -1  
$EndComp
Text GLabel 1320 1100 0    40   Input ~ 0
LED_Drive
Text Notes 2435 3725 0    60   ~ 0
impedance should\nbe balanced
$Comp
L Device:LED_ALT D2
U 1 1 5B9BCE5C
P 7260 1480
F 0 "D2" V 7298 1362 50  0000 R CNN
F 1 "GREEN LED" V 7207 1362 50  0000 R CNN
F 2 "multispeq:Led_0603_QBLP617" H 7260 1480 50  0001 C CNN
F 3 "~" H 7260 1480 50  0001 C CNN
F 4 "QBLP617-IG" H 7260 1480 50  0001 C CNN "manf#"
	1    7260 1480
	0    -1   -1   0   
$EndComp
Wire Wire Line
	10375 3760 10735 3760
Wire Wire Line
	10735 3760 10855 3760
Connection ~ 10735 3760
Wire Wire Line
	10375 3860 10435 3860
Wire Wire Line
	10435 3860 10435 3960
Wire Wire Line
	10435 3960 10735 3960
Connection ~ 10735 3960
$EndSCHEMATC
