EESchema Schematic File Version 4
LIBS:main-cache
EELAYER 26 0
EELAYER END
$Descr A3 16535 11693
encoding utf-8
Sheet 3 10
Title "Reflectance 1.0"
Date "2017-04-24"
Rev "1.0"
Comp "OurSci"
Comment1 "Zegarac Robert"
Comment2 ""
Comment3 ""
Comment4 ""
$EndDescr
Text HLabel 8945 5390 2    39   Output ~ 0
GND+5
Text HLabel 8865 4970 2    39   Output ~ 0
+5V
Text HLabel 7055 4970 0    39   Input ~ 0
+6V
Text Notes 7780 4675 0    60   ~ 0
LDL1117S50R
$Comp
L main-rescue:C_Small-RESCUE-main C8
U 1 1 59E36D55
P 7385 5070
F 0 "C8" H 7410 4995 50  0000 L CNN
F 1 "10u" H 7410 5145 50  0000 L CNN
F 2 "multispeq:c_0603" H 7385 5070 10  0001 C CNN
F 3 "GRM188R61A106KE69D" H 7385 5070 10  0001 C CNN
F 4 "GRM188R61A106KE69D" H 7385 5070 60  0001 C CNN "manf#"
	1    7385 5070
	-1   0    0    1   
$EndComp
$Comp
L main-rescue:C_Small-RESCUE-main C10
U 1 1 59E36FAC
P 8750 5070
F 0 "C10" H 8775 4995 50  0000 L CNN
F 1 "10u" H 8775 5145 50  0000 L CNN
F 2 "multispeq:c_0603" H 8750 5070 10  0001 C CNN
F 3 "GRM188R61A106KE69D" H 8750 5070 10  0001 C CNN
F 4 "GRM188R61A106KE69D" H 8750 5070 60  0001 C CNN "manf#"
	1    8750 5070
	-1   0    0    1   
$EndComp
$Comp
L main-rescue:AP1117-50-RESCUE-main U3
U 1 1 59DF770E
P 8125 4970
F 0 "U3" H 7975 5095 50  0000 C CNN
F 1 "5V Linear Reg" H 8125 5095 50  0000 L CNN
F 2 "TO_SOT_Packages_SMD:SOT-223-3Lead_TabPin2" H 8125 5170 50  0001 C CNN
F 3 "LDL1117S50R" H 8225 4720 50  0001 C CNN
F 4 "LDL1117S50R" H 8125 4970 60  0001 C CNN "manf#"
	1    8125 4970
	1    0    0    -1  
$EndComp
Wire Wire Line
	8125 5270 8125 5390
Wire Wire Line
	7385 5390 8125 5390
Wire Wire Line
	8425 4970 8750 4970
Wire Wire Line
	8750 5170 8750 5390
Connection ~ 8750 5390
Connection ~ 8750 4970
Wire Wire Line
	7055 4970 7385 4970
Wire Wire Line
	7385 5170 7385 5390
Connection ~ 8125 5390
Connection ~ 7385 4970
Wire Wire Line
	8750 5390 8945 5390
Wire Wire Line
	8750 4970 8865 4970
Wire Wire Line
	8125 5390 8750 5390
Wire Wire Line
	7385 4970 7825 4970
$EndSCHEMATC
