M48
;DRILL file {KiCad 0.201510090346+6256~30~ubuntu15.04.1-product} date Wed 02 Dec 2015 02:22:56 PM EST
;FORMAT={-:-/ absolute / inch / decimal}
FMAT,2
INCH,TZ
T1C0.010
T2C0.016
T3C0.020
T4C0.022
T5C0.024
T6C0.031
T7C0.051
%
G90
G05
M72
T1
X8.4653Y-2.7828
X8.4653Y-2.8053
X8.4653Y-2.8403
X8.4653Y-2.8628
X8.4653Y-2.8994
X8.4653Y-2.9219
X8.4653Y-2.9569
X8.4653Y-2.9794
X8.4653Y-3.0159
X8.4653Y-3.0384
X8.4653Y-3.0734
X8.4653Y-3.0959
X8.4878Y-2.7828
X8.4878Y-2.8053
X8.4878Y-2.8403
X8.4878Y-2.8628
X8.4878Y-2.8994
X8.4878Y-2.9219
X8.4878Y-2.9569
X8.4878Y-2.9794
X8.4878Y-3.0159
X8.4878Y-3.0384
X8.4878Y-3.0734
X8.4878Y-3.0959
X8.5103Y-2.7828
X8.5103Y-2.8053
X8.5103Y-2.8403
X8.5103Y-2.8628
X8.5103Y-2.8994
X8.5103Y-2.9219
X8.5103Y-2.9569
X8.5103Y-2.9794
X8.5103Y-3.0159
X8.5103Y-3.0384
X8.5103Y-3.0734
X8.5103Y-3.0959
X8.5795Y-3.0565
X8.5795Y-3.079
X8.5795Y-3.114
X8.5795Y-3.1365
X8.602Y-3.0565
X8.602Y-3.079
X8.602Y-3.114
X8.602Y-3.1365
X8.6245Y-3.0565
X8.6245Y-3.079
X8.6245Y-3.114
X8.6245Y-3.1365
X8.6543Y-3.0565
X8.6543Y-3.079
X8.6543Y-3.114
X8.6543Y-3.1365
X8.6768Y-3.0565
X8.6768Y-3.079
X8.6768Y-3.114
X8.6768Y-3.1365
X8.6993Y-3.0565
X8.6993Y-3.079
X8.6993Y-3.114
X8.6993Y-3.1365
T2
X2.12Y-2.835
X2.18Y-2.53
X2.185Y-2.75
X2.21Y-2.625
X2.2583Y-2.989
X2.2583Y-3.0205
X2.2583Y-3.052
X2.2583Y-3.115
X2.2583Y-3.1465
X2.2583Y-3.178
X2.2858Y-2.9732
X2.2858Y-3.0362
X2.2858Y-3.0677
X2.2858Y-3.0992
X2.2858Y-3.1307
X2.2858Y-3.1937
X2.3283Y-2.7193
X2.34Y-2.91
X2.3579Y-2.424
X2.375Y-3.27
X2.3933Y-2.7146
X2.46Y-2.53
X2.475Y-3.35
X2.545Y-2.245
X2.565Y-2.795
X2.615Y-2.515
X2.63Y-2.295
X2.69Y-2.16
X2.775Y-2.42
X2.775Y-2.545
X2.8656Y-2.7159
X2.87Y-3.24
X2.915Y-3.315
X2.93Y-2.89
X2.96Y-3.26
X3.025Y-2.2
X3.0862Y-2.7768
X3.1299Y-3.1906
X3.1335Y-2.6079
X3.1389Y-3.2193
X3.1489Y-3.2475
X3.16Y-3.14
X3.19Y-3.35
X3.205Y-2.62
X3.23Y-2.985
X3.252Y-3.2791
X3.27Y-3.515
X3.2854Y-3.2441
X3.2917Y-3.2142
X3.295Y-2.01
X3.295Y-3.38
X3.3043Y-3.1866
X3.305Y-2.265
X3.3319Y-3.1409
X3.36Y-2.09
X3.36Y-2.21
X3.37Y-3.45
X3.395Y-2.21
X3.395Y-2.56
X3.405Y-3.45
X3.4311Y-3.002
X3.4366Y-3.0724
X3.44Y-3.45
X3.455Y-2.485
X3.46Y-2.355
X3.49Y-2.03
X3.5Y-3.385
X3.5197Y-3.0567
X3.525Y-2.26
X3.5299Y-2.9961
X3.565Y-2.14
X3.5692Y-2.9993
X3.575Y-2.26
X3.585Y-2.115
X3.59Y-3.39
X3.595Y-3.31
X3.6046Y-3.1012
X3.61Y-3.345
X3.639Y-3.098
X3.6957Y-3.1138
X3.705Y-2.15
X3.7271Y-3.0221
X3.7441Y-3.5217
X3.7531Y-3.3976
X3.755Y-2.055
X3.7665Y-3.2657
X3.7776Y-2.3996
X3.7881Y-3.0249
X3.7898Y-3.3949
X3.7941Y-3.5276
X3.8091Y-3.263
X3.8228Y-2.3976
X3.8319Y-2.9878
X3.8331Y-3.0252
X3.8374Y-3.5268
X3.8453Y-3.2594
X3.8504Y-3.0827
X3.922Y-3.4051
X3.9339Y-3.4406
X3.9492Y-3.3358
X3.952Y-3.3685
X3.9543Y-3.465
X3.97Y-2.115
X3.9736Y-3.4898
X3.985Y-2.455
X3.99Y-2.425
X3.9921Y-3.5154
X4.Y-2.88
X4.04Y-2.61
X4.04Y-2.665
X4.07Y-2.565
X4.09Y-2.395
X4.105Y-2.565
X4.185Y-2.505
X4.19Y-2.365
X4.195Y-2.595
X4.195Y-2.68
X4.245Y-2.44
X4.245Y-2.625
X4.2598Y-3.3488
X4.2772Y-2.9035
X4.2772Y-3.2354
X4.28Y-2.43
X4.3Y-3.42
X4.325Y-2.78
X4.3583Y-3.3524
X4.365Y-2.78
X4.3815Y-3.4142
X4.385Y-2.945
X4.39Y-3.09
X4.402Y-3.3496
X4.415Y-2.94
X4.425Y-2.41
X4.4322Y-3.3558
X4.45Y-2.765
X4.455Y-2.865
X4.4695Y-3.4563
X4.495Y-2.49
X4.5Y-2.875
X4.515Y-2.955
X4.52Y-2.465
X4.5295Y-3.4543
X4.535Y-3.075
X4.55Y-2.84
X4.555Y-2.735
X4.5626Y-3.4571
X4.565Y-2.955
X4.575Y-2.06
X4.575Y-2.11
X4.5953Y-3.3768
X4.645Y-3.055
X4.652Y-3.3776
X4.665Y-2.18
X4.67Y-2.395
X4.675Y-2.14
X4.6988Y-3.3799
X4.7043Y-2.0409
X4.71Y-2.49
X4.715Y-2.135
X4.7181Y-3.4394
X4.73Y-2.645
X4.745Y-2.15
X4.795Y-2.49
X4.815Y-2.585
X4.82Y-2.535
X4.82Y-2.88
X4.825Y-2.915
X4.83Y-2.955
X4.87Y-2.125
X4.915Y-2.21
X4.92Y-2.865
X4.925Y-2.56
X4.935Y-2.68
X4.96Y-2.86
X4.97Y-3.35
X4.98Y-2.985
X4.9815Y-3.4224
X4.985Y-2.76
X4.991Y-2.0209
X4.991Y-2.0509
X5.0134Y-3.4835
X5.02Y-2.735
X5.0894Y-3.2807
X5.1181Y-3.4409
X5.13Y-2.83
X5.131Y-2.0309
X5.16Y-2.855
X5.17Y-2.79
X5.171Y-2.1209
X5.1858Y-3.4244
X5.2Y-2.815
X5.2028Y-3.3736
X5.21Y-2.6
X5.216Y-2.0209
X5.2313Y-3.3652
X5.245Y-2.64
X5.255Y-2.68
X5.255Y-2.72
X5.265Y-3.045
X5.275Y-2.615
X5.2775Y-3.4638
X5.3476Y-3.4614
X5.372Y-3.4791
X5.3888Y-3.3848
X5.405Y-2.87
X5.4626Y-3.3839
X5.5008Y-3.3839
X5.5213Y-3.4492
X5.53Y-2.83
X5.535Y-2.865
X5.61Y-3.31
X5.7992Y-3.4059
X5.8071Y-3.4606
X5.8319Y-3.4827
X5.8886Y-3.3504
X5.905Y-3.095
X5.9075Y-2.1551
X5.9445Y-3.4354
X5.9894Y-3.3583
X6.0075Y-2.1134
X6.0083Y-3.4197
X6.0264Y-3.3583
X6.0571Y-3.3583
X6.0618Y-2.0461
X6.0819Y-3.0083
X6.095Y-2.38
X6.0964Y-3.461
X6.135Y-2.075
X6.1449Y-3.0496
X6.165Y-2.24
X6.1791Y-3.4583
X6.185Y-2.155
X6.1886Y-3.489
X6.2Y-2.89
X6.2175Y-3.3898
X6.2805Y-3.3878
X6.2882Y-3.0323
X6.302Y-3.1193
X6.3256Y-3.45
X6.3303Y-3.3878
X6.3311Y-3.361
X6.34Y-2.095
X6.345Y-2.41
X6.355Y-2.96
X6.3882Y-2.1197
X6.43Y-2.215
X6.455Y-2.135
X6.665Y-2.015
X6.6988Y-2.1358
X6.6996Y-3.4571
X6.702Y-3.4055
X6.7047Y-2.2098
X6.7307Y-3.4933
X6.787Y-3.3528
X6.84Y-3.435
X6.8594Y-2.0315
X6.9122Y-3.4209
X6.9248Y-2.2205
X6.9268Y-3.3598
X6.9577Y-3.3602
X6.97Y-2.27
X7.0039Y-3.463
X7.055Y-2.01
X7.063Y-2.0685
X7.087Y-3.4654
X7.0909Y-3.5031
X7.1016Y-2.1878
X7.1157Y-3.3795
X7.145Y-2.115
X7.1929Y-3.3799
X7.215Y-2.23
X7.2315Y-3.337
X7.2315Y-3.3807
X7.2358Y-3.4429
X7.58Y-3.22
X7.605Y-2.33
X7.67Y-2.325
X8.7083Y-2.5898
X8.755Y-2.445
X8.835Y-2.49
X8.8484Y-2.9079
X8.92Y-2.795
X9.015Y-2.7488
X9.03Y-2.475
X9.0748Y-2.9024
X9.135Y-2.68
X9.1587Y-2.5067
X9.215Y-2.685
X9.2291Y-2.4213
X9.2368Y-2.5226
X9.29Y-3.105
X9.313Y-2.8508
X9.3303Y-2.8179
X9.34Y-3.135
X9.345Y-3.
X9.385Y-2.62
X9.3933Y-3.0256
X9.415Y-2.405
X9.4169Y-2.8008
X9.4232Y-2.4512
X9.455Y-2.94
X9.47Y-2.97
X9.575Y-3.085
X9.5886Y-3.0571
X9.6555Y-2.376
X9.68Y-2.955
X9.705Y-2.415
X9.7098Y-2.9841
X9.715Y-3.065
X9.75Y-2.625
X9.75Y-2.66
X9.795Y-2.84
X9.8Y-3.04
X9.835Y-2.555
X9.8445Y-2.7461
X9.8445Y-2.8898
X9.85Y-2.835
X9.875Y-2.995
X9.885Y-3.03
X9.89Y-2.605
X9.89Y-2.71
T5
X9.9024Y-2.3992
X9.9024Y-2.4492
X9.9024Y-2.4992
T6
X9.5594Y-2.4496
X9.6094Y-2.3996
X9.6094Y-2.4996
X9.6594Y-2.4496
T3
X2.0383Y-2.3525G85X2.0127Y-2.3525
G05
X2.0383Y-2.6281G85X2.0127Y-2.6281
G05
X2.0398Y-2.9067G85X2.0161Y-2.9067
G05
X2.0398Y-3.2602G85X2.0161Y-3.2602
G05
X2.274Y-2.9209G85X2.2504Y-2.9209
G05
X2.274Y-3.2461G85X2.2504Y-3.2461
G05
T4
X2.1308Y-2.3859G85X2.1308Y-2.3978
G05
X2.1308Y-2.5828G85X2.1308Y-2.5946
G05
T7
X8.5707Y-2.6693G85X8.5707Y-2.6204
G05
X8.7707Y-2.6693G85X8.7707Y-2.6204
G05
T0
M30
