G04 #@! TF.FileFunction,Copper,L4,Bot,Signal*
%FSLAX46Y46*%
G04 Gerber Fmt 4.6, Leading zero omitted, Abs format (unit mm)*
G04 Created by KiCad (PCBNEW 0.201510090346+6256~30~ubuntu15.04.1-product) date Wed 02 Dec 2015 02:22:54 PM EST*
%MOMM*%
G01*
G04 APERTURE LIST*
%ADD10C,0.100000*%
%ADD11C,0.381000*%
%ADD12R,1.800000X3.302000*%
%ADD13O,1.800000X3.302000*%
%ADD14C,1.200000*%
%ADD15C,0.600000*%
%ADD16O,1.400000X0.800000*%
%ADD17O,1.501140X0.899160*%
%ADD18R,0.400000X1.000000*%
%ADD19O,0.950000X1.250000*%
%ADD20O,1.524000X1.000000*%
%ADD21C,0.710000*%
%ADD22C,0.250000*%
%ADD23C,0.190500*%
%ADD24C,0.200000*%
%ADD25C,0.160000*%
%ADD26C,0.500000*%
G04 APERTURE END LIST*
D10*
D11*
X217918500Y-79666000D03*
X218490000Y-79666000D03*
X219061500Y-79666000D03*
X217918500Y-78205500D03*
X218490000Y-78205500D03*
X217918500Y-77634000D03*
X218490000Y-77634000D03*
X219061500Y-77634000D03*
X219061500Y-78205500D03*
X217918500Y-79094500D03*
X218490000Y-79094500D03*
X219061500Y-79094500D03*
X216161500Y-76604000D03*
X215590000Y-76604000D03*
X215018500Y-76604000D03*
X216161500Y-78064500D03*
X215590000Y-78064500D03*
X216161500Y-78636000D03*
X215590000Y-78636000D03*
X215018500Y-78636000D03*
X215018500Y-78064500D03*
X216161500Y-77175500D03*
X215590000Y-77175500D03*
X215018500Y-77175500D03*
X216161500Y-73644000D03*
X215590000Y-73644000D03*
X215018500Y-73644000D03*
X216161500Y-75104500D03*
X215590000Y-75104500D03*
X216161500Y-75676000D03*
X215590000Y-75676000D03*
X215018500Y-75676000D03*
X215018500Y-75104500D03*
X216161500Y-74215500D03*
X215590000Y-74215500D03*
X215018500Y-74215500D03*
X216161500Y-70684000D03*
X215590000Y-70684000D03*
X215018500Y-70684000D03*
X216161500Y-72144500D03*
X215590000Y-72144500D03*
X216161500Y-72716000D03*
X215590000Y-72716000D03*
X215018500Y-72716000D03*
X215018500Y-72144500D03*
X216161500Y-71255500D03*
X215590000Y-71255500D03*
X215018500Y-71255500D03*
X219818500Y-79666000D03*
X220390000Y-79666000D03*
X220961500Y-79666000D03*
X219818500Y-78205500D03*
X220390000Y-78205500D03*
X219818500Y-77634000D03*
X220390000Y-77634000D03*
X220961500Y-77634000D03*
X220961500Y-78205500D03*
X219818500Y-79094500D03*
X220390000Y-79094500D03*
X220961500Y-79094500D03*
D12*
X222775000Y-67179000D03*
D13*
X217695000Y-67179000D03*
D14*
X242810000Y-62220000D03*
X244080000Y-60950000D03*
X245350000Y-62220000D03*
X244080000Y-63490000D03*
D15*
X58060000Y-81120000D03*
X57360000Y-80720000D03*
X57360000Y-79920000D03*
X58060000Y-79520000D03*
X57360000Y-79120000D03*
X58060000Y-78720000D03*
X58060000Y-77920000D03*
X57360000Y-77520000D03*
X58060000Y-77120000D03*
X57360000Y-76720000D03*
X57360000Y-75920000D03*
X58060000Y-75520000D03*
D16*
X57460000Y-74190000D03*
X57460000Y-82450000D03*
X51510000Y-82810000D03*
X51510000Y-73830000D03*
D17*
X251520000Y-62210000D03*
X251520000Y-60940000D03*
X251520000Y-63480000D03*
D18*
X249480000Y-76070000D03*
X249480000Y-74470000D03*
X248830000Y-76070000D03*
X250130000Y-76070000D03*
X250130000Y-74470000D03*
X248830000Y-74470000D03*
D19*
X54123400Y-65752900D03*
X54123400Y-60752900D03*
D20*
X51448780Y-66752900D03*
X51448780Y-59752900D03*
D21*
X53020000Y-70460000D03*
X51420000Y-70460000D03*
D15*
X152590000Y-53680000D03*
X100930000Y-88640000D03*
X150990000Y-87260000D03*
X148130000Y-88460000D03*
X147300000Y-86510000D03*
X160670000Y-87630000D03*
X156950000Y-87840000D03*
X153070000Y-85300000D03*
X152610000Y-86860000D03*
X153850000Y-85300000D03*
X102616000Y-66294000D03*
X192532000Y-81788000D03*
X161417000Y-75184000D03*
X80264000Y-79756000D03*
X100440000Y-88010000D03*
X140240000Y-87610000D03*
X127340000Y-88480000D03*
X132150000Y-85690000D03*
X130000000Y-87400000D03*
X135830000Y-87920000D03*
X131720000Y-86980000D03*
X132875000Y-85475000D03*
X99920000Y-87390000D03*
X115050000Y-87740000D03*
X119840000Y-87360000D03*
X109220000Y-86868000D03*
X111810000Y-85080000D03*
X112577500Y-85237500D03*
X111290000Y-86720000D03*
X96260000Y-86230000D03*
X92430000Y-78690000D03*
X84630000Y-79780000D03*
X89660000Y-76100000D03*
X87290000Y-78040000D03*
X97800000Y-78300000D03*
X90657500Y-76182500D03*
X89400000Y-77640000D03*
X101400000Y-89290000D03*
X170230000Y-86500000D03*
X173736000Y-87249000D03*
X183790000Y-87450000D03*
X180010000Y-88020000D03*
X170960000Y-88730000D03*
X175940000Y-85340000D03*
X176725000Y-85350000D03*
X175570000Y-86890000D03*
X228980000Y-69820000D03*
X221190000Y-65780000D03*
X140589000Y-72771000D03*
X97470000Y-89580000D03*
X240157000Y-74676000D03*
X243205000Y-78359000D03*
X235966000Y-78867000D03*
X230500000Y-73720000D03*
X245872000Y-75057000D03*
X246761000Y-77851000D03*
X238379000Y-66548000D03*
X226568000Y-70993000D03*
X229362000Y-62865000D03*
X224409000Y-63246000D03*
X222377000Y-62103000D03*
X239141000Y-61087000D03*
X234061000Y-68199000D03*
X240538000Y-75438000D03*
X237236000Y-79629000D03*
X237363000Y-76200000D03*
X180380000Y-55570000D03*
X232029000Y-68072000D03*
X125984000Y-72644000D03*
X224750000Y-73860000D03*
X232630000Y-63670000D03*
X162260000Y-53840000D03*
X124968000Y-72771000D03*
X163322000Y-56261000D03*
X236550000Y-72410000D03*
X239190000Y-71140000D03*
X234420000Y-61500000D03*
X234615000Y-64075000D03*
X238590000Y-76850000D03*
X133985000Y-66421000D03*
X236990000Y-71575000D03*
X133223000Y-67056000D03*
X243550000Y-77650000D03*
X115189000Y-78105000D03*
X193167000Y-59182000D03*
X137287000Y-72898000D03*
X132334000Y-66040000D03*
X60325000Y-83058000D03*
X59436000Y-73914000D03*
X53848000Y-72009000D03*
X65151000Y-70993000D03*
X82042000Y-75819000D03*
X163957000Y-54229000D03*
X183261000Y-56642000D03*
X177038000Y-57658000D03*
X181483000Y-53721000D03*
X179197000Y-51054000D03*
X91186000Y-86106000D03*
X81026000Y-85090000D03*
X83058000Y-89281000D03*
X86487000Y-87630000D03*
X116205000Y-53594000D03*
X123698000Y-53975000D03*
X247650000Y-67564000D03*
X251206000Y-66167000D03*
X131343000Y-53871000D03*
X119490000Y-51840000D03*
X170300000Y-56130000D03*
X72787000Y-68985000D03*
X78390000Y-70530000D03*
X95377000Y-52197000D03*
X91059000Y-53721000D03*
X150050000Y-54740000D03*
X126771000Y-51331000D03*
X248920000Y-77216000D03*
X250190000Y-72009000D03*
X83693000Y-51054000D03*
X88646000Y-51562000D03*
X81407000Y-66548000D03*
X70485000Y-61468000D03*
X70485000Y-64643000D03*
X86233000Y-65024000D03*
X106299000Y-63627000D03*
X103886000Y-60833000D03*
X55372000Y-64262000D03*
X62484000Y-64262000D03*
X64643000Y-57023000D03*
X66802000Y-58293000D03*
X102616000Y-67691000D03*
X101600000Y-73152000D03*
X122301000Y-65659000D03*
X119634000Y-63246000D03*
X125349000Y-68072000D03*
X115570000Y-72136000D03*
X111379000Y-74803000D03*
X245250000Y-60350000D03*
X156591000Y-56896000D03*
X157099000Y-54737000D03*
X124841000Y-56134000D03*
X76835000Y-55880000D03*
X118491000Y-55372000D03*
X170150000Y-54250000D03*
X153970000Y-51970000D03*
X161036000Y-53213000D03*
X155829000Y-52705000D03*
X116205000Y-52324000D03*
X169291000Y-51181000D03*
X174230000Y-51600000D03*
X179400000Y-52540000D03*
X175890000Y-56400000D03*
X74041000Y-84201000D03*
X91694000Y-84963000D03*
X83693000Y-85852000D03*
X87376000Y-87630000D03*
X91313000Y-84074000D03*
X75184000Y-82804000D03*
X56134000Y-66675000D03*
X108640000Y-73750000D03*
X104267000Y-65151000D03*
X101219000Y-62357000D03*
X118618000Y-60833000D03*
X117983000Y-77597000D03*
X114300000Y-73025000D03*
X87884000Y-59817000D03*
X87757000Y-63119000D03*
X66421000Y-63881000D03*
X68326000Y-54864000D03*
X100838000Y-53721000D03*
X90551000Y-54356000D03*
X74422000Y-73406000D03*
X55499000Y-69850000D03*
X86233000Y-56134000D03*
X79590000Y-66240000D03*
X60790000Y-68950000D03*
X160810000Y-85370000D03*
X159525000Y-86050000D03*
X160790000Y-86050000D03*
X157925000Y-86100000D03*
X157190000Y-88620000D03*
X136875000Y-85975000D03*
X139720000Y-85950000D03*
X138750000Y-85950000D03*
X136450000Y-88370000D03*
X116720000Y-85770000D03*
X115890000Y-87810000D03*
X118160000Y-85790000D03*
X119350000Y-85850000D03*
X97330000Y-75890000D03*
X94667500Y-76762500D03*
X93870000Y-79090000D03*
X96217500Y-76832500D03*
X97360000Y-76840000D03*
X182700000Y-85850000D03*
X183680000Y-84760000D03*
X183680000Y-85870000D03*
X180740000Y-85840000D03*
X180110000Y-88980000D03*
X109855000Y-70612000D03*
X115951000Y-75057000D03*
X110871000Y-70612000D03*
X114681000Y-75057000D03*
X112141000Y-74676000D03*
X115697000Y-69469000D03*
X85344000Y-53086000D03*
X83947000Y-57531000D03*
X89535000Y-57404000D03*
X90805000Y-57404000D03*
X101346000Y-61595000D03*
X106553000Y-65913000D03*
X79982000Y-82486000D03*
X72898000Y-82296000D03*
X62865000Y-85090000D03*
X126492000Y-75819000D03*
X95100000Y-89450000D03*
X83450000Y-82400000D03*
X147500000Y-87900000D03*
X113030000Y-70231000D03*
X142494000Y-84074000D03*
X126530000Y-86930000D03*
X82600000Y-83290000D03*
X113157000Y-72771000D03*
X126238000Y-85090000D03*
X83610000Y-81640000D03*
X108712000Y-61722000D03*
X106426000Y-60071000D03*
X160070000Y-79230000D03*
X170170000Y-87810000D03*
X154813000Y-60452000D03*
X246630000Y-75795000D03*
X239350000Y-62260000D03*
X133477000Y-68072000D03*
X131318000Y-70866000D03*
X130302000Y-71882000D03*
X122555000Y-74041000D03*
X122682000Y-75057000D03*
X131064000Y-72517000D03*
X132080000Y-71501000D03*
X133477000Y-69088000D03*
X157480000Y-73406000D03*
X161163000Y-61214000D03*
X194818000Y-59055000D03*
X132486000Y-51331000D03*
X120523000Y-54610000D03*
X249809000Y-64897000D03*
X247650000Y-66675000D03*
X250825000Y-76073000D03*
X248793000Y-72136000D03*
X246507000Y-61341000D03*
X133731000Y-77343000D03*
X130327000Y-51585000D03*
X79728000Y-81769000D03*
X118745000Y-54356000D03*
X120142000Y-67183000D03*
X126619000Y-70104000D03*
X154480000Y-76410000D03*
X250050000Y-69750000D03*
X250050000Y-73400000D03*
X251206000Y-68834000D03*
X119761000Y-54229000D03*
X79500000Y-81040000D03*
X126771000Y-52093000D03*
X127508000Y-69469000D03*
X251079000Y-76962000D03*
X156080000Y-77460000D03*
X122428000Y-64389000D03*
X114808000Y-62611000D03*
X107823000Y-66675000D03*
X111506000Y-78486000D03*
X149987000Y-78613000D03*
X121793000Y-63246000D03*
X114173000Y-63246000D03*
X125095000Y-65024000D03*
X112395000Y-61214000D03*
X107823000Y-61976000D03*
X122428000Y-73152000D03*
X100310000Y-84730000D03*
X154848160Y-87910000D03*
X152130000Y-85300000D03*
X149570000Y-85100000D03*
X97670000Y-82790000D03*
X134048160Y-87980000D03*
X129270000Y-83330000D03*
X96750000Y-82880000D03*
X108640000Y-82180000D03*
X113525660Y-87790000D03*
X110700000Y-85150000D03*
X108200000Y-85060000D03*
X87150000Y-76250000D03*
X95670000Y-82950000D03*
X91555660Y-78770000D03*
X100380000Y-85560000D03*
X177898160Y-87960000D03*
X172390000Y-85160000D03*
X106553000Y-68072000D03*
X103378000Y-65151000D03*
X95950000Y-60950000D03*
X97100000Y-60900000D03*
X85598000Y-87630000D03*
X88900000Y-85979000D03*
X85344000Y-56134000D03*
X94107000Y-54610000D03*
X59140000Y-69070000D03*
X59890000Y-61570000D03*
X83930000Y-80940000D03*
X95330000Y-86300000D03*
X140462000Y-71882000D03*
X96370000Y-89600000D03*
X159720000Y-77020000D03*
X99620000Y-86490000D03*
D22*
X170840000Y-54060000D02*
X170860000Y-54040000D01*
D23*
X152590000Y-53680000D02*
X152590000Y-53660000D01*
D22*
X195520000Y-81150000D02*
X194945000Y-81788000D01*
X194945000Y-81788000D02*
X192532000Y-81788000D01*
X251050000Y-81150000D02*
X195520000Y-81150000D01*
X252200000Y-80000000D02*
X251050000Y-81150000D01*
X252200000Y-64160000D02*
X252200000Y-80000000D01*
X251520000Y-63480000D02*
X252200000Y-64160000D01*
X195520000Y-81150000D02*
X195545000Y-81150000D01*
X135830000Y-87920000D02*
X135850000Y-87920000D01*
X97800000Y-78300000D02*
X97810000Y-78300000D01*
X170960000Y-88730000D02*
X170980000Y-88730000D01*
X240538000Y-75438000D02*
X240538000Y-76327000D01*
X240538000Y-76327000D02*
X237236000Y-79629000D01*
X237363000Y-76200000D02*
X237363000Y-79502000D01*
X237363000Y-79502000D02*
X237236000Y-79629000D01*
X237910000Y-74549000D02*
X237910000Y-75653000D01*
X237910000Y-75653000D02*
X237363000Y-76200000D01*
D24*
X158877000Y-61468000D02*
X162810000Y-57535000D01*
D22*
X176257598Y-57542402D02*
X162802598Y-57542402D01*
X180380000Y-55570000D02*
X178230000Y-55570000D01*
X178230000Y-55570000D02*
X176257598Y-57542402D01*
X190250000Y-60660000D02*
X185160000Y-55570000D01*
X229620000Y-60660000D02*
X190250000Y-60660000D01*
X232630000Y-63670000D02*
X229620000Y-60660000D01*
X185160000Y-55570000D02*
X180380000Y-55570000D01*
D24*
X131445000Y-61468000D02*
X158877000Y-61468000D01*
D22*
X232630000Y-67471000D02*
X232630000Y-63670000D01*
X232029000Y-68072000D02*
X232630000Y-67471000D01*
D24*
X130302000Y-62611000D02*
X131445000Y-61468000D01*
X131445000Y-61468000D02*
X131473598Y-61439402D01*
X130302000Y-68834000D02*
X130302000Y-62611000D01*
X126492000Y-72644000D02*
X130302000Y-68834000D01*
X125984000Y-72644000D02*
X126492000Y-72644000D01*
D22*
X224750000Y-73860000D02*
X224750000Y-74449000D01*
X224850000Y-74549000D02*
X237910000Y-74549000D01*
X237910000Y-74549000D02*
X237940000Y-74549000D01*
X224750000Y-74449000D02*
X224850000Y-74549000D01*
X233580000Y-64620000D02*
X232630000Y-63670000D01*
X237940000Y-74549000D02*
X237940000Y-70200000D01*
X237940000Y-70200000D02*
X233580000Y-65840000D01*
X233580000Y-65840000D02*
X233580000Y-64620000D01*
X232630000Y-63670000D02*
X232640000Y-63670000D01*
X190820000Y-60160000D02*
X185600000Y-54940000D01*
X233080000Y-60160000D02*
X190820000Y-60160000D01*
X234420000Y-61500000D02*
X233080000Y-60160000D01*
X164201000Y-57140000D02*
X163322000Y-56261000D01*
X176030000Y-57140000D02*
X164201000Y-57140000D01*
X178230000Y-54940000D02*
X176030000Y-57140000D01*
X185600000Y-54940000D02*
X178230000Y-54940000D01*
D24*
X163322000Y-54902000D02*
X163322000Y-56261000D01*
X162260000Y-53840000D02*
X163322000Y-54902000D01*
X124968000Y-72771000D02*
X126111000Y-71628000D01*
X126111000Y-71628000D02*
X126619000Y-71628000D01*
X126619000Y-71628000D02*
X129921000Y-68326000D01*
X129921000Y-68326000D02*
X129921000Y-62484000D01*
X129921000Y-62484000D02*
X131318000Y-61087000D01*
X131318000Y-61087000D02*
X158623000Y-61087000D01*
X158623000Y-61087000D02*
X163322000Y-56261000D01*
D22*
X238590000Y-71800000D02*
X238590000Y-71740000D01*
X236560000Y-72410000D02*
X236570000Y-72400000D01*
X236550000Y-72410000D02*
X236560000Y-72410000D01*
X238590000Y-71740000D02*
X239190000Y-71140000D01*
X234420000Y-61500000D02*
X234420000Y-63880000D01*
X234420000Y-63880000D02*
X234615000Y-64075000D01*
X234615000Y-64075000D02*
X234515000Y-63975000D01*
X238590000Y-76850000D02*
X238590000Y-71800000D01*
X238590000Y-71800000D02*
X238590000Y-69960000D01*
X234615000Y-65985000D02*
X234615000Y-64075000D01*
X238590000Y-69960000D02*
X234615000Y-65985000D01*
X238590000Y-76850000D02*
X238600000Y-76850000D01*
X248050000Y-60450000D02*
X248050000Y-65050000D01*
X247950000Y-60350000D02*
X248050000Y-60450000D01*
X247950000Y-60350000D02*
X245250000Y-60350000D01*
X249250000Y-65500000D02*
X248666000Y-65024000D01*
X249250000Y-69750000D02*
X249250000Y-65500000D01*
X249250000Y-71725000D02*
X249661000Y-72136000D01*
X249250000Y-69750000D02*
X249250000Y-71725000D01*
X248050000Y-65024000D02*
X248050000Y-65050000D01*
X248666000Y-65024000D02*
X248050000Y-65024000D01*
D24*
X250190000Y-72009000D02*
X250063000Y-72136000D01*
X250063000Y-72136000D02*
X249661000Y-72136000D01*
X119490000Y-51840000D02*
X119500000Y-51840000D01*
D22*
X170300000Y-56130000D02*
X170310000Y-56120000D01*
D24*
X150050000Y-54740000D02*
X150060000Y-54740000D01*
D22*
X248830000Y-76070000D02*
X248830000Y-77126000D01*
X248830000Y-77126000D02*
X248920000Y-77216000D01*
D24*
X170150000Y-54250000D02*
X169113000Y-53213000D01*
X169113000Y-53213000D02*
X161036000Y-53213000D01*
D25*
X155829000Y-52705000D02*
X154705000Y-52705000D01*
X154705000Y-52705000D02*
X153970000Y-51970000D01*
D24*
X156972000Y-53213000D02*
X161036000Y-53213000D01*
X155829000Y-52705000D02*
X156972000Y-53213000D01*
D22*
X116205000Y-50673000D02*
X116205000Y-52324000D01*
X116078000Y-50546000D02*
X116205000Y-50673000D01*
X134366000Y-50546000D02*
X116078000Y-50546000D01*
X168656000Y-50546000D02*
X134366000Y-50546000D01*
X169291000Y-51181000D02*
X168656000Y-50546000D01*
X179400000Y-52540000D02*
X175170000Y-52540000D01*
X175170000Y-52540000D02*
X174230000Y-51600000D01*
D24*
X179400000Y-52540000D02*
X179400000Y-52890000D01*
X179400000Y-52890000D02*
X175890000Y-56400000D01*
D22*
X114300000Y-73025000D02*
X114300000Y-65151000D01*
X114300000Y-65151000D02*
X118618000Y-60833000D01*
X101219000Y-62357000D02*
X101473000Y-62611000D01*
X117983000Y-61468000D02*
X118618000Y-60833000D01*
X115062000Y-61468000D02*
X117983000Y-61468000D01*
X113919000Y-62611000D02*
X115062000Y-61468000D01*
X101473000Y-62611000D02*
X113919000Y-62611000D01*
X117983000Y-77597000D02*
X117983000Y-77470000D01*
X116586000Y-73025000D02*
X114300000Y-73025000D01*
X118491000Y-74930000D02*
X116586000Y-73025000D01*
X118491000Y-76962000D02*
X118491000Y-74930000D01*
X117983000Y-77470000D02*
X118491000Y-76962000D01*
X160790000Y-86050000D02*
X160800000Y-86050000D01*
X157190000Y-88620000D02*
X157190000Y-88610000D01*
X136450000Y-88370000D02*
X136470000Y-88350000D01*
X119360000Y-85635000D02*
X119360000Y-85630000D01*
X119362500Y-85637500D02*
X119360000Y-85635000D01*
X97350000Y-76850000D02*
X97340000Y-76850000D01*
X97360000Y-76840000D02*
X97350000Y-76850000D01*
X183680000Y-85870000D02*
X183690000Y-85870000D01*
D26*
X246600000Y-75800000D02*
X246625000Y-75800000D01*
X246625000Y-75800000D02*
X246630000Y-75795000D01*
D24*
X195072000Y-59309000D02*
X194818000Y-59055000D01*
D22*
X244080000Y-60438000D02*
X243332000Y-59690000D01*
X243332000Y-59690000D02*
X195072000Y-59690000D01*
D24*
X195072000Y-59690000D02*
X195072000Y-59309000D01*
X132486000Y-51331000D02*
X132486000Y-53574000D01*
X132486000Y-53574000D02*
X131450000Y-54610000D01*
X131450000Y-54610000D02*
X120523000Y-54610000D01*
D22*
X244080000Y-60950000D02*
X244080000Y-60438000D01*
X248793000Y-72136000D02*
X248793000Y-70231000D01*
X250822000Y-76070000D02*
X250825000Y-76073000D01*
X250130000Y-76070000D02*
X250822000Y-76070000D01*
X246888000Y-61341000D02*
X246507000Y-61341000D01*
X247015000Y-61468000D02*
X246888000Y-61341000D01*
X247015000Y-68453000D02*
X247015000Y-61468000D01*
X248793000Y-70231000D02*
X247015000Y-68453000D01*
D23*
X79729000Y-81770000D02*
X79730000Y-81770000D01*
X79728000Y-81769000D02*
X79729000Y-81770000D01*
D22*
X250130000Y-73480000D02*
X250050000Y-73400000D01*
X250130000Y-74470000D02*
X250130000Y-73480000D01*
X251079000Y-76962000D02*
X249682000Y-76962000D01*
X249682000Y-76962000D02*
X249480000Y-76760000D01*
X249480000Y-76760000D02*
X249480000Y-76070000D01*
X251520000Y-60940000D02*
X251085000Y-60940000D01*
D26*
X100310000Y-84730000D02*
X101360000Y-83680000D01*
X101360000Y-83680000D02*
X104410000Y-83680000D01*
D22*
X154848160Y-87910000D02*
X154850000Y-87910000D01*
D26*
X129400000Y-84160000D02*
X129020000Y-84160000D01*
X129020000Y-84160000D02*
X128530000Y-83670000D01*
X128530000Y-83670000D02*
X104420000Y-83670000D01*
X104420000Y-83670000D02*
X104410000Y-83680000D01*
X141410000Y-84000000D02*
X129560000Y-84000000D01*
X142510000Y-85100000D02*
X141410000Y-84000000D01*
X149570000Y-85100000D02*
X142510000Y-85100000D01*
X129560000Y-84000000D02*
X129400000Y-84160000D01*
X170150000Y-83150000D02*
X157750000Y-83150000D01*
X218490000Y-79666000D02*
X218216000Y-79940000D01*
X182680000Y-83150000D02*
X170150000Y-83150000D01*
X182680000Y-83150000D02*
X186032402Y-79797598D01*
X218182402Y-79797598D02*
X218040000Y-79940000D01*
X186032402Y-79797598D02*
X218182402Y-79797598D01*
X218040000Y-79940000D02*
X218216000Y-79940000D01*
X150770000Y-83900000D02*
X149570000Y-85100000D01*
X157000000Y-83900000D02*
X150770000Y-83900000D01*
X157750000Y-83150000D02*
X157000000Y-83900000D01*
X149580000Y-85090000D02*
X149590000Y-85090000D01*
X149570000Y-85100000D02*
X149580000Y-85090000D01*
X98280000Y-82950000D02*
X97830000Y-82950000D01*
X128890000Y-82950000D02*
X98280000Y-82950000D01*
X129270000Y-83330000D02*
X128890000Y-82950000D01*
X97830000Y-82950000D02*
X97670000Y-82790000D01*
D22*
X134048160Y-87980000D02*
X134050000Y-87980000D01*
D26*
X131060000Y-83080000D02*
X129520000Y-83080000D01*
X215590000Y-76604000D02*
X215304000Y-76890000D01*
X212250000Y-75030000D02*
X196850000Y-75030000D01*
X196850000Y-75030000D02*
X192890000Y-78990000D01*
X192890000Y-78990000D02*
X185800000Y-78990000D01*
X185800000Y-78990000D02*
X182300000Y-82490000D01*
X182300000Y-82490000D02*
X157380000Y-82490000D01*
X157380000Y-82490000D02*
X156790000Y-83080000D01*
X156790000Y-83080000D02*
X131060000Y-83080000D01*
X214110000Y-76890000D02*
X215304000Y-76890000D01*
X214110000Y-76890000D02*
X212250000Y-75030000D01*
X129520000Y-83080000D02*
X129270000Y-83330000D01*
X213590000Y-73880000D02*
X210490000Y-70780000D01*
X210490000Y-70780000D02*
X200010000Y-70780000D01*
X200010000Y-70780000D02*
X192620000Y-78170000D01*
X192620000Y-78170000D02*
X185580000Y-78170000D01*
X185580000Y-78170000D02*
X182040000Y-81710000D01*
X182040000Y-81710000D02*
X157150000Y-81710000D01*
X157150000Y-81710000D02*
X156440000Y-82420000D01*
X156440000Y-82420000D02*
X129320000Y-82420000D01*
X129320000Y-82420000D02*
X129180000Y-82280000D01*
X129180000Y-82280000D02*
X108740000Y-82280000D01*
X108740000Y-82280000D02*
X108640000Y-82180000D01*
X215540000Y-73880000D02*
X213590000Y-73880000D01*
X96180000Y-82310000D02*
X96750000Y-82880000D01*
X96180000Y-82140000D02*
X96180000Y-82310000D01*
X96240000Y-82080000D02*
X96180000Y-82140000D01*
X108540000Y-82080000D02*
X96240000Y-82080000D01*
X108640000Y-82180000D02*
X108540000Y-82080000D01*
D22*
X113525660Y-87790000D02*
X113520000Y-87790000D01*
D24*
X110640000Y-85080000D02*
X110640000Y-85090000D01*
X110640000Y-85090000D02*
X110700000Y-85150000D01*
D26*
X95670000Y-82950000D02*
X95670000Y-82840000D01*
X95670000Y-82840000D02*
X94220000Y-81390000D01*
X90810000Y-81390000D02*
X94220000Y-81390000D01*
X88470000Y-79050000D02*
X90810000Y-81390000D01*
X88470000Y-77570000D02*
X88470000Y-79050000D01*
X87150000Y-76250000D02*
X88470000Y-77570000D01*
X94220000Y-81390000D02*
X95430000Y-81390000D01*
X185010000Y-67710000D02*
X185010000Y-77700000D01*
X187000000Y-65720000D02*
X185010000Y-67710000D01*
X210626000Y-65720000D02*
X187000000Y-65720000D01*
X215590000Y-70684000D02*
X210626000Y-65720000D01*
X156500000Y-81390000D02*
X156910000Y-80980000D01*
X181730000Y-80980000D02*
X156910000Y-80980000D01*
X185010000Y-77700000D02*
X181730000Y-80980000D01*
X95430000Y-81390000D02*
X156500000Y-81390000D01*
X95670000Y-82950000D02*
X95680000Y-82950000D01*
D22*
X91555660Y-78770000D02*
X91550000Y-78770000D01*
D26*
X104970234Y-84352402D02*
X102137598Y-84352402D01*
X100930000Y-85560000D02*
X100380000Y-85560000D01*
X102137598Y-84352402D02*
X100930000Y-85560000D01*
D22*
X177898160Y-87960000D02*
X177900000Y-87960000D01*
D26*
X129857598Y-84652402D02*
X129680000Y-84830000D01*
X141092402Y-84652402D02*
X129857598Y-84652402D01*
X147657598Y-85820000D02*
X147597598Y-85760000D01*
X147597598Y-85760000D02*
X142200000Y-85760000D01*
X172390000Y-85160000D02*
X171870000Y-84640000D01*
X151147598Y-84552402D02*
X149880000Y-85820000D01*
X154140000Y-84552402D02*
X151147598Y-84552402D01*
X154227598Y-84640000D02*
X154140000Y-84552402D01*
X171870000Y-84640000D02*
X154227598Y-84640000D01*
X149880000Y-85820000D02*
X147657598Y-85820000D01*
X142200000Y-85760000D02*
X141092402Y-84652402D01*
X128282402Y-84352402D02*
X104970234Y-84352402D01*
X128760000Y-84830000D02*
X128282402Y-84352402D01*
X129680000Y-84830000D02*
X128760000Y-84830000D01*
X172390000Y-85160000D02*
X173120000Y-84430000D01*
X182660000Y-84430000D02*
X173120000Y-84430000D01*
X186490000Y-80600000D02*
X182660000Y-84430000D01*
X219210000Y-80600000D02*
X186490000Y-80600000D01*
X219210000Y-80600000D02*
X220450000Y-79360000D01*
D23*
X95950000Y-60950000D02*
X96000000Y-60900000D01*
X96000000Y-60900000D02*
X97100000Y-60900000D01*
D22*
X59890000Y-61570000D02*
X59890000Y-61560000D01*
M02*
