%TF.GenerationSoftware,KiCad,Pcbnew,(2015-08-27 BZR 6130, Git 51a6d38)-product*%
%TF.CreationDate,2015-10-15T16:23:36-04:00*%
%TF.JobID,det-pulse,6465742D70756C73652E6B696361645F,rev?*%
%TF.FileFunction,Copper,L2,Bot,Signal*%
%FSLAX46Y46*%
G04 Gerber Fmt 4.6, Leading zero omitted, Abs format (unit mm)*
G04 Created by KiCad (PCBNEW (2015-08-27 BZR 6130, Git 51a6d38)-product) date 10/15/2015 4:23:36 PM*
%MOMM*%
G01*
G04 APERTURE LIST*
%ADD10C,0.100000*%
%ADD11R,2.199640X1.524000*%
%ADD12O,2.199640X1.524000*%
%ADD13O,1.506220X3.014980*%
%ADD14C,1.143000*%
%ADD15R,1.727200X1.727200*%
%ADD16O,1.727200X1.727200*%
%ADD17C,0.600000*%
%ADD18C,0.250000*%
%ADD19C,0.254000*%
G04 APERTURE END LIST*
D10*
D11*
X140339600Y-106730800D03*
D12*
X140339600Y-101650800D03*
D13*
X155879800Y-94894400D03*
X158419800Y-94894400D03*
X153187400Y-117094000D03*
X155727400Y-117094000D03*
D14*
X162331400Y-95504000D03*
D15*
X177952400Y-99949000D03*
D16*
X180492400Y-99949000D03*
X177952400Y-102489000D03*
X180492400Y-102489000D03*
X177952400Y-105029000D03*
X180492400Y-105029000D03*
X177952400Y-107569000D03*
X180492400Y-107569000D03*
D17*
X183921400Y-91694000D03*
X157226000Y-101485700D03*
X152984200Y-112268000D03*
X179857400Y-95758000D03*
X167157400Y-95758000D03*
X179527200Y-109956600D03*
X148247100Y-98107500D03*
X146862800Y-99148900D03*
X161023300Y-93675200D03*
X145046700Y-112090200D03*
X169951400Y-110871000D03*
X164998400Y-102616000D03*
X164871400Y-101092000D03*
X164998400Y-109855000D03*
X169316400Y-104775000D03*
X167538400Y-110744000D03*
X170205400Y-104521000D03*
D18*
X153187400Y-112471200D02*
X153187400Y-117094000D01*
X152984200Y-112268000D02*
X153187400Y-112471200D01*
X147904200Y-98107500D02*
X148247100Y-98107500D01*
X146862800Y-99148900D02*
X147904200Y-98107500D01*
D19*
G36*
X184315000Y-90845034D02*
X184108199Y-90759162D01*
X183736233Y-90758838D01*
X183392457Y-90900883D01*
X183129208Y-91163673D01*
X182986562Y-91507201D01*
X182986238Y-91879167D01*
X183128283Y-92222943D01*
X183391073Y-92486192D01*
X183734601Y-92628838D01*
X184106567Y-92629162D01*
X184315000Y-92543039D01*
X184315000Y-124315000D01*
X135685000Y-124315000D01*
X135685000Y-117221000D01*
X151799290Y-117221000D01*
X151799290Y-117975380D01*
X151953554Y-118496919D01*
X152295660Y-118919724D01*
X152773525Y-119179427D01*
X152845726Y-119193783D01*
X153060400Y-119071162D01*
X153060400Y-117221000D01*
X151799290Y-117221000D01*
X135685000Y-117221000D01*
X135685000Y-116212620D01*
X151799290Y-116212620D01*
X151799290Y-116967000D01*
X153060400Y-116967000D01*
X153060400Y-115116838D01*
X153314400Y-115116838D01*
X153314400Y-116967000D01*
X153334400Y-116967000D01*
X153334400Y-117221000D01*
X153314400Y-117221000D01*
X153314400Y-119071162D01*
X153529074Y-119193783D01*
X153601275Y-119179427D01*
X154079140Y-118919724D01*
X154421246Y-118496919D01*
X154444384Y-118418694D01*
X154444954Y-118421561D01*
X154745858Y-118871896D01*
X155196193Y-119172800D01*
X155727400Y-119278464D01*
X156258607Y-119172800D01*
X156708942Y-118871896D01*
X157009846Y-118421561D01*
X157115510Y-117890354D01*
X157115510Y-116297646D01*
X157009846Y-115766439D01*
X156708942Y-115316104D01*
X156258607Y-115015200D01*
X155727400Y-114909536D01*
X155196193Y-115015200D01*
X154745858Y-115316104D01*
X154444954Y-115766439D01*
X154444384Y-115769306D01*
X154421246Y-115691081D01*
X154079140Y-115268276D01*
X153601275Y-115008573D01*
X153529074Y-114994217D01*
X153314400Y-115116838D01*
X153060400Y-115116838D01*
X152845726Y-114994217D01*
X152773525Y-115008573D01*
X152295660Y-115268276D01*
X151953554Y-115691081D01*
X151799290Y-116212620D01*
X135685000Y-116212620D01*
X135685000Y-105968800D01*
X138592340Y-105968800D01*
X138592340Y-107492800D01*
X138636618Y-107728117D01*
X138775690Y-107944241D01*
X138987890Y-108089231D01*
X139239780Y-108140240D01*
X141439420Y-108140240D01*
X141674737Y-108095962D01*
X141890861Y-107956890D01*
X142035851Y-107744690D01*
X142086860Y-107492800D01*
X142086860Y-105968800D01*
X142042582Y-105733483D01*
X141903510Y-105517359D01*
X141691310Y-105372369D01*
X141439420Y-105321360D01*
X139239780Y-105321360D01*
X139004463Y-105365638D01*
X138788339Y-105504710D01*
X138643349Y-105716910D01*
X138592340Y-105968800D01*
X135685000Y-105968800D01*
X135685000Y-101650800D01*
X138570793Y-101650800D01*
X138677133Y-102185409D01*
X138979965Y-102638628D01*
X139433184Y-102941460D01*
X139967793Y-103047800D01*
X140711407Y-103047800D01*
X141246016Y-102941460D01*
X141699235Y-102638628D01*
X141799213Y-102489000D01*
X176424441Y-102489000D01*
X176538515Y-103062489D01*
X176863371Y-103548670D01*
X177178152Y-103759000D01*
X176863371Y-103969330D01*
X176538515Y-104455511D01*
X176424441Y-105029000D01*
X176538515Y-105602489D01*
X176863371Y-106088670D01*
X177178152Y-106299000D01*
X176863371Y-106509330D01*
X176538515Y-106995511D01*
X176424441Y-107569000D01*
X176538515Y-108142489D01*
X176863371Y-108628670D01*
X177349552Y-108953526D01*
X177923041Y-109067600D01*
X177981759Y-109067600D01*
X178555248Y-108953526D01*
X179041429Y-108628670D01*
X179222400Y-108357828D01*
X179403371Y-108628670D01*
X179889552Y-108953526D01*
X180463041Y-109067600D01*
X180521759Y-109067600D01*
X181095248Y-108953526D01*
X181581429Y-108628670D01*
X181906285Y-108142489D01*
X182020359Y-107569000D01*
X181906285Y-106995511D01*
X181581429Y-106509330D01*
X181266648Y-106299000D01*
X181581429Y-106088670D01*
X181906285Y-105602489D01*
X182020359Y-105029000D01*
X181906285Y-104455511D01*
X181581429Y-103969330D01*
X181258172Y-103753336D01*
X181380890Y-103695821D01*
X181775088Y-103263947D01*
X181947358Y-102848026D01*
X181826217Y-102616000D01*
X180619400Y-102616000D01*
X180619400Y-102636000D01*
X180365400Y-102636000D01*
X180365400Y-102616000D01*
X180345400Y-102616000D01*
X180345400Y-102362000D01*
X180365400Y-102362000D01*
X180365400Y-102342000D01*
X180619400Y-102342000D01*
X180619400Y-102362000D01*
X181826217Y-102362000D01*
X181947358Y-102129974D01*
X181775088Y-101714053D01*
X181380890Y-101282179D01*
X181258172Y-101224664D01*
X181581429Y-101008670D01*
X181906285Y-100522489D01*
X182020359Y-99949000D01*
X181906285Y-99375511D01*
X181581429Y-98889330D01*
X181095248Y-98564474D01*
X180521759Y-98450400D01*
X180463041Y-98450400D01*
X179889552Y-98564474D01*
X179423958Y-98875574D01*
X179419162Y-98850083D01*
X179280090Y-98633959D01*
X179067890Y-98488969D01*
X178816000Y-98437960D01*
X177088800Y-98437960D01*
X176853483Y-98482238D01*
X176637359Y-98621310D01*
X176492369Y-98833510D01*
X176441360Y-99085400D01*
X176441360Y-100812600D01*
X176485638Y-101047917D01*
X176624710Y-101264041D01*
X176836910Y-101409031D01*
X176880531Y-101417864D01*
X176863371Y-101429330D01*
X176538515Y-101915511D01*
X176424441Y-102489000D01*
X141799213Y-102489000D01*
X142002067Y-102185409D01*
X142108407Y-101650800D01*
X142002067Y-101116191D01*
X141699235Y-100662972D01*
X141246016Y-100360140D01*
X140711407Y-100253800D01*
X139967793Y-100253800D01*
X139433184Y-100360140D01*
X138979965Y-100662972D01*
X138677133Y-101116191D01*
X138570793Y-101650800D01*
X135685000Y-101650800D01*
X135685000Y-94098046D01*
X154491690Y-94098046D01*
X154491690Y-95690754D01*
X154597354Y-96221961D01*
X154898258Y-96672296D01*
X155348593Y-96973200D01*
X155879800Y-97078864D01*
X156411007Y-96973200D01*
X156861342Y-96672296D01*
X157162246Y-96221961D01*
X157162816Y-96219094D01*
X157185954Y-96297319D01*
X157528060Y-96720124D01*
X158005925Y-96979827D01*
X158078126Y-96994183D01*
X158292800Y-96871562D01*
X158292800Y-95021400D01*
X158546800Y-95021400D01*
X158546800Y-96871562D01*
X158761474Y-96994183D01*
X158833675Y-96979827D01*
X159311540Y-96720124D01*
X159653646Y-96297319D01*
X159807910Y-95775780D01*
X159807910Y-95742935D01*
X161124691Y-95742935D01*
X161307982Y-96186535D01*
X161647080Y-96526225D01*
X162090359Y-96710290D01*
X162570335Y-96710709D01*
X163013935Y-96527418D01*
X163353625Y-96188320D01*
X163537690Y-95745041D01*
X163538109Y-95265065D01*
X163354818Y-94821465D01*
X163015720Y-94481775D01*
X162572441Y-94297710D01*
X162092465Y-94297291D01*
X161648865Y-94480582D01*
X161309175Y-94819680D01*
X161125110Y-95262959D01*
X161124691Y-95742935D01*
X159807910Y-95742935D01*
X159807910Y-95021400D01*
X158546800Y-95021400D01*
X158292800Y-95021400D01*
X158272800Y-95021400D01*
X158272800Y-94767400D01*
X158292800Y-94767400D01*
X158292800Y-92917238D01*
X158546800Y-92917238D01*
X158546800Y-94767400D01*
X159807910Y-94767400D01*
X159807910Y-94013020D01*
X159653646Y-93491481D01*
X159311540Y-93068676D01*
X158833675Y-92808973D01*
X158761474Y-92794617D01*
X158546800Y-92917238D01*
X158292800Y-92917238D01*
X158078126Y-92794617D01*
X158005925Y-92808973D01*
X157528060Y-93068676D01*
X157185954Y-93491481D01*
X157162816Y-93569706D01*
X157162246Y-93566839D01*
X156861342Y-93116504D01*
X156411007Y-92815600D01*
X155879800Y-92709936D01*
X155348593Y-92815600D01*
X154898258Y-93116504D01*
X154597354Y-93566839D01*
X154491690Y-94098046D01*
X135685000Y-94098046D01*
X135685000Y-90685000D01*
X184315000Y-90685000D01*
X184315000Y-90845034D01*
X184315000Y-90845034D01*
G37*
X184315000Y-90845034D02*
X184108199Y-90759162D01*
X183736233Y-90758838D01*
X183392457Y-90900883D01*
X183129208Y-91163673D01*
X182986562Y-91507201D01*
X182986238Y-91879167D01*
X183128283Y-92222943D01*
X183391073Y-92486192D01*
X183734601Y-92628838D01*
X184106567Y-92629162D01*
X184315000Y-92543039D01*
X184315000Y-124315000D01*
X135685000Y-124315000D01*
X135685000Y-117221000D01*
X151799290Y-117221000D01*
X151799290Y-117975380D01*
X151953554Y-118496919D01*
X152295660Y-118919724D01*
X152773525Y-119179427D01*
X152845726Y-119193783D01*
X153060400Y-119071162D01*
X153060400Y-117221000D01*
X151799290Y-117221000D01*
X135685000Y-117221000D01*
X135685000Y-116212620D01*
X151799290Y-116212620D01*
X151799290Y-116967000D01*
X153060400Y-116967000D01*
X153060400Y-115116838D01*
X153314400Y-115116838D01*
X153314400Y-116967000D01*
X153334400Y-116967000D01*
X153334400Y-117221000D01*
X153314400Y-117221000D01*
X153314400Y-119071162D01*
X153529074Y-119193783D01*
X153601275Y-119179427D01*
X154079140Y-118919724D01*
X154421246Y-118496919D01*
X154444384Y-118418694D01*
X154444954Y-118421561D01*
X154745858Y-118871896D01*
X155196193Y-119172800D01*
X155727400Y-119278464D01*
X156258607Y-119172800D01*
X156708942Y-118871896D01*
X157009846Y-118421561D01*
X157115510Y-117890354D01*
X157115510Y-116297646D01*
X157009846Y-115766439D01*
X156708942Y-115316104D01*
X156258607Y-115015200D01*
X155727400Y-114909536D01*
X155196193Y-115015200D01*
X154745858Y-115316104D01*
X154444954Y-115766439D01*
X154444384Y-115769306D01*
X154421246Y-115691081D01*
X154079140Y-115268276D01*
X153601275Y-115008573D01*
X153529074Y-114994217D01*
X153314400Y-115116838D01*
X153060400Y-115116838D01*
X152845726Y-114994217D01*
X152773525Y-115008573D01*
X152295660Y-115268276D01*
X151953554Y-115691081D01*
X151799290Y-116212620D01*
X135685000Y-116212620D01*
X135685000Y-105968800D01*
X138592340Y-105968800D01*
X138592340Y-107492800D01*
X138636618Y-107728117D01*
X138775690Y-107944241D01*
X138987890Y-108089231D01*
X139239780Y-108140240D01*
X141439420Y-108140240D01*
X141674737Y-108095962D01*
X141890861Y-107956890D01*
X142035851Y-107744690D01*
X142086860Y-107492800D01*
X142086860Y-105968800D01*
X142042582Y-105733483D01*
X141903510Y-105517359D01*
X141691310Y-105372369D01*
X141439420Y-105321360D01*
X139239780Y-105321360D01*
X139004463Y-105365638D01*
X138788339Y-105504710D01*
X138643349Y-105716910D01*
X138592340Y-105968800D01*
X135685000Y-105968800D01*
X135685000Y-101650800D01*
X138570793Y-101650800D01*
X138677133Y-102185409D01*
X138979965Y-102638628D01*
X139433184Y-102941460D01*
X139967793Y-103047800D01*
X140711407Y-103047800D01*
X141246016Y-102941460D01*
X141699235Y-102638628D01*
X141799213Y-102489000D01*
X176424441Y-102489000D01*
X176538515Y-103062489D01*
X176863371Y-103548670D01*
X177178152Y-103759000D01*
X176863371Y-103969330D01*
X176538515Y-104455511D01*
X176424441Y-105029000D01*
X176538515Y-105602489D01*
X176863371Y-106088670D01*
X177178152Y-106299000D01*
X176863371Y-106509330D01*
X176538515Y-106995511D01*
X176424441Y-107569000D01*
X176538515Y-108142489D01*
X176863371Y-108628670D01*
X177349552Y-108953526D01*
X177923041Y-109067600D01*
X177981759Y-109067600D01*
X178555248Y-108953526D01*
X179041429Y-108628670D01*
X179222400Y-108357828D01*
X179403371Y-108628670D01*
X179889552Y-108953526D01*
X180463041Y-109067600D01*
X180521759Y-109067600D01*
X181095248Y-108953526D01*
X181581429Y-108628670D01*
X181906285Y-108142489D01*
X182020359Y-107569000D01*
X181906285Y-106995511D01*
X181581429Y-106509330D01*
X181266648Y-106299000D01*
X181581429Y-106088670D01*
X181906285Y-105602489D01*
X182020359Y-105029000D01*
X181906285Y-104455511D01*
X181581429Y-103969330D01*
X181258172Y-103753336D01*
X181380890Y-103695821D01*
X181775088Y-103263947D01*
X181947358Y-102848026D01*
X181826217Y-102616000D01*
X180619400Y-102616000D01*
X180619400Y-102636000D01*
X180365400Y-102636000D01*
X180365400Y-102616000D01*
X180345400Y-102616000D01*
X180345400Y-102362000D01*
X180365400Y-102362000D01*
X180365400Y-102342000D01*
X180619400Y-102342000D01*
X180619400Y-102362000D01*
X181826217Y-102362000D01*
X181947358Y-102129974D01*
X181775088Y-101714053D01*
X181380890Y-101282179D01*
X181258172Y-101224664D01*
X181581429Y-101008670D01*
X181906285Y-100522489D01*
X182020359Y-99949000D01*
X181906285Y-99375511D01*
X181581429Y-98889330D01*
X181095248Y-98564474D01*
X180521759Y-98450400D01*
X180463041Y-98450400D01*
X179889552Y-98564474D01*
X179423958Y-98875574D01*
X179419162Y-98850083D01*
X179280090Y-98633959D01*
X179067890Y-98488969D01*
X178816000Y-98437960D01*
X177088800Y-98437960D01*
X176853483Y-98482238D01*
X176637359Y-98621310D01*
X176492369Y-98833510D01*
X176441360Y-99085400D01*
X176441360Y-100812600D01*
X176485638Y-101047917D01*
X176624710Y-101264041D01*
X176836910Y-101409031D01*
X176880531Y-101417864D01*
X176863371Y-101429330D01*
X176538515Y-101915511D01*
X176424441Y-102489000D01*
X141799213Y-102489000D01*
X142002067Y-102185409D01*
X142108407Y-101650800D01*
X142002067Y-101116191D01*
X141699235Y-100662972D01*
X141246016Y-100360140D01*
X140711407Y-100253800D01*
X139967793Y-100253800D01*
X139433184Y-100360140D01*
X138979965Y-100662972D01*
X138677133Y-101116191D01*
X138570793Y-101650800D01*
X135685000Y-101650800D01*
X135685000Y-94098046D01*
X154491690Y-94098046D01*
X154491690Y-95690754D01*
X154597354Y-96221961D01*
X154898258Y-96672296D01*
X155348593Y-96973200D01*
X155879800Y-97078864D01*
X156411007Y-96973200D01*
X156861342Y-96672296D01*
X157162246Y-96221961D01*
X157162816Y-96219094D01*
X157185954Y-96297319D01*
X157528060Y-96720124D01*
X158005925Y-96979827D01*
X158078126Y-96994183D01*
X158292800Y-96871562D01*
X158292800Y-95021400D01*
X158546800Y-95021400D01*
X158546800Y-96871562D01*
X158761474Y-96994183D01*
X158833675Y-96979827D01*
X159311540Y-96720124D01*
X159653646Y-96297319D01*
X159807910Y-95775780D01*
X159807910Y-95742935D01*
X161124691Y-95742935D01*
X161307982Y-96186535D01*
X161647080Y-96526225D01*
X162090359Y-96710290D01*
X162570335Y-96710709D01*
X163013935Y-96527418D01*
X163353625Y-96188320D01*
X163537690Y-95745041D01*
X163538109Y-95265065D01*
X163354818Y-94821465D01*
X163015720Y-94481775D01*
X162572441Y-94297710D01*
X162092465Y-94297291D01*
X161648865Y-94480582D01*
X161309175Y-94819680D01*
X161125110Y-95262959D01*
X161124691Y-95742935D01*
X159807910Y-95742935D01*
X159807910Y-95021400D01*
X158546800Y-95021400D01*
X158292800Y-95021400D01*
X158272800Y-95021400D01*
X158272800Y-94767400D01*
X158292800Y-94767400D01*
X158292800Y-92917238D01*
X158546800Y-92917238D01*
X158546800Y-94767400D01*
X159807910Y-94767400D01*
X159807910Y-94013020D01*
X159653646Y-93491481D01*
X159311540Y-93068676D01*
X158833675Y-92808973D01*
X158761474Y-92794617D01*
X158546800Y-92917238D01*
X158292800Y-92917238D01*
X158078126Y-92794617D01*
X158005925Y-92808973D01*
X157528060Y-93068676D01*
X157185954Y-93491481D01*
X157162816Y-93569706D01*
X157162246Y-93566839D01*
X156861342Y-93116504D01*
X156411007Y-92815600D01*
X155879800Y-92709936D01*
X155348593Y-92815600D01*
X154898258Y-93116504D01*
X154597354Y-93566839D01*
X154491690Y-94098046D01*
X135685000Y-94098046D01*
X135685000Y-90685000D01*
X184315000Y-90685000D01*
X184315000Y-90845034D01*
M02*
