(export (version D)
  (design
    (source "/u4/jzeeff/Dropbox/photosynq project (1)/Hardware/prototypes/det-pulse2/det-pulse2.sch")
    (date "Fri 13 Nov 2015 09:00:11 PM EST")
    (tool "Eeschema 4.0.0-rc2-stable")
    (sheet (number 1) (name /) (tstamps /)
      (title_block
        (title Multispec_Handheld_unit)
        (company Photosynq)
        (rev 1)
        (date "1 oct 2015")
        (source det-pulse2.sch)
        (comment (number 1) (value "Zegarac Robert"))
        (comment (number 2) (value ACToPULSEr))
        (comment (number 3) (value ""))
        (comment (number 4) (value "")))))
  (components
    (comp (ref R8)
      (value 100)
      (footprint Resistors_SMD:R_0805_HandSoldering)
      (libsource (lib device) (part R_Small))
      (sheetpath (names /) (tstamps /))
      (tstamp 56157DB7))
    (comp (ref R7)
      (value 20K)
      (footprint Resistors_SMD:R_0805_HandSoldering)
      (fields
        (field (name manf#) Value))
      (libsource (lib device) (part R_Small))
      (sheetpath (names /) (tstamps /))
      (tstamp 56157DB8))
    (comp (ref R5)
      (value 1000)
      (footprint Resistors_SMD:R_0805_HandSoldering)
      (fields
        (field (name manf#) Value))
      (libsource (lib device) (part R_Small))
      (sheetpath (names /) (tstamps /))
      (tstamp 56157DB9))
    (comp (ref C4)
      (value 10u)
      (footprint Capacitors_SMD:C_0805_HandSoldering)
      (libsource (lib device) (part C_Small))
      (sheetpath (names /) (tstamps /))
      (tstamp 56157DBB))
    (comp (ref C5)
      (value 10u)
      (footprint Capacitors_SMD:C_0805_HandSoldering)
      (libsource (lib device) (part C_Small))
      (sheetpath (names /) (tstamps /))
      (tstamp 56157DBC))
    (comp (ref C2)
      (value 50n)
      (footprint Capacitors_SMD:C_0805_HandSoldering)
      (fields
        (field (name manf#) Value))
      (libsource (lib device) (part C_Small))
      (sheetpath (names /) (tstamps /))
      (tstamp 56157DBD))
    (comp (ref C3)
      (value 40p)
      (footprint Capacitors_SMD:C_0805_HandSoldering)
      (fields
        (field (name manf#) Value))
      (libsource (lib device) (part C_Small))
      (sheetpath (names /) (tstamps /))
      (tstamp 56157DBE))
    (comp (ref C7)
      (value 10u)
      (footprint Capacitors_SMD:C_0805_HandSoldering)
      (libsource (lib device) (part C_Small))
      (sheetpath (names /) (tstamps /))
      (tstamp 56157DC3))
    (comp (ref C9)
      (value 10u)
      (footprint Capacitors_SMD:C_0805_HandSoldering)
      (libsource (lib device) (part C_Small))
      (sheetpath (names /) (tstamps /))
      (tstamp 56157DC5))
    (comp (ref C8)
      (value 100n)
      (footprint Capacitors_SMD:C_0805_HandSoldering)
      (libsource (lib device) (part C_Small))
      (sheetpath (names /) (tstamps /))
      (tstamp 56157DC7))
    (comp (ref R9)
      (value 100)
      (footprint Resistors_SMD:R_0805_HandSoldering)
      (libsource (lib device) (part R_Small))
      (sheetpath (names /) (tstamps /))
      (tstamp 56157DCA))
    (comp (ref P6)
      (value CONN_02X04)
      (footprint Pin_Headers:Pin_Header_Straight_2x04)
      (fields
        (field (name manf#) Value))
      (libsource (lib conn) (part CONN_02X04))
      (sheetpath (names /) (tstamps /))
      (tstamp 56157DCB))
    (comp (ref C10)
      (value 10u)
      (footprint Capacitors_SMD:C_0805_HandSoldering)
      (libsource (lib device) (part C_Small))
      (sheetpath (names /) (tstamps /))
      (tstamp 56157DCC))
    (comp (ref U2)
      (value AD7699)
      (footprint Housings_DFN_QFN:QFN-20-1EP_4x4mm_Pitch0.5mm)
      (fields
        (field (name manf#) Value))
      (libsource (lib probe-cache) (part AD7699))
      (sheetpath (names /) (tstamps /))
      (tstamp 56157DCE))
    (comp (ref D1)
      (value PhotoD)
      (footprint "Handheld board:Pin_diode_SIP_down")
      (datasheet S6775-01)
      (fields
        (field (name manf#) Value)
        (field (name S6775-01) Value))
      (libsource (lib det-pulse2-cache) (part PhotoD))
      (sheetpath (names /) (tstamps /))
      (tstamp 56157DCF))
    (comp (ref U1)
      (value AD8675)
      (footprint SMD_Packages:SOIC-8-N)
      (fields
        (field (name manf#) AD8675ARZ))
      (libsource (lib linear) (part LM6161))
      (sheetpath (names /) (tstamps /))
      (tstamp 56157DD0))
    (comp (ref C6)
      (value 100n)
      (footprint Capacitors_SMD:C_0805_HandSoldering)
      (fields
        (field (name manf#) Value))
      (libsource (lib device) (part C_Small))
      (sheetpath (names /) (tstamps /))
      (tstamp 56157DD1))
    (comp (ref R1)
      (value 1K)
      (footprint Resistors_SMD:R_0805_HandSoldering)
      (fields
        (field (name manf#) Value))
      (libsource (lib device) (part R_Small))
      (sheetpath (names /) (tstamps /))
      (tstamp 56157DD2))
    (comp (ref P1)
      (value CONN_01X02)
      (footprint Connect:PINHEAD1-2)
      (fields
        (field (name manf#) Value))
      (libsource (lib conn) (part CONN_01X02))
      (sheetpath (names /) (tstamps /))
      (tstamp 56157DD3))
    (comp (ref P3)
      (value CONN_01X02)
      (footprint Connect:PINHEAD1-2)
      (fields
        (field (name manf#) Value))
      (libsource (lib conn) (part CONN_01X02))
      (sheetpath (names /) (tstamps /))
      (tstamp 56157DD5))
    (comp (ref P4)
      (value CONN_01X02)
      (footprint Connect:PINHEAD1-2)
      (fields
        (field (name manf#) Value))
      (libsource (lib conn) (part CONN_01X02))
      (sheetpath (names /) (tstamps /))
      (tstamp 56157DD6))
    (comp (ref Q1)
      (value MOSN-TSOP6)
      (footprint Housings_SOT-23_SOT-143_TSOT-6:TSOT-6-MK06A_Handsoldering)
      (fields
        (field (name manf#) Value))
      (libsource (lib det-pulse2-cache) (part MOSN-TSOP6))
      (sheetpath (names /) (tstamps /))
      (tstamp 56157DD8))
    (comp (ref R6)
      (value 10)
      (footprint Resistors_SMD:R_0805_HandSoldering)
      (fields
        (field (name manf#) Value))
      (libsource (lib device) (part R_Small))
      (sheetpath (names /) (tstamps /))
      (tstamp 56157DDA))
    (comp (ref D2)
      (value LED)
      (footprint LEDs:LED-3MM)
      (fields
        (field (name manf#) Value))
      (libsource (lib det-pulse2-rescue) (part LED-RESCUE-det-pulse2))
      (sheetpath (names /) (tstamps /))
      (tstamp 56157DDC))
    (comp (ref C1)
      (value 10u)
      (footprint Capacitors_SMD:C_0805_HandSoldering)
      (libsource (lib device) (part C_Small))
      (sheetpath (names /) (tstamps /))
      (tstamp 56157DDD))
    (comp (ref R3)
      (value 0)
      (footprint Resistors_SMD:R_0805_HandSoldering)
      (fields
        (field (name manf#) Value))
      (libsource (lib device) (part R_Small))
      (sheetpath (names /) (tstamps /))
      (tstamp 56157DDF))
    (comp (ref R2)
      (value 0)
      (footprint Resistors_SMD:R_0805_HandSoldering)
      (fields
        (field (name manf#) Value))
      (libsource (lib device) (part R_Small))
      (sheetpath (names /) (tstamps /))
      (tstamp 56157DE0))
    (comp (ref P5)
      (value CONN_01X01)
      (footprint Connect:PINTST)
      (fields
        (field (name manf#) Value))
      (libsource (lib conn) (part CONN_01X01))
      (sheetpath (names /) (tstamps /))
      (tstamp 56157DE1))
    (comp (ref U4)
      (value TS461)
      (footprint w_smd_trans:sot23-5)
      (libsource (lib det-pulse2-cache) (part TSV911))
      (sheetpath (names /) (tstamps /))
      (tstamp 562C6F6A))
    (comp (ref R15)
      (value 2K)
      (footprint Resistors_SMD:R_0805_HandSoldering)
      (fields
        (field (name manf#) Value))
      (libsource (lib device) (part R_Small))
      (sheetpath (names /) (tstamps /))
      (tstamp 562D262B))
    (comp (ref R12)
      (value 150)
      (footprint Resistors_SMD:R_0805_HandSoldering)
      (fields
        (field (name manf#) Value))
      (libsource (lib device) (part R_Small))
      (sheetpath (names /) (tstamps /))
      (tstamp 562D39A2))
    (comp (ref R13)
      (value 2K)
      (footprint Resistors_SMD:R_0805_HandSoldering)
      (fields
        (field (name manf#) Value))
      (libsource (lib device) (part R_Small))
      (sheetpath (names /) (tstamps /))
      (tstamp 562D4930))
    (comp (ref R11)
      (value 100K)
      (footprint Resistors_SMD:R_0805_HandSoldering)
      (fields
        (field (name manf#) Value))
      (libsource (lib device) (part R_Small))
      (sheetpath (names /) (tstamps /))
      (tstamp 562D4F2F))
    (comp (ref C11)
      (value 0.1u)
      (footprint Capacitors_SMD:C_0805_HandSoldering)
      (libsource (lib device) (part C_Small))
      (sheetpath (names /) (tstamps /))
      (tstamp 562D635E))
    (comp (ref C12)
      (value 22p)
      (footprint Capacitors_SMD:C_0805_HandSoldering)
      (libsource (lib device) (part C_Small))
      (sheetpath (names /) (tstamps /))
      (tstamp 562D7022))
    (comp (ref R4)
      (value 100)
      (footprint Resistors_SMD:R_0805_HandSoldering)
      (fields
        (field (name manf#) Value))
      (libsource (lib device) (part R_Small))
      (sheetpath (names /) (tstamps /))
      (tstamp 56157DDB))
    (comp (ref C13)
      (value 10u)
      (footprint Capacitors_SMD:C_0805_HandSoldering)
      (libsource (lib device) (part C_Small))
      (sheetpath (names /) (tstamps /))
      (tstamp 561EB561))
    (comp (ref C14)
      (value 10u)
      (footprint Capacitors_SMD:C_0805_HandSoldering)
      (libsource (lib device) (part C_Small))
      (sheetpath (names /) (tstamps /))
      (tstamp 561EDD88))
    (comp (ref U3)
      (value DG4157DL-T1-E3)
      (footprint w_smd_trans:sc70-6)
      (datasheet http://www.vishay.com/docs/68800/dg4157.pdf)
      (fields
        (field (name price10) 0.542)
        (field (name price3000) 0.2175))
      (libsource (lib det-pulse2-cache) (part DG4157DL-T1-E3))
      (sheetpath (names /) (tstamps /))
      (tstamp 562C6F63)))
  (libparts
    (libpart (lib probe-cache) (part AD7699)
      (fields
        (field (name Reference) U)
        (field (name Value) AD7699))
      (pins
        (pin (num 1) (name Vdd) (type power_in))
        (pin (num 2) (name REF) (type input))
        (pin (num 3) (name REFIN) (type input))
        (pin (num 4) (name GND) (type power_in))
        (pin (num 5) (name GND) (type power_in))
        (pin (num 6) (name IN4) (type input))
        (pin (num 7) (name IN5) (type input))
        (pin (num 8) (name IN6) (type input))
        (pin (num 9) (name IN7) (type input))
        (pin (num 10) (name Com) (type input))
        (pin (num 11) (name CNV) (type input))
        (pin (num 12) (name DIN) (type input))
        (pin (num 13) (name SCK) (type input))
        (pin (num 14) (name SDO) (type output))
        (pin (num 15) (name VIO) (type power_in))
        (pin (num 16) (name IN0) (type input))
        (pin (num 17) (name IN1) (type input))
        (pin (num 18) (name IN2) (type input))
        (pin (num 19) (name IN3) (type input))
        (pin (num 20) (name Vdd) (type power_in))))
    (libpart (lib conn) (part CONN_01X01)
      (footprints
        (fp Pin_Header_Straight_1X01)
        (fp Pin_Header_Angled_1X01)
        (fp Socket_Strip_Straight_1X01)
        (fp Socket_Strip_Angled_1X01))
      (fields
        (field (name Reference) P)
        (field (name Value) CONN_01X01))
      (pins
        (pin (num 1) (name P1) (type passive))))
    (libpart (lib conn) (part CONN_01X02)
      (footprints
        (fp Pin_Header_Straight_1X02)
        (fp Pin_Header_Angled_1X02)
        (fp Socket_Strip_Straight_1X02)
        (fp Socket_Strip_Angled_1X02))
      (fields
        (field (name Reference) P)
        (field (name Value) CONN_01X02))
      (pins
        (pin (num 1) (name P1) (type passive))
        (pin (num 2) (name P2) (type passive))))
    (libpart (lib conn) (part CONN_02X04)
      (footprints
        (fp Pin_Header_Straight_2X04)
        (fp Pin_Header_Angled_2X04)
        (fp Socket_Strip_Straight_2X04)
        (fp Socket_Strip_Angled_2X04))
      (fields
        (field (name Reference) P)
        (field (name Value) CONN_02X04))
      (pins
        (pin (num 1) (name P1) (type passive))
        (pin (num 2) (name P2) (type passive))
        (pin (num 3) (name P3) (type passive))
        (pin (num 4) (name P4) (type passive))
        (pin (num 5) (name P5) (type passive))
        (pin (num 6) (name P6) (type passive))
        (pin (num 7) (name P7) (type passive))
        (pin (num 8) (name P8) (type passive))))
    (libpart (lib device) (part C_Small)
      (description "Unpolarized capacitor")
      (footprints
        (fp C?)
        (fp C_????_*)
        (fp C_????)
        (fp SMD*_c)
        (fp Capacitor*))
      (fields
        (field (name Reference) C)
        (field (name Value) C_Small))
      (pins
        (pin (num 1) (name ~) (type passive))
        (pin (num 2) (name ~) (type passive))))
    (libpart (lib det-pulse2-cache) (part DG4157DL-T1-E3)
      (footprints
        (fp SOT23-6))
      (fields
        (field (name Reference) U)
        (field (name Value) DG4157DL-T1-E3))
      (pins
        (pin (num 1) (name B1) (type passive))
        (pin (num 2) (name GND) (type power_in))
        (pin (num 3) (name B0) (type passive))
        (pin (num 4) (name A) (type passive))
        (pin (num 5) (name VCC) (type input))
        (pin (num 6) (name S) (type input))))
    (libpart (lib det-pulse2-rescue) (part LED-RESCUE-det-pulse2)
      (footprints
        (fp LED-3MM)
        (fp LED-5MM)
        (fp LED-10MM)
        (fp LED-0603)
        (fp LED-0805)
        (fp LED-1206)
        (fp LEDV))
      (fields
        (field (name Reference) D)
        (field (name Value) LED-RESCUE-det-pulse2))
      (pins
        (pin (num 1) (name A) (type passive))
        (pin (num 2) (name K) (type passive))))
    (libpart (lib linear) (part LM6161)
      (aliases
        (alias LM6361)
        (alias LM6261))
      (description "Op Amp.")
      (docs AmpliOp.sch)
      (fields
        (field (name Reference) U)
        (field (name Value) LM6161))
      (pins
        (pin (num 1) (name ~) (type passive))
        (pin (num 2) (name -) (type input))
        (pin (num 3) (name +) (type input))
        (pin (num 4) (name V-) (type input))
        (pin (num 6) (name ~) (type output))
        (pin (num 7) (name V+) (type input))
        (pin (num 8) (name ~) (type passive))))
    (libpart (lib det-pulse2-cache) (part MOSN-TSOP6)
      (footprints
        (fp TSOP-6))
      (fields
        (field (name Reference) Q)
        (field (name Value) MOSN-TSOP6)
        (field (name Footprint) TSOP-6))
      (pins
        (pin (num 1) (name D) (type passive))
        (pin (num 2) (name D) (type passive))
        (pin (num 3) (name G) (type input))
        (pin (num 4) (name S) (type passive))
        (pin (num 5) (name D) (type passive))
        (pin (num 6) (name D) (type passive))))
    (libpart (lib det-pulse2-cache) (part PhotoD)
      (footprints
        (fp Diode_*)
        (fp D-Pak_TO252AA)
        (fp *SingleDiode)
        (fp *_Diode_*)
        (fp *SingleDiode*))
      (fields
        (field (name Reference) D)
        (field (name Value) PhotoD))
      (pins
        (pin (num 1) (name A) (type passive))
        (pin (num 2) (name K) (type passive))))
    (libpart (lib device) (part R_Small)
      (description Resistor)
      (footprints
        (fp Resistor_*)
        (fp R_*))
      (fields
        (field (name Reference) R)
        (field (name Value) R_Small))
      (pins
        (pin (num 1) (name ~) (type passive))
        (pin (num 2) (name ~) (type passive))))
    (libpart (lib det-pulse2-cache) (part TSV911)
      (footprints
        (fp sot23-6))
      (fields
        (field (name Reference) U)
        (field (name Value) TSV911))
      (pins
        (pin (num 1) (name ~) (type output))
        (pin (num 2) (name -) (type power_in))
        (pin (num 3) (name +) (type input))
        (pin (num 4) (name -) (type input))
        (pin (num 5) (name +) (type power_in)))))
  (libraries
    (library (logical linear)
      (uri /usr/share/kicad/library/linear.lib))
    (library (logical probe-cache)
      (uri "/u4/jzeeff/Dropbox/photosynq project (1)/Hardware/prototypes/det-pulse2/probe-cache.lib"))
    (library (logical det-pulse2-cache)
      (uri "/u4/jzeeff/Dropbox/photosynq project (1)/Hardware/prototypes/det-pulse2/det-pulse2-cache.lib"))
    (library (logical conn)
      (uri /usr/share/kicad/library/conn.lib))
    (library (logical device)
      (uri /usr/share/kicad/library/device.lib))
    (library (logical det-pulse2-rescue)
      (uri "/u4/jzeeff/Dropbox/photosynq project (1)/Hardware/prototypes/det-pulse2/det-pulse2-rescue.lib")))
  (nets
    (net (code 1) (name "Net-(P1-Pad2)")
      (node (ref P1) (pin 2))
      (node (ref R1) (pin 1)))
    (net (code 2) (name "Net-(D1-Pad1)")
      (node (ref D1) (pin 1))
      (node (ref R2) (pin 2))
      (node (ref R3) (pin 1)))
    (net (code 3) (name "Net-(C6-Pad1)")
      (node (ref R9) (pin 1))
      (node (ref C6) (pin 1))
      (node (ref U2) (pin 16)))
    (net (code 4) (name "Net-(C2-Pad2)")
      (node (ref C2) (pin 2))
      (node (ref R1) (pin 2))
      (node (ref R5) (pin 2))
      (node (ref D1) (pin 2)))
    (net (code 5) (name "Net-(C7-Pad1)")
      (node (ref C7) (pin 1))
      (node (ref U2) (pin 2)))
    (net (code 6) (name "Net-(C8-Pad1)")
      (node (ref C8) (pin 1))
      (node (ref U2) (pin 3)))
    (net (code 7) (name "Net-(Q1-Pad3)")
      (node (ref R12) (pin 2))
      (node (ref Q1) (pin 3)))
    (net (code 8) (name "Net-(C12-Pad2)")
      (node (ref C12) (pin 2))
      (node (ref R13) (pin 1))
      (node (ref U4) (pin 4)))
    (net (code 9) (name "Net-(C12-Pad1)")
      (node (ref C12) (pin 1))
      (node (ref R12) (pin 1))
      (node (ref U4) (pin 1)))
    (net (code 10) (name GND)
      (node (ref U2) (pin 18))
      (node (ref P4) (pin 1))
      (node (ref U2) (pin 19))
      (node (ref U2) (pin 10))
      (node (ref U2) (pin 9))
      (node (ref U2) (pin 8))
      (node (ref R9) (pin 2))
      (node (ref P6) (pin 4))
      (node (ref U2) (pin 4))
      (node (ref C10) (pin 2))
      (node (ref U4) (pin 2))
      (node (ref P1) (pin 1))
      (node (ref P3) (pin 2))
      (node (ref U1) (pin 3))
      (node (ref R6) (pin 1))
      (node (ref R3) (pin 2))
      (node (ref C1) (pin 2))
      (node (ref U2) (pin 6))
      (node (ref U2) (pin 5))
      (node (ref C5) (pin 1))
      (node (ref C4) (pin 2))
      (node (ref R5) (pin 1))
      (node (ref C8) (pin 2))
      (node (ref U2) (pin 7))
      (node (ref C9) (pin 2))
      (node (ref C7) (pin 2))
      (node (ref U3) (pin 3))
      (node (ref C11) (pin 2))
      (node (ref C13) (pin 2))
      (node (ref R11) (pin 2))
      (node (ref U3) (pin 2))
      (node (ref C14) (pin 2)))
    (net (code 11) (name /ACT_SAT_SW)
      (node (ref U3) (pin 4))
      (node (ref U4) (pin 3)))
    (net (code 12) (name "Net-(C11-Pad1)")
      (node (ref U3) (pin 1))
      (node (ref R4) (pin 2))
      (node (ref C11) (pin 1)))
    (net (code 13) (name PULSE)
      (node (ref P6) (pin 8))
      (node (ref U3) (pin 6))
      (node (ref R11) (pin 1)))
    (net (code 14) (name /ACT_SAT_FB)
      (node (ref R6) (pin 2))
      (node (ref R13) (pin 2))
      (node (ref Q1) (pin 4)))
    (net (code 15) (name ACT)
      (node (ref P6) (pin 6))
      (node (ref R4) (pin 1)))
    (net (code 16) (name "Net-(P6-Pad7)")
      (node (ref U2) (pin 11))
      (node (ref P6) (pin 7)))
    (net (code 17) (name "Net-(P6-Pad5)")
      (node (ref U2) (pin 12))
      (node (ref P6) (pin 5)))
    (net (code 18) (name "Net-(P6-Pad3)")
      (node (ref P6) (pin 3))
      (node (ref U2) (pin 13)))
    (net (code 19) (name "Net-(P6-Pad1)")
      (node (ref P6) (pin 1))
      (node (ref U2) (pin 14)))
    (net (code 20) (name "Net-(C10-Pad1)")
      (node (ref P6) (pin 2))
      (node (ref U2) (pin 15))
      (node (ref C10) (pin 1)))
    (net (code 21) (name +5V)
      (node (ref R15) (pin 2))
      (node (ref P3) (pin 1))
      (node (ref U4) (pin 5))
      (node (ref D2) (pin 1))
      (node (ref C1) (pin 1))
      (node (ref U1) (pin 7))
      (node (ref U2) (pin 1))
      (node (ref U3) (pin 5))
      (node (ref C13) (pin 1))
      (node (ref U2) (pin 20))
      (node (ref C4) (pin 1))
      (node (ref C9) (pin 1))
      (node (ref C14) (pin 1)))
    (net (code 22) (name "Net-(C2-Pad1)")
      (node (ref C3) (pin 2))
      (node (ref C2) (pin 1))
      (node (ref U1) (pin 2))
      (node (ref R7) (pin 2)))
    (net (code 23) (name "Net-(C3-Pad1)")
      (node (ref U1) (pin 6))
      (node (ref R7) (pin 1))
      (node (ref R8) (pin 2))
      (node (ref C3) (pin 1)))
    (net (code 24) (name -5V)
      (node (ref U1) (pin 4))
      (node (ref R2) (pin 1))
      (node (ref P4) (pin 2))
      (node (ref C5) (pin 2)))
    (net (code 25) (name /ACT_LED_C)
      (node (ref R15) (pin 1))
      (node (ref Q1) (pin 6))
      (node (ref D2) (pin 2))
      (node (ref Q1) (pin 5))
      (node (ref Q1) (pin 2))
      (node (ref Q1) (pin 1)))
    (net (code 26) (name /ADC-input)
      (node (ref C6) (pin 2))
      (node (ref R8) (pin 1))
      (node (ref U2) (pin 17))
      (node (ref P5) (pin 1)))
    (net (code 27) (name "Net-(U1-Pad1)")
      (node (ref U1) (pin 1)))
    (net (code 28) (name "Net-(U1-Pad8)")
      (node (ref U1) (pin 8)))))