G04 #@! TF.FileFunction,Profile,NP*
%FSLAX46Y46*%
G04 Gerber Fmt 4.6, Leading zero omitted, Abs format (unit mm)*
G04 Created by KiCad (PCBNEW (2015-11-02 BZR 6292, Git 85c3ae3)-product) date 12/7/2015 2:01:28 PM*
%MOMM*%
G01*
G04 APERTURE LIST*
%ADD10C,0.100000*%
%ADD11C,0.150000*%
G04 APERTURE END LIST*
D10*
D11*
X127635000Y-102997000D02*
X127635000Y-84201000D01*
X151638000Y-102997000D02*
X127635000Y-102997000D01*
X151638000Y-84201000D02*
X151638000Y-102997000D01*
X127635000Y-84201000D02*
X151638000Y-84201000D01*
M02*
