G04 #@! TF.FileFunction,Legend,Bot*
%FSLAX46Y46*%
G04 Gerber Fmt 4.6, Leading zero omitted, Abs format (unit mm)*
G04 Created by KiCad (PCBNEW 4.0.7-e2-6376~58~ubuntu14.04.1) date Wed Sep  6 17:15:42 2017*
%MOMM*%
%LPD*%
G01*
G04 APERTURE LIST*
%ADD10C,0.100000*%
%ADD11C,0.150000*%
G04 APERTURE END LIST*
D10*
D11*
X148915381Y-95281715D02*
X148915381Y-94710286D01*
X148915381Y-94996000D02*
X147915381Y-94996000D01*
X148058238Y-94900762D01*
X148153476Y-94805524D01*
X148201095Y-94710286D01*
M02*
