EESchema Schematic File Version 2
LIBS:Handheld board-rescue
LIBS:power
LIBS:device
LIBS:transistors
LIBS:conn
LIBS:linear
LIBS:regul
LIBS:74xx
LIBS:cmos4000
LIBS:adc-dac
LIBS:memory
LIBS:xilinx
LIBS:microcontrollers
LIBS:dsp
LIBS:microchip
LIBS:analog_switches
LIBS:motorola
LIBS:texas
LIBS:intel
LIBS:audio
LIBS:interface
LIBS:digital-audio
LIBS:philips
LIBS:display
LIBS:cypress
LIBS:siliconi
LIBS:opto
LIBS:atmel
LIBS:contrib
LIBS:valves
LIBS:Handheld board-cache
EELAYER 25 0
EELAYER END
$Descr A3 16535 11693
encoding utf-8
Sheet 1 1
Title "Multispec_Handheld_unit"
Date "4 may 2015"
Rev "1"
Comp "Photosynq"
Comment1 "Zegarac Robert"
Comment2 ""
Comment3 ""
Comment4 ""
$EndDescr
$Comp
L R-RESCUE-Handheld_board R112
U 1 1 516F06E3
P 2800 7825
F 0 "R112" V 2875 7925 30  0000 C CNN
F 1 "1K" V 2800 7825 50  0000 C CNN
F 2 "" H 2800 7825 60  0000 C CNN
F 3 "RC0402JR-071KL" V 2800 7825 10  0000 C CNN
	1    2800 7825
	-1   0    0    1   
$EndComp
$Comp
L C-RESCUE-Handheld_board C114
U 1 1 516F06F6
P 3150 7925
F 0 "C114" V 3175 7975 30  0000 L CNN
F 1 "1n" V 3175 7800 30  0000 L CNN
F 2 "" H 3150 7925 60  0000 C CNN
F 3 "wrong" H 3150 7925 10  0000 C CNN
	1    3150 7925
	0    -1   -1   0   
$EndComp
$Comp
L SMALL_DIODE_PHOTODIODE D105
U 1 1 516F0A66
P 2150 7775
F 0 "D105" H 2275 7825 30  0000 C CNN
F 1 "DETA" H 1950 7825 30  0000 C CNN
F 2 "PIN" H 2050 7800 36  0000 C CNN
F 3 "S6775-01" H 2150 7775 10  0000 C CNN
	1    2150 7775
	0    -1   -1   0   
$EndComp
$Comp
L C-RESCUE-Handheld_board C112
U 1 1 517FDA64
P 2875 7175
F 0 "C112" V 2900 7225 30  0000 L CNN
F 1 "10u" V 2900 7050 30  0000 L CNN
F 2 "" H 2875 7175 60  0000 C CNN
F 3 "C0805C106M4PACTU" H 2875 7175 10  0000 C CNN
	1    2875 7175
	0    -1   -1   0   
$EndComp
$Comp
L INDUCTOR_SMALL L104
U 1 1 517FDFA5
P 11850 1350
F 0 "L104" H 12000 1300 30  0000 C CNN
F 1 "10uH" H 11700 1300 30  0000 C CNN
F 2 "SM0805" H 11850 1350 10  0000 C CNN
F 3 "MLZ2012N100L" H 11850 1350 20  0000 C CNN
	1    11850 1350
	-1   0    0    1   
$EndComp
$Comp
L LM358 U103
U 1 1 51801A7B
P 7600 5500
F 0 "U103" H 7550 5700 60  0000 L CNN
F 1 "OPA2180" H 7625 5375 40  0000 L CNN
F 2 "" H 7600 5500 60  0000 C CNN
F 3 "OPA2180IDR" H 7550 5500 20  0000 C CNN
	1    7600 5500
	1    0    0    -1  
$EndComp
$Comp
L R-RESCUE-Handheld_board R110
U 1 1 51801A92
P 8400 5500
F 0 "R110" V 8480 5500 50  0000 C CNN
F 1 "22" V 8400 5500 50  0000 C CNN
F 2 "" H 8400 5500 60  0000 C CNN
F 3 "RC0805JR-0722RL" V 8400 5500 20  0000 C CNN
	1    8400 5500
	0    1    -1   0   
$EndComp
$Comp
L R-RESCUE-Handheld_board R113
U 1 1 51801AF6
P 9000 6000
F 0 "R113" V 9080 6000 50  0000 C CNN
F 1 "3.3" V 9000 6000 50  0000 C CNN
F 2 "" H 9000 6000 60  0000 C CNN
F 3 "RC0805JR-073R3L" V 9000 6000 20  0000 C CNN
	1    9000 6000
	-1   0    0    -1  
$EndComp
$Comp
L INDUCTOR_SMALL L102
U 1 1 51801BD0
P 6550 5000
F 0 "L102" H 6850 5200 30  0000 C CNN
F 1 "10uH" H 6850 5050 30  0000 C CNN
F 2 "~" H 6550 5000 60  0000 C CNN
F 3 "MLZ2012N100L" H 6850 5100 20  0000 C CNN
	1    6550 5000
	1    0    0    -1  
$EndComp
$Comp
L C-RESCUE-Handheld_board C111
U 1 1 51801C27
P 7850 4900
F 0 "C111" H 7850 5000 40  0000 L CNN
F 1 "10u" H 7856 4815 40  0000 L CNN
F 2 "SM0805" H 7900 4950 10  0000 C CNN
F 3 "C0805C106M4PACTU" H 7850 4900 10  0000 C CNN
	1    7850 4900
	1    0    0    -1  
$EndComp
$Comp
L C-RESCUE-Handheld_board C113
U 1 1 51801CF0
P 7950 5900
F 0 "C113" V 7900 5950 40  0000 L CNN
F 1 "68p" V 8000 5700 50  0000 L CNN
F 2 "" H 7950 5900 60  0000 C CNN
F 3 "CC0402JRNPO9BN680" H 7950 5900 10  0000 C CNN
	1    7950 5900
	0    1    -1   0   
$EndComp
$Comp
L R-RESCUE-Handheld_board R108
U 1 1 5182B0C8
P 5300 8350
F 0 "R108" V 5225 8350 50  0000 C CNN
F 1 "2K" V 5300 8350 50  0000 C CNN
F 2 "SM0805" H 5300 8350 10  0000 C CNN
F 3 "RC0805JR-072KL" V 5300 8350 10  0000 C CNN
	1    5300 8350
	-1   0    0    1   
$EndComp
$Comp
L C-RESCUE-Handheld_board C109
U 1 1 5182B33D
P 5650 9150
F 0 "C109" H 5700 9250 50  0000 L CNN
F 1 "10u" H 5700 9050 50  0000 L CNN
F 2 "SM0805" H 5650 9150 10  0000 C CNN
F 3 "C0805C106M4PACTU" H 5650 9150 10  0000 C CNN
	1    5650 9150
	1    0    0    -1  
$EndComp
$Comp
L TL431LP U106
U 1 1 5182B46F
P 5300 9000
F 0 "U106" H 5100 8825 50  0000 C CNN
F 1 "TL431" H 5125 8750 50  0000 C CNN
F 2 "SOT23" H 5350 9150 10  0000 C CNN
F 3 "TL431BSDT,215" H 5275 9175 10  0000 C CNN
	1    5300 9000
	1    0    0    1   
$EndComp
Text Label 2325 8450 2    30   ~ 0
signal
Text Label 2150 7575 0    60   ~ 0
pinK
$Comp
L LM358 U103
U 2 1 5182CE86
P 7250 3600
F 0 "U103" H 7200 3800 60  0000 L CNN
F 1 "OPA2180" H 7300 3475 60  0000 L CNN
F 2 "" H 7250 3600 60  0000 C CNN
F 3 "OPA2180IDR" H 7200 3600 20  0000 C CNN
	2    7250 3600
	1    0    0    -1  
$EndComp
$Comp
L R-RESCUE-Handheld_board R107
U 1 1 5182CE98
P 8300 4100
F 0 "R107" V 8380 4100 50  0000 C CNN
F 1 "3.3K" V 8300 4100 50  0000 C CNN
F 2 "" H 8300 4100 60  0000 C CNN
F 3 "RC0805JR-073K3L" V 8300 4100 20  0000 C CNN
	1    8300 4100
	-1   0    0    -1  
$EndComp
$Comp
L C-RESCUE-Handheld_board C101
U 1 1 5182CEA4
P 7400 3200
F 0 "C101" H 7450 3300 50  0000 L CNN
F 1 "10u" H 7450 3100 50  0000 L CNN
F 2 "" H 7400 3200 60  0000 C CNN
F 3 "C0805C106M4PACTU" H 7400 3200 10  0000 C CNN
	1    7400 3200
	0    -1   1    0   
$EndComp
$Comp
L C-RESCUE-Handheld_board C108
U 1 1 5182CEAA
P 7600 4000
F 0 "C108" V 7550 4050 50  0000 L CNN
F 1 "68p" V 7550 3800 50  0000 L CNN
F 2 "" H 7600 4000 60  0000 C CNN
F 3 "CC0402JRNPO9BN680" H 7600 4000 10  0000 C CNN
	1    7600 4000
	0    1    -1   0   
$EndComp
$Comp
L LED-RESCUE-Handheld_board D104
U 1 1 5182DAE5
P 9000 4950
F 0 "D104" H 9000 5050 50  0000 C CNN
F 1 "SATA" V 8900 5100 30  0000 C CNN
F 2 "" V 9075 5300 60  0000 C CNN
F 3 "LXZ1-PA01" H 9000 4950 20  0000 C CNN
	1    9000 4950
	0    -1   1    0   
$EndComp
$Comp
L LED-RESCUE-Handheld_board D102
U 1 1 5182DAF2
P 8100 3600
F 0 "D102" H 8100 3700 50  0000 C CNN
F 1 "IRCALA" H 8100 3500 50  0000 C CNN
F 2 "" H 8100 3800 60  0000 C CNN
F 3 "SFH 4441" H 8100 3800 20  0000 C CNN
	1    8100 3600
	1    0    0    1   
$EndComp
Text Label 7900 3600 2    20   ~ 0
calibration_LED
Text Label 8450 5750 0    40   Italic 0
ACT_SAT_FB
Text Label 8450 6250 0    40   Italic 0
ACT_GND
$Comp
L LED-RESCUE-Handheld_board D101
U 1 1 5182E95A
P 3050 3700
F 0 "D101" H 3050 3800 50  0000 C CNN
F 1 "MEAS2A" H 3050 3600 50  0000 C CNN
F 2 "" V 3075 4000 60  0000 C CNN
F 3 "LXZ1-PM01" H 3050 3700 20  0000 C CNN
	1    3050 3700
	0    1    1    0   
$EndComp
$Comp
L R-RESCUE-Handheld_board R101
U 1 1 5182E98C
P 3400 3400
F 0 "R101" V 3480 3400 50  0000 C CNN
F 1 "2" V 3400 3400 50  0000 C CNN
F 2 "" H 3400 3400 60  0000 C CNN
F 3 "MCR25JZHJ2R0" V 3400 3400 20  0000 C CNN
	1    3400 3400
	0    -1   -1   0   
$EndComp
$Comp
L LED-RESCUE-Handheld_board D103
U 1 1 5182EBC9
P 3050 5250
F 0 "D103" H 3050 5350 50  0000 C CNN
F 1 "MEAS1A" H 3050 5150 50  0000 C CNN
F 2 "" V 3050 5575 60  0000 C CNN
F 3 "LXZ1-PL01" H 3050 5250 20  0000 C CNN
	1    3050 5250
	0    1    1    0   
$EndComp
$Comp
L R-RESCUE-Handheld_board R109
U 1 1 5182EBD5
P 3450 4900
F 0 "R109" V 3530 4900 50  0000 C CNN
F 1 "2" V 3450 4900 50  0000 C CNN
F 2 "" H 3450 4900 60  0000 C CNN
F 3 "MCR25JZHJ2R0" V 3450 4900 20  0000 C CNN
	1    3450 4900
	0    -1   -1   0   
$EndComp
$Comp
L R-RESCUE-Handheld_board R111
U 1 1 5183EE6F
P 3750 6200
F 0 "R111" V 3830 6200 50  0000 C CNN
F 1 "22" V 3750 6200 50  0000 C CNN
F 2 "" H 3750 6200 60  0000 C CNN
F 3 "RC0805JR-0722RL" V 3750 6200 20  0000 C CNN
	1    3750 6200
	0    -1   -1   0   
$EndComp
$Comp
L R-RESCUE-Handheld_board R106
U 1 1 5183EE8B
P 3750 4500
F 0 "R106" V 3830 4500 50  0000 C CNN
F 1 "22" V 3750 4500 50  0000 C CNN
F 2 "" H 3750 4500 60  0000 C CNN
F 3 "RC0805JR-0722RL" V 3750 4500 20  0000 C CNN
	1    3750 4500
	0    -1   -1   0   
$EndComp
$Comp
L INDUCTOR L105
U 1 1 51841C83
P 7950 1200
F 0 "L105" V 7900 1200 40  0000 C CNN
F 1 "10uH" V 8050 1200 40  0000 C CNN
F 2 "" H 7950 1200 60  0000 C CNN
F 3 "MLZ2012N100L" V 7950 1200 20  0000 C CNN
	1    7950 1200
	0    1    1    0   
$EndComp
NoConn ~ 16100 5325
$Comp
L PWR_FLAG #FLG01
U 1 1 51CC90EA
P 14600 750
F 0 "#FLG01" H 14600 845 30  0001 C CNN
F 1 "PWR_FLAG" H 14600 930 30  0000 C CNN
F 2 "" H 14600 750 60  0000 C CNN
F 3 "" H 14600 750 60  0000 C CNN
	1    14600 750 
	-1   0    0    -1  
$EndComp
$Comp
L DG4157DL-T1-E3 U102
U 1 1 51CCA405
P 6450 3500
F 0 "U102" H 6550 3400 30  0000 L CNN
F 1 "DG4157" H 6550 3600 30  0000 L CNN
F 2 "" H 6450 3500 60  0000 C CNN
F 3 "DG4157DL-T1-E3" H 6450 3500 20  0000 C CNN
	1    6450 3500
	-1   0    0    -1  
$EndComp
$Comp
L DG4157DL-T1-E3 U108
U 1 1 51CCBF2F
P 6850 5400
F 0 "U108" H 6950 5300 30  0000 L CNN
F 1 "DG4157" H 6700 5500 30  0000 L CNN
F 2 "" H 6850 5400 60  0000 C CNN
F 3 "DG4157DL-T1-E3" H 6800 5450 10  0000 C CNN
	1    6850 5400
	-1   0    0    -1  
$EndComp
$Comp
L TL1963 U109
U 1 1 51CDDD61
P 12450 1000
F 0 "U109" H 12850 1050 60  0000 C CNN
F 1 "TL1963" H 12450 1100 40  0000 C CNN
F 2 "" H 12450 1000 60  0000 C CNN
F 3 "TL1963ADCQR" H 12450 1000 10  0000 C CNN
	1    12450 1000
	1    0    0    -1  
$EndComp
$Comp
L R-RESCUE-Handheld_board R135
U 1 1 51CDE815
P 12900 1300
F 0 "R135" V 12980 1300 50  0000 C CNN
F 1 "2.7K" V 12900 1300 50  0000 C CNN
F 2 "" H 12900 1300 60  0000 C CNN
F 3 "RC0805JR-072K7L" V 12900 1300 10  0000 C CNN
	1    12900 1300
	0    1    -1   0   
$EndComp
$Comp
L R-RESCUE-Handheld_board R136
U 1 1 51CDE824
P 12900 1400
F 0 "R136" V 12825 1400 50  0000 C CNN
F 1 "1K" V 12900 1400 50  0000 C CNN
F 2 "" H 12900 1400 60  0000 C CNN
F 3 "RC0805JR-071KL" V 12900 1400 10  0000 C CNN
	1    12900 1400
	0    1    -1   0   
$EndComp
$Comp
L MOSN-TSOP6 Q103
U 1 1 51D461CD
P 3250 6200
F 0 "Q103" H 3500 6150 40  0000 C CNN
F 1 "MOSN" H 3600 6250 60  0000 C CNN
F 2 "" H 3550 6050 60  0000 C CNN
F 3 "IRLTS6342TRPBF" H 3350 6250 10  0000 C CNN
	1    3250 6200
	-1   0    0    -1  
$EndComp
$Comp
L MOSN-TSOP6 Q101
U 1 1 51D46788
P 3250 4500
F 0 "Q101" H 3500 4450 40  0000 C CNN
F 1 "MOSN" H 3600 4550 60  0000 C CNN
F 2 "" H 3550 4350 60  0000 C CNN
F 3 "IRLTS6342TRPBF" H 3350 4550 10  0000 C CNN
	1    3250 4500
	-1   0    0    -1  
$EndComp
$Comp
L MOSN-TSOP6 Q102
U 1 1 51D4652C
P 8900 5500
F 0 "Q102" H 9150 5450 40  0000 C CNN
F 1 "MOSN" H 9250 5550 40  0000 C CNN
F 2 "" H 9200 5350 60  0000 C CNN
F 3 "IRLTS6342TRPBF" H 8900 5500 20  0000 C CNN
	1    8900 5500
	1    0    0    -1  
$EndComp
$Comp
L HTU21D U111
U 1 1 51E06B99
P 15050 7075
F 0 "U111" H 15050 6825 60  0000 C CNN
F 1 "HTU21D" H 15050 7275 60  0000 C CNN
F 2 "DFN6" H 15050 7075 10  0000 C CNN
F 3 "HPP828E031" H 15050 6925 20  0000 C CNN
F 4 "9.653" H 15050 7075 60  0001 C CNN "Price10"
F 5 "6.864" H 15050 7075 60  0001 C CNN "Price100"
	1    15050 7075
	1    0    0    -1  
$EndComp
$Comp
L LMH6601 U105
U 1 1 51E446D8
P 3200 7475
F 0 "U105" H 3375 7675 50  0000 C CNN
F 1 "LMH6601" H 3500 7575 50  0000 C CNN
F 2 "" H 3200 7475 60  0000 C CNN
F 3 "LMH6601MG/NOPB" H 3200 7475 20  0000 C CNN
	1    3200 7475
	1    0    0    -1  
$EndComp
$Comp
L CO2S8 S101
U 1 1 51E459C6
P 14850 3350
F 0 "S101" H 14600 3100 60  0000 C CNN
F 1 "CO2_S8" H 14650 3650 60  0000 C CNN
F 2 "c116" H 14850 3350 60  0000 C CNN
F 3 "SE-0031" H 14900 3250 20  0000 C CNN
	1    14850 3350
	1    0    0    -1  
$EndComp
$Comp
L C-RESCUE-Handheld_board C123
U 1 1 51E80F92
P 4400 5600
F 0 "C123" H 4450 5700 50  0000 L CNN
F 1 "10u" H 4450 5500 50  0000 L CNN
F 2 "" H 4400 5600 60  0000 C CNN
F 3 "C0805C106M4PACTU" H 4400 5600 10  0000 C CNN
	1    4400 5600
	0    -1   -1   0   
$EndComp
$Comp
L LM5551 U104
U 1 1 521F678B
P 4400 6150
F 0 "U104" H 4400 5900 60  0000 C CNN
F 1 "LM5111" H 4400 6400 60  0000 C CNN
F 2 "~" H 4400 6150 60  0000 C CNN
F 3 "LM5111-2MY/NOPB" H 4400 6150 20  0000 C CNN
	1    4400 6150
	-1   0    0    1   
$EndComp
$Comp
L R-RESCUE-Handheld_board R114
U 1 1 517FDF22
P 2300 7825
F 0 "R114" V 2375 7925 30  0000 C CNN
F 1 "1K" V 2300 7825 50  0000 C CNN
F 2 "" H 2300 7825 60  0000 C CNN
F 3 "RC0402JR-071KL" V 2300 7825 10  0000 C CNN
	1    2300 7825
	-1   0    0    1   
$EndComp
$Comp
L C-RESCUE-Handheld_board C115
U 1 1 521F7EBE
P 2550 7575
F 0 "C115" V 2575 7625 30  0000 L CNN
F 1 "0.1u" V 2675 7500 30  0000 L CNN
F 2 "~" H 2588 7425 30  0000 C CNN
F 3 "C2012JB2A104K125AA" H 2550 7575 10  0000 C CNN
	1    2550 7575
	0    -1   -1   0   
$EndComp
Text Notes 14450 4000 0    60   ~ 0
Light sensor \nbottom of the board
$Comp
L R-RESCUE-Handheld_board R141
U 1 1 5220AA5F
P 5550 1600
F 0 "R141" V 5630 1600 40  0000 C CNN
F 1 "1K" V 5557 1601 40  0000 C CNN
F 2 "SM0805" V 5480 1600 10  0000 C CNN
F 3 "RC0805JR-071KL" V 5550 1600 20  0000 C CNN
F 4 "0.018" V 5550 1600 60  0001 C CNN "Price10"
F 5 "0.00326" V 5550 1600 60  0001 C CNN "Price1000"
	1    5550 1600
	-1   0    0    -1  
$EndComp
$Comp
L R-RESCUE-Handheld_board R142
U 1 1 5220AA6E
P 5400 1600
F 0 "R142" V 5480 1600 40  0000 C CNN
F 1 "3.3K" V 5407 1601 40  0000 C CNN
F 2 "~" V 5330 1600 30  0000 C CNN
F 3 "RC0805JR-073K3L" V 5400 1600 20  0000 C CNN
	1    5400 1600
	-1   0    0    -1  
$EndComp
$Comp
L R-RESCUE-Handheld_board R143
U 1 1 522F80E9
P 9200 5000
F 0 "R143" V 9280 5000 40  0000 C CNN
F 1 "2K" V 9207 5001 40  0000 C CNN
F 2 "SM0805" V 9130 5000 10  0000 C CNN
F 3 "RC0805JR-072KL" V 9200 5000 10  0000 C CNN
	1    9200 5000
	-1   0    0    -1  
$EndComp
$Comp
L TMP006 U113
U 1 1 522F8928
P 15125 8425
F 0 "U113" H 14925 8075 60  0000 C CNN
F 1 "TMP006" H 14875 8725 40  0000 C CNN
F 2 "BGA9" H 15125 8425 10  0000 C CNN
F 3 "TMP006AIYZFR" H 15125 8425 20  0000 C CNN
F 4 "3.93" H 15125 8425 60  0001 C CNN "Price10"
F 5 "1.6875" H 15125 8425 60  0001 C CNN "price1000"
F 6 "DNI" H 15125 8425 60  0001 C CNN "INstrall"
	1    15125 8425
	1    0    0    -1  
$EndComp
$Comp
L CONN_3 K102
U 1 1 523082DE
P 1100 1400
F 0 "K102" V 1050 1400 50  0000 C CNN
F 1 "PWR_CONN" V 1150 1400 40  0000 C CNN
F 2 "POWER IN" H 1475 1400 60  0000 C CNN
F 3 "PJ-028-SMT-TR" V 1100 1400 20  0000 C CNN
	1    1100 1400
	-1   0    0    -1  
$EndComp
$Comp
L PWR_FLAG #FLG02
U 1 1 524D892F
P 14350 750
F 0 "#FLG02" H 14350 845 30  0001 C CNN
F 1 "PWR_FLAG" H 14350 930 30  0000 C CNN
F 2 "" H 14350 750 60  0000 C CNN
F 3 "" H 14350 750 60  0000 C CNN
	1    14350 750 
	-1   0    0    -1  
$EndComp
$Comp
L TL1963 U112
U 1 1 521FAC6E
P 5200 1050
F 0 "U112" H 5200 1250 60  0000 C CNN
F 1 "TL1963" H 5200 1150 60  0000 C CNN
F 2 "" H 5200 1050 60  0000 C CNN
F 3 "TL1963ADCQR" H 5200 1050 20  0000 C CNN
	1    5200 1050
	1    0    0    -1  
$EndComp
$Comp
L TCS3471 U110
U 1 1 521F87A5
P 14950 4400
F 0 "U110" H 14800 4050 60  0000 C CNN
F 1 "TCS34715FN" H 14950 4750 60  0000 C CNN
F 2 "TCS3472-Wide-solderable" H 14950 4400 10  0000 C CNN
F 3 "TCS34715FN" H 14950 4300 20  0000 C CNN
F 4 "2.3760" H 14950 4400 60  0001 C CNN "Price10"
F 5 "1.2672" H 14950 4400 60  0001 C CNN "Price1000"
	1    14950 4400
	1    0    0    -1  
$EndComp
$Comp
L C-RESCUE-Handheld_board C136
U 1 1 525D9719
P 5100 1550
F 0 "C136" H 5100 1625 50  0000 L CNN
F 1 "10u" H 5100 1450 50  0000 L CNN
F 2 "" H 5100 1550 60  0000 C CNN
F 3 "C0805C106M4PACTU" H 5100 1550 20  0000 C CNN
	1    5100 1550
	-1   0    0    -1  
$EndComp
$Comp
L CONN_16 P2
U 1 1 5304E389
P 10550 7250
F 0 "P2" V 10500 7650 60  0000 C CNN
F 1 "CONN_16" V 10600 7250 60  0000 C CNN
F 2 "~" H 10550 7250 60  0000 C CNN
F 3 "HFW16R-1STE1LF" V 10500 7250 20  0000 C CNN
	1    10550 7250
	1    0    0    -1  
$EndComp
$Comp
L R-RESCUE-Handheld_board R144
U 1 1 523CA8E2
P 15425 8825
F 0 "R144" V 15500 8850 40  0000 C CNN
F 1 "10K" V 15432 8826 40  0000 C CNN
F 2 "SM0805" V 15355 8825 10  0000 C CNN
F 3 "RC0805JR-0710KL" V 15425 8825 20  0000 C CNN
F 4 "0.018" V 15425 8825 60  0001 C CNN "Price10"
F 5 "0.00326" V 15425 8825 60  0001 C CNN "Price1000"
	1    15425 8825
	0    -1   -1   0   
$EndComp
$Comp
L C-RESCUE-Handheld_board C1
U 1 1 52D49BEC
P 15325 8025
F 0 "C1" V 15375 8100 50  0000 L CNN
F 1 "10u" V 15375 7850 50  0000 L CNN
F 2 "SM0805" H 15325 8025 10  0000 C CNN
F 3 "C0805C106M4PACTU" H 15325 8025 10  0000 C CNN
F 4 "0.24" V 15325 8025 60  0001 C CNN "Price10"
F 5 "0.0705" V 15325 8025 60  0001 C CNN "Price1000"
	1    15325 8025
	0    -1   -1   0   
$EndComp
$Comp
L R-RESCUE-Handheld_board R1
U 1 1 5305270E
P 8050 3400
F 0 "R1" V 8130 3400 50  0000 C CNN
F 1 "10K" V 8050 3400 50  0000 C CNN
F 2 "" H 8050 3400 60  0000 C CNN
F 3 "RC0805JR-0710KL" V 8050 3400 20  0000 C CNN
	1    8050 3400
	0    1    -1   0   
$EndComp
$Comp
L LMH6601 U115
U 1 1 53113170
P 2525 8825
F 0 "U115" H 2675 9125 70  0000 C CNN
F 1 "LMH6601" H 2675 9025 70  0000 C CNN
F 2 "SC70" H 2525 8825 10  0000 C CNN
F 3 "LMH6601MG/NOPB" H 2525 8825 20  0000 C CNN
F 4 "1.607" H 2525 8825 60  0001 C CNN "price10"
F 5 "0.6975" H 2525 8825 60  0001 C CNN "price1000"
	1    2525 8825
	1    0    0    -1  
$EndComp
$Comp
L DIODE D107
U 1 1 531150A6
P 3575 7925
F 0 "D107" H 3575 8000 40  0000 C CNN
F 1 "DIODE" H 3450 7950 30  0000 C CNN
F 2 "sod323" H 3660 7915 10  0000 C CNN
F 3 "1N4148WS" H 3670 7935 10  0000 C CNN
	1    3575 7925
	-1   0    0    1   
$EndComp
$Comp
L DIODE D106
U 1 1 531150B3
P 3375 7800
F 0 "D106" H 3375 7875 40  0000 C CNN
F 1 "DIODE" H 3500 7825 30  0000 C CNN
F 2 "sod323" H 3290 7810 10  0000 C CNN
F 3 "1N4148WS" H 3280 7785 10  0000 C CNN
	1    3375 7800
	1    0    0    -1  
$EndComp
$Comp
L SPST_SW_ADG701 U116
U 1 1 531150E9
P 3150 8225
F 0 "U116" H 3250 8125 30  0000 L CNN
F 1 "SPST" H 3175 8300 30  0000 L CNN
F 2 "~" H 3150 8225 60  0000 C CNN
F 3 "ADG701BRTZ-REEL7" H 3150 8250 10  0000 C CNN
	1    3150 8225
	1    0    0    -1  
$EndComp
$Comp
L C-RESCUE-Handheld_board C134
U 1 1 5311963A
P 2975 8925
F 0 "C134" H 2900 9000 30  0000 L CNN
F 1 "10u" H 2875 8850 30  0000 L CNN
F 2 "" H 2975 8925 60  0000 C CNN
F 3 "C0805C106M4PACTU" H 2975 8925 10  0000 C CNN
	1    2975 8925
	-1   0    0    1   
$EndComp
$Comp
L PWR_FLAG #FLG03
U 1 1 5311CC9A
P 8300 1200
F 0 "#FLG03" H 8300 1295 30  0001 C CNN
F 1 "PWR_FLAG" H 8300 1380 30  0000 C CNN
F 2 "" H 8300 1200 60  0000 C CNN
F 3 "" H 8300 1200 60  0000 C CNN
	1    8300 1200
	-1   0    0    -1  
$EndComp
$Comp
L TSV911 U114
U 1 1 5311F474
P 8400 1850
F 0 "U114" H 8350 1950 40  0000 L CNN
F 1 "TSV911" H 8350 1750 30  0000 L CNN
F 2 "sot23-6" H 8300 1850 10  0000 C CNN
F 3 "TSV911ILT" H 8400 1850 10  0000 C CNN
	1    8400 1850
	1    0    0    -1  
$EndComp
$Comp
L LED-RESCUE-Handheld_board D108
U 1 1 53322A27
P 5700 1550
F 0 "D108" V 5750 1700 50  0000 C CNN
F 1 "pwr_LED" V 5850 1750 50  0000 C CNN
F 2 "0603" H 5625 1575 10  0000 C CNN
F 3 "LTST-S270KGKT" H 5825 1575 10  0000 C CNN
	1    5700 1550
	0    1    1    0   
$EndComp
$Comp
L R-RESCUE-Handheld_board R149
U 1 1 53322FD6
P 5800 1950
F 0 "R149" V 5880 1950 50  0000 C CNN
F 1 "3.3K" V 5800 1950 50  0000 C CNN
F 2 "" H 5800 1950 60  0000 C CNN
F 3 "RC0402JR-073K3L" V 5800 1950 10  0000 C CNN
	1    5800 1950
	0    1    1    0   
$EndComp
Text Label 3050 4900 0    10   ~ 0
MEAS1A+
Text Label 3050 3400 0    10   ~ 0
MEAS2A+
$Comp
L MCP4728 U7
U 1 1 5342CE99
P 14850 2250
F 0 "U7" H 14550 2550 40  0000 C CNN
F 1 "MCP4728" H 15150 2550 40  0000 C CNN
F 2 "MSOP10-0.5" H 14850 2300 10  0000 C CIN
F 3 "MCP4728A0-E/UN" H 14850 2250 10  0000 C CNN
F 4 "1.89" H 14850 2250 60  0001 C CNN "price10"
F 5 "1.44" H 14850 2250 60  0001 C CNN "price100"
	1    14850 2250
	1    0    0    -1  
$EndComp
Text GLabel 1350 950  0    60   Input ~ 0
+Vbatt
Text GLabel 5900 1250 2    60   Output ~ 0
+5v
$Comp
L GND-RESCUE-Handheld_board #PWR04
U 1 1 53444F4A
P 5200 2100
F 0 "#PWR04" H 5200 2100 30  0001 C CNN
F 1 "GND" H 5200 2030 30  0001 C CNN
F 2 "" H 5200 2100 60  0000 C CNN
F 3 "" H 5200 2100 60  0000 C CNN
	1    5200 2100
	-1   0    0    -1  
$EndComp
Text Notes 5550 700  2    60   ~ 0
Main input regulator&auto power off&pushbutton on/off
Text Notes 2900 3200 0    60   ~ 0
Measurement lights
Text GLabel 2450 5600 0    60   Input ~ 0
+5V
Text GLabel 4950 6000 2    60   Input ~ 0
Umeas2
Text GLabel 4950 6200 2    60   Input ~ 0
Umeas1
Text GLabel 9900 1200 2    60   Output ~ 0
+V_meas_regulated
Text GLabel 7550 1200 0    60   Input ~ 0
+5V
Text Notes 8900 850  2    40   ~ 0
Measurement pulse\nadjustable power regulator
Text GLabel 10150 8100 0    40   Input ~ 0
HOLD
Text GLabel 7950 1800 0    60   Input ~ 0
Meas intensity
Text GLabel 4100 3400 2    60   Output ~ 0
+V_meas_regulated
Text GLabel 10650 4000 0    40   Output ~ 0
HOLD
Text GLabel 11800 3500 2    40   Output ~ 0
3.3Vdd
Text GLabel 11050 4900 3    40   Input ~ 0
Aref
Text GLabel 11150 4900 3    40   Input ~ 0
Ain10
Text GLabel 3900 8825 2    40   Output ~ 0
Ain10
Text GLabel 3900 7175 2    40   Input ~ 0
DetVcc
$Comp
L AGND #PWR1
U 1 1 5345313D
P 2975 9200
F 0 "#PWR1" H 2975 9200 40  0001 C CNN
F 1 "AGND" H 2975 9130 50  0000 C CNN
F 2 "" H 2975 9200 60  0000 C CNN
F 3 "" H 2975 9200 60  0000 C CNN
	1    2975 9200
	1    0    0    -1  
$EndComp
Text GLabel 3900 8675 2    40   Input ~ 0
HOLD
Text Notes 3125 7100 0    60   ~ 0
Detector
$Comp
L AGND #PWR5
U 1 1 53453B1A
P 5650 9450
F 0 "#PWR5" H 5650 9450 40  0001 C CNN
F 1 "AGND" H 5650 9380 50  0000 C CNN
F 2 "" H 5650 9450 60  0000 C CNN
F 3 "" H 5650 9450 60  0000 C CNN
	1    5650 9450
	1    0    0    -1  
$EndComp
Text GLabel 5150 8000 0    40   Input ~ 0
DetVcc
Text Notes 5350 7900 0    40   ~ 0
Vref\nDetector ADC 
$Comp
L GND-RESCUE-Handheld_board #PWR05
U 1 1 53458E3B
P 14600 4850
F 0 "#PWR05" H 14600 4850 30  0001 C CNN
F 1 "GND" H 14600 4780 30  0001 C CNN
F 2 "" H 14600 4850 60  0000 C CNN
F 3 "" H 14600 4850 60  0000 C CNN
	1    14600 4850
	-1   0    0    -1  
$EndComp
$Comp
L GND-RESCUE-Handheld_board #PWR06
U 1 1 53458E41
P 14300 3650
F 0 "#PWR06" H 14300 3650 30  0001 C CNN
F 1 "GND" H 14300 3580 30  0001 C CNN
F 2 "" H 14300 3650 60  0000 C CNN
F 3 "" H 14300 3650 60  0000 C CNN
	1    14300 3650
	-1   0    0    -1  
$EndComp
$Comp
L GND-RESCUE-Handheld_board #PWR07
U 1 1 53458E47
P 14850 7575
F 0 "#PWR07" H 14850 7575 30  0001 C CNN
F 1 "GND" H 14850 7505 30  0001 C CNN
F 2 "" H 14850 7575 60  0000 C CNN
F 3 "" H 14850 7575 60  0000 C CNN
	1    14850 7575
	-1   0    0    -1  
$EndComp
Text GLabel 15750 8525 2    40   BiDi ~ 0
SDA
Text GLabel 15750 8425 2    40   Input ~ 0
SCL
Text GLabel 15750 8325 2    40   Input ~ 0
3.3Vdd
$Comp
L GND-RESCUE-Handheld_board #PWR08
U 1 1 5345A7FE
P 14600 8450
F 0 "#PWR08" H 14600 8450 30  0001 C CNN
F 1 "GND" H 14600 8380 30  0001 C CNN
F 2 "" H 14600 8450 60  0000 C CNN
F 3 "" H 14600 8450 60  0000 C CNN
	1    14600 8450
	-1   0    0    -1  
$EndComp
Text Notes 14600 8000 0    40   ~ 0
IR temperature
Text GLabel 14725 7175 0    40   BiDi ~ 0
SDA
Text GLabel 15375 7175 2    40   Input ~ 0
SCL
Text GLabel 15375 7075 2    40   Input ~ 0
3.3Vdd
Text Notes 14600 6800 0    40   ~ 0
Temperature&Humidity\n
Text GLabel 15400 2100 2    40   Output ~ 0
actinic_preset1
Text GLabel 15400 2200 2    40   Output ~ 0
actinic_preset2
Text GLabel 15400 2300 2    40   Output ~ 0
IR_CAL
Text GLabel 15400 2400 2    40   Output ~ 0
Meas intensity
Text GLabel 13650 2400 0    40   Output ~ 0
~LDAC
Text Notes 14900 1800 0    40   ~ 0
ACTINIC DAC
Text GLabel 15400 2000 2    40   Output ~ 0
+5V
$Comp
L GND-RESCUE-Handheld_board #PWR09
U 1 1 53460465
P 7600 3350
F 0 "#PWR09" H 7600 3350 30  0001 C CNN
F 1 "GND" H 7600 3280 30  0001 C CNN
F 2 "" H 7600 3350 60  0000 C CNN
F 3 "" H 7600 3350 60  0000 C CNN
	1    7600 3350
	1    0    0    -1  
$EndComp
Text GLabel 6050 3900 0    40   Input ~ 0
IR CAL toggle
Text GLabel 6050 3450 0    40   Input ~ 0
IR_CAL
Text GLabel 6050 3200 0    40   Input ~ 0
+5V
$Comp
L GND-RESCUE-Handheld_board #PWR010
U 1 1 534616A2
P 7150 4450
F 0 "#PWR010" H 7150 4450 30  0001 C CNN
F 1 "GND" H 7150 4380 30  0001 C CNN
F 2 "" H 7150 4450 60  0000 C CNN
F 3 "" H 7150 4450 60  0000 C CNN
	1    7150 4450
	1    0    0    -1  
$EndComp
Text Notes 6250 3150 0    40   ~ 0
Calibration/measurement light
Text GLabel 5150 8600 0    40   Input ~ 0
Aref
$Comp
L DG4157DL-T1-E3 U107
U 1 1 51CCB591
P 6400 5350
F 0 "U107" H 6500 5250 30  0000 L CNN
F 1 "DG4157" H 6500 5450 30  0000 L CNN
F 2 "" H 6400 5350 60  0000 C CNN
F 3 "DG4157DL-T1-E3" H 6350 5400 10  0000 C CNN
	1    6400 5350
	-1   0    0    -1  
$EndComp
Text GLabel 10150 6600 0    40   BiDi ~ 0
IRCALB_PIN10
Text GLabel 10150 6700 0    40   BiDi ~ 0
IR_CAL
Text GLabel 10150 6800 0    40   Input ~ 0
preselected ACT
Text GLabel 10150 6900 0    40   Input ~ 0
ACTB_PIN2
Text GLabel 10150 7000 0    40   Input ~ 0
MEASB_PIN11
Text GLabel 10150 7100 0    40   Input ~ 0
MEAS2B_PIN12
Text GLabel 10150 7200 0    40   Input ~ 0
+5V
$Comp
L GND-RESCUE-Handheld_board #PWR011
U 1 1 53466CD0
P 9400 7350
F 0 "#PWR011" H 9400 7350 30  0001 C CNN
F 1 "GND" H 9400 7280 30  0001 C CNN
F 2 "" H 9400 7350 60  0000 C CNN
F 3 "" H 9400 7350 60  0000 C CNN
	1    9400 7350
	1    0    0    -1  
$EndComp
Text GLabel 10150 8000 0    40   Input ~ 0
DetVcc
Text GLabel 10150 7900 0    40   Input ~ 0
DETB_A11_ADDON
$Comp
L AGND #PWR14
U 1 1 53466E95
P 9500 7850
F 0 "#PWR14" H 9500 7850 40  0001 C CNN
F 1 "AGND" H 9500 7780 50  0000 C CNN
F 2 "" H 9500 7850 60  0000 C CNN
F 3 "" H 9500 7850 60  0000 C CNN
	1    9500 7850
	1    0    0    -1  
$EndComp
Text GLabel 11550 1200 0    60   Input ~ 0
sleep
Text GLabel 11550 1350 0    60   Input ~ 0
+5V
Text GLabel 13250 1300 2    40   Output ~ 0
DetVcc
Text GLabel 15350 4200 2    40   Input ~ 0
SDA
Text GLabel 14550 4400 0    40   Input ~ 0
SCL
Text GLabel 14550 4200 0    40   Input ~ 0
3.3Vdd
NoConn ~ 14350 3450
NoConn ~ 14350 3350
NoConn ~ 15350 3150
NoConn ~ 15350 3450
Text GLabel 14300 3150 0    40   Input ~ 0
+5v
Text GLabel 10650 4100 0    40   BiDi ~ 0
Rxd_CO2
Text GLabel 10650 4200 0    40   BiDi ~ 0
Txd_CO2
Text GLabel 15450 3350 2    40   BiDi ~ 0
Rxd_CO2
Text GLabel 15450 3250 2    40   BiDi ~ 0
Txd_CO2
Text GLabel 6050 5600 0    40   Input ~ 0
toggle act1/act2
Text GLabel 6050 5700 0    40   Input ~ 0
toggle act ON/OFF
Text GLabel 6050 5300 0    40   Input ~ 0
actinic_preset1
Text GLabel 6050 5400 0    40   Input ~ 0
actinic_preset2
$Comp
L GND-RESCUE-Handheld_board #PWR012
U 1 1 5346DB3A
P 9000 6400
F 0 "#PWR012" H 9000 6400 30  0001 C CNN
F 1 "GND" H 9000 6330 30  0001 C CNN
F 2 "" H 9000 6400 60  0000 C CNN
F 3 "" H 9000 6400 60  0000 C CNN
	1    9000 6400
	1    0    0    -1  
$EndComp
$Comp
L GND-RESCUE-Handheld_board #PWR013
U 1 1 5346E035
P 7850 5150
F 0 "#PWR013" H 7850 5150 30  0001 C CNN
F 1 "GND" H 7850 5080 30  0001 C CNN
F 2 "" H 7850 5150 60  0000 C CNN
F 3 "" H 7850 5150 60  0000 C CNN
	1    7850 5150
	1    0    0    -1  
$EndComp
Text Notes 6950 5050 0    40   ~ 0
ACTinic Circuit
$Comp
L GND-RESCUE-Handheld_board #PWR014
U 1 1 5346E97E
P 10250 3350
F 0 "#PWR014" H 10250 3350 30  0001 C CNN
F 1 "GND" H 10250 3280 30  0001 C CNN
F 2 "" H 10250 3350 60  0000 C CNN
F 3 "" H 10250 3350 60  0000 C CNN
	1    10250 3350
	-1   0    0    -1  
$EndComp
Text Notes 12200 850  0    40   ~ 0
Detector regulator
Text GLabel 11800 4300 2    40   Output ~ 0
Umeas2
Text GLabel 11800 4400 2    40   Output ~ 0
Umeas1
Text GLabel 11800 4100 2    40   BiDi ~ 0
SDA
Text GLabel 11800 4000 2    40   Output ~ 0
SCL
Text GLabel 11800 3300 2    40   Input ~ 0
+5v
Text GLabel 11800 3800 2    40   Output ~ 0
AUTO POWER OFF
$Comp
L AGND #PWR18
U 1 1 534711F7
P 12200 3450
F 0 "#PWR18" H 12200 3450 40  0001 C CNN
F 1 "AGND" H 12200 3380 50  0000 C CNN
F 2 "" H 12200 3450 60  0000 C CNN
F 3 "" H 12200 3450 60  0000 C CNN
	1    12200 3450
	1    0    0    -1  
$EndComp
Text GLabel 11800 3700 2    40   Output ~ 0
sleep
NoConn ~ 4700 6300
NoConn ~ 4100 6300
Text GLabel 14600 850  3    40   Input ~ 0
DetVcc
Text GLabel 6050 5000 0    60   Input ~ 0
+5v
Text GLabel 10650 3900 0    40   Output ~ 0
toggle act1/act2
Text GLabel 11800 3900 2    40   Output ~ 0
toggle act ON/OFF
Text GLabel 14850 850  3    40   Input ~ 0
+5V
$Comp
L PWR_FLAG #FLG015
U 1 1 53474327
P 14850 750
F 0 "#FLG015" H 14850 845 30  0001 C CNN
F 1 "PWR_FLAG" H 14850 930 30  0000 C CNN
F 2 "" H 14850 750 60  0000 C CNN
F 3 "" H 14850 750 60  0000 C CNN
	1    14850 750 
	-1   0    0    -1  
$EndComp
Text GLabel 11800 4500 2    40   Output ~ 0
IR CAL toggle
Text GLabel 9450 5250 2    40   Output ~ 0
ACTC-
Text GLabel 10650 3600 0    40   Output ~ 0
ACTB_PIN2
Text Notes 14300 2950 0    60   ~ 0
CO2 concentration sensor
$Comp
L GND-RESCUE-Handheld_board #PWR016
U 1 1 5345A8BB
P 14350 850
F 0 "#PWR016" H 14350 850 30  0001 C CNN
F 1 "GND" H 14350 780 30  0001 C CNN
F 2 "" H 14350 850 60  0000 C CNN
F 3 "" H 14350 850 60  0000 C CNN
	1    14350 850 
	-1   0    0    -1  
$EndComp
$Comp
L PWR_FLAG #FLG017
U 1 1 5345AD55
P 7200 4900
F 0 "#FLG017" H 7200 4995 30  0001 C CNN
F 1 "PWR_FLAG" H 7200 5080 30  0000 C CNN
F 2 "" H 7200 4900 60  0000 C CNN
F 3 "" H 7200 4900 60  0000 C CNN
	1    7200 4900
	-1   0    0    -1  
$EndComp
$Comp
L CONN_1 P3
U 1 1 5345B469
P 10400 3200
F 0 "P3" H 10480 3200 40  0000 L CNN
F 1 "CONN_1" H 10400 3255 30  0001 C CNN
F 2 "~" H 10400 3200 60  0000 C CNN
F 3 "~" H 10400 3200 60  0000 C CNN
	1    10400 3200
	-1   0    0    1   
$EndComp
$Comp
L CONN_1 P1
U 1 1 5345B46F
P 10400 3100
F 0 "P1" H 10480 3100 40  0000 L CNN
F 1 "CONN_1" H 10400 3155 30  0001 C CNN
F 2 "~" H 10400 3100 60  0000 C CNN
F 3 "~" H 10400 3100 60  0000 C CNN
	1    10400 3100
	-1   0    0    1   
$EndComp
Text GLabel 10650 3400 0    40   Output ~ 0
TXd_BT
Text GLabel 10650 3500 0    40   Output ~ 0
RXd_BT
$Comp
L BU4S11G2-TR U8
U 1 1 5356D025
P 3350 1250
F 0 "U8" H 3450 1300 40  0000 C CNN
F 1 "BU4S11G2-TR" H 3350 1250 30  0000 C CNN
F 2 "SSOP5" H 3250 1150 10  0000 C CNN
F 3 "" H 3350 1250 60  0000 C CNN
	1    3350 1250
	1    0    0    -1  
$EndComp
$Comp
L R-RESCUE-Handheld_board R6
U 1 1 5356EB80
P 4100 1550
F 0 "R6" V 4180 1550 40  0000 C CNN
F 1 "100K" V 4107 1551 40  0000 C CNN
F 2 "SM0805" V 4075 1450 10  0000 C CNN
F 3 "~" H 4100 1550 30  0000 C CNN
	1    4100 1550
	0    -1   -1   0   
$EndComp
$Comp
L R-RESCUE-Handheld_board R5
U 1 1 5356EB92
P 3450 850
F 0 "R5" V 3530 850 40  0000 C CNN
F 1 "100K" V 3457 851 40  0000 C CNN
F 2 "~" V 3380 850 30  0000 C CNN
F 3 "~" H 3450 850 30  0000 C CNN
	1    3450 850 
	0    -1   -1   0   
$EndComp
$Comp
L C-RESCUE-Handheld_board C5
U 1 1 5356F1FC
P 2300 1600
F 0 "C5" V 2350 1700 40  0000 L CNN
F 1 "0.1u" V 2350 1400 40  0000 L CNN
F 2 "SM0805" V 2275 1525 10  0000 C CNN
F 3 "~" H 2300 1600 60  0000 C CNN
	1    2300 1600
	0    -1   -1   0   
$EndComp
$Comp
L C-RESCUE-Handheld_board C4
U 1 1 5356F209
P 1650 1550
F 0 "C4" H 1650 1650 40  0000 L CNN
F 1 "1u" H 1656 1465 40  0000 L CNN
F 2 "~" H 1688 1400 30  0000 C CNN
F 3 "~" H 1650 1550 60  0000 C CNN
	1    1650 1550
	1    0    0    -1  
$EndComp
$Comp
L C-RESCUE-Handheld_board C6
U 1 1 5356F20F
P 2550 1200
F 0 "C6" V 2600 1300 40  0000 L CNN
F 1 "0.1u" V 2600 1000 40  0000 L CNN
F 2 "SM0805" V 2525 1125 10  0000 C CNN
F 3 "~" H 2550 1200 60  0000 C CNN
	1    2550 1200
	0    -1   -1   0   
$EndComp
$Comp
L C-RESCUE-Handheld_board C7
U 1 1 5356F215
P 3050 1750
F 0 "C7" H 3050 1850 40  0000 L CNN
F 1 "10n" H 3056 1665 40  0000 L CNN
F 2 "SM0805" H 3000 1700 10  0000 C CNN
F 3 "CL21B103KBANNNC" H 3050 1750 10  0000 C CNN
	1    3050 1750
	-1   0    0    1   
$EndComp
$Comp
L R-RESCUE-Handheld_board R3
U 1 1 5356F21D
P 2250 1750
F 0 "R3" V 2150 1750 40  0000 C CNN
F 1 "100K" V 2257 1751 40  0000 C CNN
F 2 "SM0805" V 2225 1650 10  0000 C CNN
F 3 "~" H 2250 1750 30  0000 C CNN
	1    2250 1750
	0    -1   -1   0   
$EndComp
$Comp
L R-RESCUE-Handheld_board R4
U 1 1 5356F22A
P 2600 1350
F 0 "R4" V 2680 1350 40  0000 C CNN
F 1 "100K" V 2607 1351 40  0000 C CNN
F 2 "SM0805" V 2575 1250 10  0000 C CNN
F 3 "~" H 2600 1350 30  0000 C CNN
	1    2600 1350
	0    -1   -1   0   
$EndComp
$Comp
L SW_PUSH SW101
U 1 1 5356F232
P 2000 1350
F 0 "SW101" H 2150 1460 50  0000 C CNN
F 1 "SW_PUSH" H 2000 1270 50  0000 C CNN
F 2 "~" H 2000 1350 60  0000 C CNN
F 3 "~" H 2000 1350 60  0000 C CNN
	1    2000 1350
	1    0    0    -1  
$EndComp
Text GLabel 1400 1850 0    60   Input ~ 0
AUTO POWER OFF
Text GLabel 15100 850  3    60   Input ~ 0
+Vbatt
$Comp
L PWR_FLAG #FLG018
U 1 1 5357D5C3
P 15100 750
F 0 "#FLG018" H 15100 845 30  0001 C CNN
F 1 "PWR_FLAG" H 15100 930 30  0000 C CNN
F 2 "" H 15100 750 60  0000 C CNN
F 3 "" H 15100 750 60  0000 C CNN
	1    15100 750 
	-1   0    0    -1  
$EndComp
Text GLabel 11800 3600 2    40   Output ~ 0
~LDAC
Text GLabel 10650 4400 0    40   Output ~ 0
IRCALB_PIN10
Text GLabel 10650 4600 0    40   Output ~ 0
MEAS2B_PIN12
Text GLabel 10650 4500 0    40   Output ~ 0
MEASB_PIN11
$Comp
L BU4S11G2-TR U5
U 1 1 53580D2C
P 4000 1250
F 0 "U5" H 4100 1300 40  0000 C CNN
F 1 "BU4S11G2-TR" H 4000 1250 30  0000 C CNN
F 2 "SSOP5" H 3900 1150 10  0000 C CNN
F 3 "" H 4000 1250 60  0000 C CNN
	1    4000 1250
	1    0    0    -1  
$EndComp
Text GLabel 11800 4200 2    40   Output ~ 0
Vbatt_meas
Text GLabel 5900 1450 2    40   Output ~ 0
Vbatt_meas
$Comp
L R-RESCUE-Handheld_board R8
U 1 1 5358156D
P 4850 1600
F 0 "R8" H 4900 1425 40  0000 C CNN
F 1 "10M" V 4857 1601 40  0000 C CNN
F 2 "SM0805" V 4825 1500 10  0000 C CNN
F 3 "~" H 4850 1600 30  0000 C CNN
	1    4850 1600
	-1   0    0    1   
$EndComp
$Comp
L R-RESCUE-Handheld_board R7
U 1 1 53581573
P 4650 1600
F 0 "R7" H 4700 1425 40  0000 C CNN
F 1 "1M" V 4657 1601 40  0000 C CNN
F 2 "SM0805" V 4625 1500 10  0000 C CNN
F 3 "~" H 4650 1600 30  0000 C CNN
	1    4650 1600
	-1   0    0    1   
$EndComp
$Comp
L C-RESCUE-Handheld_board C3
U 1 1 53582099
P 4500 1550
F 0 "C3" H 4525 1475 30  0000 L CNN
F 1 "1n" H 4450 1475 30  0000 L CNN
F 2 "" H 4500 1550 60  0000 C CNN
F 3 "CL21B822KBANNNC" H 4500 1550 10  0000 C CNN
	1    4500 1550
	-1   0    0    1   
$EndComp
Text GLabel 13650 2200 0    40   BiDi ~ 0
SDA
Text GLabel 13650 2100 0    40   Input ~ 0
SCL
$Comp
L AGND #PWR17
U 1 1 53592DBF
P 12150 1800
F 0 "#PWR17" H 12150 1800 40  0001 C CNN
F 1 "AGND" H 12150 1730 50  0000 C CNN
F 2 "" H 12150 1800 60  0000 C CNN
F 3 "" H 12150 1800 60  0000 C CNN
	1    12150 1800
	1    0    0    -1  
$EndComp
Text Label 7050 5400 0    10   ~ 0
actinic_switched
Text GLabel 10150 7400 0    40   Input ~ 0
+V_meas_regulated
Text GLabel 6050 5200 0    40   Output ~ 0
preselected ACT
$Comp
L CONN_1 P5
U 1 1 5359705C
P 10400 3700
F 0 "P5" H 10480 3700 40  0000 L CNN
F 1 "CONN_1" H 10400 3755 30  0001 C CNN
F 2 "~" H 10400 3700 60  0000 C CNN
F 3 "~" H 10400 3700 60  0000 C CNN
	1    10400 3700
	-1   0    0    1   
$EndComp
$Comp
L CONN_1 P7
U 1 1 53597062
P 10400 3800
F 0 "P7" H 10480 3800 40  0000 L CNN
F 1 "CONN_1" H 10400 3855 30  0001 C CNN
F 2 "~" H 10400 3800 60  0000 C CNN
F 3 "~" H 10400 3800 60  0000 C CNN
	1    10400 3800
	-1   0    0    1   
$EndComp
$Comp
L CONN_1 P8
U 1 1 53597068
P 10400 4300
F 0 "P8" H 10480 4300 40  0000 L CNN
F 1 "CONN_1" H 10400 4355 30  0001 C CNN
F 2 "~" H 10400 4300 60  0000 C CNN
F 3 "~" H 10400 4300 60  0000 C CNN
	1    10400 4300
	-1   0    0    1   
$EndComp
$Comp
L TEENSY3.1 U6
U 1 1 5343FED9
P 11250 3950
F 0 "U6" H 11250 3900 60  0000 C CNN
F 1 "TEENSY3.1" H 11250 4000 60  0000 C CNN
F 2 "~" H 11250 3950 60  0000 C CNN
F 3 "~" H 11250 3950 60  0000 C CNN
	1    11250 3950
	1    0    0    -1  
$EndComp
$Comp
L CONN_1 P9
U 1 1 53597C27
P 13550 2000
F 0 "P9" H 13630 2000 40  0000 L CNN
F 1 "CONN_1" H 13550 2055 30  0001 C CNN
F 2 "~" H 13550 2000 60  0000 C CNN
F 3 "~" H 13550 2000 60  0000 C CNN
	1    13550 2000
	-1   0    0    1   
$EndComp
$Comp
L CONN_1 P10
U 1 1 53597C2D
P 13550 2300
F 0 "P10" H 13630 2300 40  0000 L CNN
F 1 "CONN_1" H 13550 2355 30  0001 C CNN
F 2 "~" H 13550 2300 60  0000 C CNN
F 3 "~" H 13550 2300 60  0000 C CNN
	1    13550 2300
	-1   0    0    1   
$EndComp
$Comp
L NPN_BCE Q105
U 1 1 5361317B
P 2800 1750
F 0 "Q105" H 2650 1700 50  0000 C CNN
F 1 "NPN_BCE" H 2700 1900 40  0000 C CNN
F 2 "~" H 2800 1750 60  0000 C CNN
F 3 "~" H 2800 1750 60  0000 C CNN
	1    2800 1750
	1    0    0    -1  
$EndComp
NoConn ~ 14350 2400
NoConn ~ 15350 3550
NoConn ~ 11750 4600
$Comp
L CONN_1 P13
U 1 1 53890C24
P 11950 3150
F 0 "P13" H 12030 3150 40  0000 L CNN
F 1 "CONN_1" H 11950 3205 30  0001 C CNN
F 2 "~" H 11950 3150 60  0000 C CNN
F 3 "~" H 11950 3150 60  0000 C CNN
	1    11950 3150
	1    0    0    -1  
$EndComp
$Comp
L CONN_1 P12
U 1 1 5389107C
P 11950 3050
F 0 "P12" H 12030 3050 40  0000 L CNN
F 1 "CONN_1" H 11950 3105 30  0001 C CNN
F 2 "~" H 11950 3050 60  0000 C CNN
F 3 "~" H 11950 3050 60  0000 C CNN
	1    11950 3050
	1    0    0    -1  
$EndComp
$Comp
L CONN_1 P11
U 1 1 538912B0
P 10400 3000
F 0 "P11" H 10480 3000 40  0000 L CNN
F 1 "CONN_1" H 10400 3055 30  0001 C CNN
F 2 "~" H 10400 3000 60  0000 C CNN
F 3 "~" H 10400 3000 60  0000 C CNN
	1    10400 3000
	-1   0    0    1   
$EndComp
$Comp
L GNDA-RESCUE-Handheld_board #PWR15
U 1 1 53F75D4F
P 9650 3350
F 0 "#PWR15" H 9650 3350 40  0001 C CNN
F 1 "GNDA" H 9650 3280 40  0000 C CNN
F 2 "" H 9650 3350 60  0000 C CNN
F 3 "" H 9650 3350 60  0000 C CNN
	1    9650 3350
	1    0    0    -1  
$EndComp
$Comp
L GNDA-RESCUE-Handheld_board #PWR2
U 1 1 53F75F8F
P 3150 6550
F 0 "#PWR2" H 3150 6550 40  0001 C CNN
F 1 "GNDA" H 3150 6480 40  0000 C CNN
F 2 "" H 3150 6550 60  0000 C CNN
F 3 "" H 3150 6550 60  0000 C CNN
	1    3150 6550
	1    0    0    -1  
$EndComp
$Comp
L GNDA-RESCUE-Handheld_board #PWR9
U 1 1 53F75F9F
P 8650 2300
F 0 "#PWR9" H 8650 2300 40  0001 C CNN
F 1 "GNDA" H 8650 2230 40  0000 C CNN
F 2 "" H 8650 2300 60  0000 C CNN
F 3 "" H 8650 2300 60  0000 C CNN
	1    8650 2300
	1    0    0    -1  
$EndComp
$Comp
L GNDA-RESCUE-Handheld_board #PWR25
U 1 1 53F75FAF
P 14850 2700
F 0 "#PWR25" H 14850 2700 40  0001 C CNN
F 1 "GNDA" H 14850 2630 40  0000 C CNN
F 2 "" H 14850 2700 60  0000 C CNN
F 3 "" H 14850 2700 60  0000 C CNN
	1    14850 2700
	1    0    0    -1  
$EndComp
$Comp
L GNDA-RESCUE-Handheld_board #PWR19
U 1 1 53FB4188
P 14100 850
F 0 "#PWR19" H 14100 850 40  0001 C CNN
F 1 "GNDA" H 14100 780 40  0000 C CNN
F 2 "" H 14100 850 60  0000 C CNN
F 3 "" H 14100 850 60  0000 C CNN
	1    14100 850 
	1    0    0    -1  
$EndComp
$Comp
L PWR_FLAG #FLG019
U 1 1 53FB418E
P 14100 750
F 0 "#FLG019" H 14100 845 30  0001 C CNN
F 1 "PWR_FLAG" H 14100 930 30  0000 C CNN
F 2 "" H 14100 750 60  0000 C CNN
F 3 "" H 14100 750 60  0000 C CNN
	1    14100 750 
	-1   0    0    -1  
$EndComp
$Comp
L GNDA-RESCUE-Handheld_board #PWR13
U 1 1 53FB4B8B
P 9400 7750
F 0 "#PWR13" H 9400 7750 40  0001 C CNN
F 1 "GNDA" H 9400 7680 40  0000 C CNN
F 2 "" H 9400 7750 60  0000 C CNN
F 3 "" H 9400 7750 60  0000 C CNN
	1    9400 7750
	1    0    0    -1  
$EndComp
NoConn ~ 15300 4600
NoConn ~ 15300 4400
Text GLabel 11250 4900 3    40   Input ~ 0
DETB_A11_ADDON
Text Label 8300 3600 0    20   ~ 0
cal-
Text Label 9000 4700 2    20   ~ 0
ACT_comm
Text GLabel 10150 7500 0    40   Input ~ 0
+V_meas_regulated'
Text GLabel 9900 1050 2    60   Output ~ 0
+V_meas_regulated'
$Comp
L GNDA-RESCUE-Handheld_board #PWR11
U 1 1 54175E11
P 9250 7650
F 0 "#PWR11" H 9250 7650 40  0001 C CNN
F 1 "GNDA" H 9250 7580 40  0000 C CNN
F 2 "" H 9250 7650 60  0000 C CNN
F 3 "" H 9250 7650 60  0000 C CNN
	1    9250 7650
	1    0    0    -1  
$EndComp
$Comp
L GNDA-RESCUE-Handheld_board #PWR20
U 1 1 54176C5A
P 14300 1900
F 0 "#PWR20" H 14300 1900 40  0001 C CNN
F 1 "GNDA" H 14300 1830 40  0000 C CNN
F 2 "" H 14300 1900 60  0000 C CNN
F 3 "" H 14300 1900 60  0000 C CNN
	1    14300 1900
	1    0    0    -1  
$EndComp
$Comp
L R-RESCUE-Handheld_board R2
U 1 1 53F758E0
P 9950 3300
F 0 "R2" V 10030 3300 40  0000 C CNN
F 1 "0" V 9957 3301 40  0000 C CNN
F 2 "~" V 9880 3300 30  0000 C CNN
F 3 "~" H 9950 3300 30  0000 C CNN
	1    9950 3300
	0    1    1    0   
$EndComp
Text Label 2850 5950 0    10   ~ 0
MEAS1A-
Text Label 2850 4100 0    10   ~ 0
MEAS2A-
Text GLabel 4100 4900 2    60   Output ~ 0
+V_meas_regulated'
$Comp
L C-RESCUE-Handheld_board C8
U 1 1 541B4A47
P 3750 5100
F 0 "C8" H 3800 5200 50  0000 L CNN
F 1 "10u" H 3800 5000 50  0000 L CNN
F 2 "" H 3750 5100 60  0000 C CNN
F 3 "C0805C106M4PACTU" H 3750 5100 10  0000 C CNN
	1    3750 5100
	-1   0    0    1   
$EndComp
$Comp
L MOSN-TSOP6 Q1
U 1 1 541B513B
P 9050 1300
F 0 "Q1" H 9300 1250 40  0000 C CNN
F 1 "SiA461DJ" H 9300 1350 30  0000 C CNN
F 2 "SC-70-6L" H 9350 1150 30  0000 C CNN
F 3 "http://www.vishay.com/docs/63838/sia461dj.pdf" H 9050 1300 60  0001 C CNN
	1    9050 1300
	0    1    -1   0   
$EndComp
$Comp
L R-RESCUE-Handheld_board R9
U 1 1 542D6B38
P 3650 9950
F 0 "R9" V 3725 10050 30  0000 C CNN
F 1 "10K" V 3650 9950 50  0000 C CNN
F 2 "SM0805" H 3650 9950 10  0000 C CNN
F 3 "RC0805JR-0710KL" V 3650 9950 10  0000 C CNN
	1    3650 9950
	1    0    0    -1  
$EndComp
Wire Wire Line
	14000 2300 14350 2300
Wire Wire Line
	14000 2400 14000 2300
Wire Wire Line
	2850 1850 2850 1950
Wire Wire Line
	2850 1650 2850 1550
Connection ~ 13700 2200
Wire Wire Line
	13700 2300 13700 2200
Connection ~ 13700 2100
Wire Wire Line
	13700 2000 13700 2100
Wire Wire Line
	10550 3700 10700 3700
Wire Wire Line
	10550 3800 10700 3800
Wire Wire Line
	10550 4300 10700 4300
Wire Wire Line
	6600 5200 6050 5200
Wire Wire Line
	6600 5350 6600 5200
Connection ~ 6800 5150
Wire Wire Line
	6800 5000 6800 5200
Wire Wire Line
	6350 5150 6800 5150
Connection ~ 7200 4950
Wire Wire Line
	6950 5000 6950 4950
Wire Wire Line
	6800 5000 6950 5000
Wire Wire Line
	5650 9350 5650 9450
Wire Wire Line
	5300 9350 5650 9350
Wire Wire Line
	5300 8000 5150 8000
Wire Wire Line
	14850 1800 14850 1850
Connection ~ 4500 1950
Wire Wire Line
	4500 1950 4500 1750
Connection ~ 4650 1350
Connection ~ 4750 1850
Wire Wire Line
	5750 1450 5900 1450
Wire Wire Line
	5750 1900 5750 1450
Wire Wire Line
	4750 1900 5750 1900
Connection ~ 4650 1950
Wire Wire Line
	4650 1950 4650 1850
Wire Wire Line
	4750 1850 4850 1850
Wire Wire Line
	4750 1350 4750 1900
Wire Wire Line
	4500 1350 4750 1350
Wire Wire Line
	10650 4600 10700 4600
Wire Wire Line
	10650 4500 10700 4500
Wire Wire Line
	10650 4400 10700 4400
Wire Wire Line
	11750 3600 11800 3600
Wire Wire Line
	5550 8950 5650 8950
Wire Wire Line
	15100 750  15100 850 
Wire Wire Line
	6050 1750 6050 1950
Wire Wire Line
	5700 1750 6050 1750
Connection ~ 1450 1500
Wire Wire Line
	1450 1750 1650 1750
Wire Wire Line
	1450 1400 1450 1750
Connection ~ 1450 950 
Wire Wire Line
	1450 1300 1450 950 
Connection ~ 5550 1950
Wire Wire Line
	1650 850  3200 850 
Wire Wire Line
	1650 1350 1650 850 
Connection ~ 2000 1750
Wire Wire Line
	2000 1600 2100 1600
Wire Wire Line
	2000 1600 2000 1850
Wire Wire Line
	2000 1850 1400 1850
Connection ~ 2850 1950
Wire Wire Line
	1650 1750 1650 1950
Wire Wire Line
	3350 1950 3350 1500
Wire Wire Line
	1650 1350 1700 1350
Wire Wire Line
	2350 1350 2300 1350
Wire Wire Line
	2350 1200 2350 1350
Wire Wire Line
	2850 1200 2850 1350
Wire Wire Line
	2750 1200 2850 1200
Wire Wire Line
	2850 1350 3050 1350
Wire Wire Line
	2500 1600 2500 1750
Wire Wire Line
	2500 1750 2750 1750
Connection ~ 3050 1950
Connection ~ 3350 1950
Connection ~ 3050 1550
Connection ~ 3050 1350
Wire Wire Line
	2850 1550 3850 1550
Wire Wire Line
	4350 1550 4350 1250
Connection ~ 3700 1150
Wire Wire Line
	3050 1150 3050 1550
Connection ~ 3700 1250
Wire Wire Line
	3700 850  3700 1350
Connection ~ 4000 1950
Connection ~ 5100 1950
Wire Wire Line
	4000 1950 4000 1500
Connection ~ 3350 950 
Wire Wire Line
	3350 950  3350 1000
Connection ~ 4000 950 
Wire Wire Line
	4000 950  4000 1000
Wire Wire Line
	4850 1350 5100 1350
Wire Wire Line
	4850 950  4850 1350
Wire Wire Line
	1350 950  4850 950 
Wire Wire Line
	4350 1250 5000 1250
Wire Wire Line
	5100 1350 5100 1250
Wire Wire Line
	10700 3350 10700 3400
Wire Wire Line
	10750 3350 10700 3350
Wire Wire Line
	10750 3200 10750 3350
Wire Wire Line
	10550 3200 10750 3200
Wire Wire Line
	10700 3450 10700 3500
Wire Wire Line
	10800 3450 10700 3450
Wire Wire Line
	10800 3100 10800 3450
Wire Wire Line
	10550 3100 10800 3100
Wire Wire Line
	10700 3500 10650 3500
Wire Wire Line
	10700 3400 10650 3400
Connection ~ 7500 4950
Wire Wire Line
	6950 4950 7500 4950
Wire Wire Line
	7200 4900 7200 4950
Wire Wire Line
	14350 850  14350 750 
Wire Wire Line
	11550 1350 11600 1350
Connection ~ 7850 4650
Wire Wire Line
	7850 4700 7850 4650
Wire Wire Line
	14850 750  14850 850 
Wire Wire Line
	14600 750  14600 850 
Wire Wire Line
	2825 8725 2975 8725
Wire Wire Line
	2825 9075 2825 8725
Wire Wire Line
	2525 9075 2825 9075
Connection ~ 3800 7725
Wire Wire Line
	3200 7725 3800 7725
Wire Wire Line
	12200 3400 12200 3450
Wire Wire Line
	10200 3300 10700 3300
Wire Wire Line
	10250 3350 10250 3300
Wire Wire Line
	7850 5100 7850 5150
Wire Wire Line
	9000 6250 9000 6400
Wire Wire Line
	6050 5300 6200 5300
Wire Wire Line
	6050 5400 6200 5400
Wire Wire Line
	7050 5700 6050 5700
Wire Wire Line
	7050 5550 7050 5700
Wire Wire Line
	6600 5600 6600 5500
Wire Wire Line
	6050 5600 6600 5600
Wire Wire Line
	15350 3250 15450 3250
Wire Wire Line
	15350 3350 15450 3350
Wire Wire Line
	14300 3150 14350 3150
Wire Wire Line
	14300 3250 14350 3250
Wire Wire Line
	14300 3650 14300 3250
Wire Wire Line
	15300 4200 15350 4200
Wire Wire Line
	14550 4200 14600 4200
Wire Wire Line
	14550 4400 14600 4400
Wire Wire Line
	14600 4600 14600 4850
Connection ~ 13200 1300
Connection ~ 12450 1650
Wire Wire Line
	13150 1650 13150 1400
Wire Wire Line
	13200 1550 13200 1300
Wire Wire Line
	13150 1300 13250 1300
Wire Wire Line
	12550 1550 13200 1550
Wire Wire Line
	12550 1200 12550 1550
Wire Wire Line
	12450 1650 12450 1200
Wire Wire Line
	12150 1650 13150 1650
Wire Wire Line
	12150 1650 12150 1800
Connection ~ 12150 1250
Wire Wire Line
	12100 1350 12100 1250
Wire Wire Line
	11550 1200 12250 1200
Wire Wire Line
	10150 7100 10200 7100
Wire Wire Line
	10150 7000 10200 7000
Wire Wire Line
	10150 6900 10200 6900
Wire Wire Line
	10150 6800 10200 6800
Wire Wire Line
	10150 6700 10200 6700
Wire Wire Line
	10150 6600 10200 6600
Wire Wire Line
	6650 5350 6600 5350
Wire Wire Line
	5550 9000 5550 8950
Wire Wire Line
	5300 8100 5300 8000
Wire Wire Line
	5650 8950 5650 8650
Wire Wire Line
	5650 8650 5300 8650
Wire Wire Line
	5300 8650 5300 8600
Wire Wire Line
	5300 8600 5150 8600
Connection ~ 5650 8950
Connection ~ 6400 3200
Wire Wire Line
	6650 3900 6050 3900
Wire Wire Line
	6650 3650 6650 3900
Wire Wire Line
	7600 3200 7600 3350
Connection ~ 7150 3200
Wire Wire Line
	7150 4000 7150 4450
Wire Wire Line
	15350 1800 15350 2000
Wire Wire Line
	15350 2000 15400 2000
Wire Wire Line
	15350 2400 15400 2400
Wire Wire Line
	15350 2300 15400 2300
Wire Wire Line
	15350 2200 15400 2200
Wire Wire Line
	15350 2100 15400 2100
Wire Wire Line
	13650 2400 14000 2400
Wire Wire Line
	14700 1800 15350 1800
Wire Wire Line
	13650 2200 14350 2200
Wire Wire Line
	13650 2100 14350 2100
Connection ~ 15350 7075
Wire Wire Line
	14725 7175 14800 7175
Wire Wire Line
	15375 7175 15300 7175
Wire Wire Line
	15350 7475 15250 7475
Wire Wire Line
	15350 7075 15350 7475
Wire Wire Line
	15300 7075 15375 7075
Wire Wire Line
	14850 7475 14850 7575
Wire Wire Line
	14750 7475 14850 7475
Wire Wire Line
	14750 7075 14750 7475
Wire Wire Line
	14800 7075 14750 7075
Wire Wire Line
	14600 8325 14600 8450
Connection ~ 15675 8325
Wire Wire Line
	15525 8325 15750 8325
Wire Wire Line
	15675 8825 15675 8325
Wire Wire Line
	15125 8825 15175 8825
Wire Wire Line
	15525 8725 15525 8525
Wire Wire Line
	14725 8725 15525 8725
Wire Wire Line
	14725 8525 14725 8725
Wire Wire Line
	2975 9200 2975 9125
Wire Wire Line
	3150 9125 3150 8425
Wire Wire Line
	3800 8525 2425 8525
Connection ~ 3800 7175
Connection ~ 3800 8075
Wire Wire Line
	3800 7175 3800 8525
Wire Wire Line
	3150 8075 3800 8075
Wire Wire Line
	3150 8425 2800 8425
Wire Wire Line
	2800 8425 2800 8075
Wire Wire Line
	3000 8675 3225 8675
Wire Wire Line
	3000 8375 3000 8675
Wire Wire Line
	2950 7925 2950 8225
Wire Wire Line
	11150 4850 11150 4900
Wire Wire Line
	11250 4900 11250 4850
Wire Wire Line
	11050 4900 11050 4850
Wire Wire Line
	11750 4500 11800 4500
Wire Wire Line
	11800 4400 11750 4400
Wire Wire Line
	11750 4300 11800 4300
Wire Wire Line
	11800 4200 11750 4200
Wire Wire Line
	11750 4100 11800 4100
Wire Wire Line
	11750 4000 11800 4000
Wire Wire Line
	11750 3900 11800 3900
Wire Wire Line
	11750 3800 11800 3800
Wire Wire Line
	11750 3700 11800 3700
Wire Wire Line
	11650 3500 11800 3500
Wire Wire Line
	11750 3400 12200 3400
Wire Wire Line
	11750 3300 11800 3300
Wire Wire Line
	10650 4200 10700 4200
Wire Wire Line
	10650 4100 10700 4100
Wire Wire Line
	10650 4000 10700 4000
Wire Wire Line
	10650 3900 10700 3900
Wire Wire Line
	10650 3600 10700 3600
Wire Wire Line
	8100 1800 7950 1800
Connection ~ 5300 1300
Wire Wire Line
	5550 1250 5900 1250
Wire Wire Line
	5550 1250 5550 1300
Wire Wire Line
	5550 1300 5300 1300
Wire Wire Line
	3150 6550 3150 6400
Connection ~ 9750 1200
Wire Wire Line
	9750 2200 9750 1600
Wire Wire Line
	7650 1200 7550 1200
Connection ~ 8650 2200
Wire Wire Line
	8300 2200 9750 2200
Connection ~ 3150 6400
Wire Wire Line
	2850 5950 3150 5950
Connection ~ 4850 6100
Wire Wire Line
	4850 5600 4600 5600
Wire Wire Line
	4700 6000 4950 6000
Wire Wire Line
	4700 6200 4950 6200
Wire Wire Line
	4850 6400 4850 5600
Wire Wire Line
	4700 6100 4850 6100
Connection ~ 5200 1950
Wire Wire Line
	5100 1950 5100 1750
Wire Wire Line
	1650 1950 5550 1950
Wire Wire Line
	5550 1950 5550 1850
Wire Wire Line
	5300 1850 5400 1850
Wire Wire Line
	12100 1250 12350 1250
Wire Wire Line
	12350 1250 12350 1200
Connection ~ 9000 4650
Wire Wire Line
	3050 3500 3050 3400
Connection ~ 8300 1200
Connection ~ 2675 7375
Connection ~ 2675 8075
Wire Wire Line
	8300 1200 8300 1700
Connection ~ 2975 9125
Connection ~ 3350 8275
Connection ~ 2975 8525
Wire Wire Line
	2975 8725 2975 8525
Wire Wire Line
	2875 8825 3225 8825
Wire Wire Line
	2175 8450 2175 8725
Wire Wire Line
	3350 8450 2175 8450
Wire Wire Line
	2425 9125 3150 9125
Wire Wire Line
	2875 9150 2875 8825
Wire Wire Line
	2175 9150 2875 9150
Wire Wire Line
	2175 8925 2175 9150
Connection ~ 2800 8075
Wire Wire Line
	3100 8075 3100 7775
Wire Wire Line
	3350 7925 3350 8450
Wire Wire Line
	3350 7925 3375 7925
Connection ~ 3775 7800
Wire Wire Line
	3575 7800 3775 7800
Wire Wire Line
	3775 7475 3775 7925
Wire Wire Line
	3550 7475 3775 7475
Connection ~ 2850 7800
Wire Wire Line
	3175 7800 2850 7800
Wire Wire Line
	2850 7925 2950 7925
Wire Wire Line
	2850 7575 2850 7925
Connection ~ 2300 7575
Wire Wire Line
	2150 7575 2350 7575
Connection ~ 2300 8075
Wire Wire Line
	2150 7975 2150 8075
Wire Wire Line
	2150 8075 3100 8075
Connection ~ 3100 7175
Wire Wire Line
	3075 7175 3900 7175
Wire Wire Line
	2675 7175 2675 8075
Wire Wire Line
	2850 7375 2675 7375
Connection ~ 2800 7575
Wire Wire Line
	2750 7575 2850 7575
Connection ~ 12650 1300
Wire Wire Line
	8300 2200 8300 2000
Wire Wire Line
	2850 4100 3150 4100
Wire Wire Line
	15750 8425 15525 8425
Wire Wire Line
	14725 8025 15125 8025
Connection ~ 15525 8325
Wire Wire Line
	15525 8025 15525 8325
Wire Wire Line
	9200 5250 9200 5300
Connection ~ 9300 5250
Wire Wire Line
	9000 4650 9000 4750
Wire Wire Line
	9000 5150 9000 5300
Wire Wire Line
	3150 4100 3150 4300
Wire Wire Line
	3050 4900 3050 5050
Wire Wire Line
	3050 3400 3150 3400
Wire Wire Line
	3050 4900 3200 4900
Wire Wire Line
	3450 4500 3500 4500
Wire Wire Line
	4000 4500 4000 6000
Wire Wire Line
	3150 4750 3150 4700
Connection ~ 14725 8325
Wire Wire Line
	8700 5500 8650 5500
Wire Wire Line
	8150 5500 8100 5500
Wire Wire Line
	7100 5600 7100 5900
Wire Wire Line
	7100 5750 9000 5750
Wire Wire Line
	9000 5750 9000 5700
Wire Wire Line
	7500 4650 7500 5100
Wire Wire Line
	8150 5500 8150 5900
Wire Wire Line
	7100 5900 7750 5900
Connection ~ 7100 5750
Connection ~ 7500 6250
Wire Wire Line
	6350 6250 9000 6250
Wire Wire Line
	6750 3700 6750 4000
Wire Wire Line
	8300 3850 6750 3850
Wire Wire Line
	8300 3400 8300 3850
Wire Wire Line
	7800 3400 7800 4000
Wire Wire Line
	6750 4000 7400 4000
Connection ~ 6750 3850
Connection ~ 7150 4350
Wire Wire Line
	6150 4350 8300 4350
Wire Wire Line
	7750 3600 7900 3600
Connection ~ 7800 3600
Connection ~ 9000 5750
Connection ~ 8150 5500
Wire Wire Line
	3650 3400 4100 3400
Wire Wire Line
	3850 3800 3850 6400
Wire Wire Line
	3150 4750 3850 4750
Wire Wire Line
	3150 6400 4850 6400
Wire Wire Line
	3450 6200 3500 6200
Connection ~ 3850 6400
Wire Wire Line
	3950 6100 4100 6100
Wire Wire Line
	3950 5600 3950 6100
Wire Wire Line
	8850 1200 8250 1200
Wire Wire Line
	6250 3450 6050 3450
Wire Wire Line
	6150 3550 6150 4350
Wire Wire Line
	6400 3750 6150 3750
Connection ~ 6150 3750
Wire Wire Line
	6400 3200 6400 3300
Wire Wire Line
	6050 3200 7200 3200
Wire Wire Line
	6400 3700 6400 3750
Wire Wire Line
	6150 3550 6250 3550
Wire Wire Line
	6750 3500 6650 3500
Wire Wire Line
	7100 5400 7050 5400
Wire Wire Line
	6800 5600 6800 6250
Connection ~ 6800 6250
Wire Wire Line
	6350 6250 6350 5550
Wire Wire Line
	6650 5450 6650 5625
Wire Wire Line
	6650 5625 6800 5625
Connection ~ 6800 5625
Wire Wire Line
	8650 1200 8650 1300
Connection ~ 8650 1200
Wire Wire Line
	8650 1700 8650 2300
Wire Wire Line
	12650 1200 12650 1400
Wire Wire Line
	3050 5450 3050 6000
Wire Wire Line
	2950 5950 2950 6000
Connection ~ 3050 5950
Wire Wire Line
	2850 5950 2850 6000
Wire Wire Line
	3050 3900 3050 4300
Wire Wire Line
	2950 4100 2950 4300
Connection ~ 3050 4100
Wire Wire Line
	2850 4100 2850 4300
Connection ~ 2950 4100
Wire Wire Line
	9100 5250 9100 5300
Wire Wire Line
	9000 5250 9450 5250
Connection ~ 9000 5250
Connection ~ 9100 5250
Wire Wire Line
	9300 5250 9300 5300
Connection ~ 9200 5250
Wire Wire Line
	5200 1250 5200 2100
Wire Wire Line
	4000 6000 4100 6000
Wire Wire Line
	4000 6200 4100 6200
Wire Wire Line
	2450 5600 4200 5600
Connection ~ 3950 5600
Wire Wire Line
	5300 1250 5300 1850
Wire Wire Line
	5550 1350 5400 1350
Wire Wire Line
	5400 1350 5400 1250
Wire Wire Line
	9200 4650 9200 4750
Wire Wire Line
	14725 8025 14725 8425
Wire Wire Line
	15525 8525 15750 8525
Wire Wire Line
	14600 8325 14725 8325
Connection ~ 8300 3600
Wire Wire Line
	6300 5000 6050 5000
Wire Wire Line
	7500 6250 7500 5900
Wire Wire Line
	11750 3300 11750 3150
Wire Wire Line
	11650 3050 11650 3500
Connection ~ 11750 3500
Wire Wire Line
	11750 3150 11800 3150
Wire Wire Line
	11650 3050 11800 3050
Wire Wire Line
	10700 3300 10700 3000
Wire Wire Line
	10700 3000 10550 3000
Wire Wire Line
	9650 3300 9650 3350
Wire Wire Line
	9650 3300 9700 3300
Connection ~ 10250 3300
Wire Wire Line
	14850 2650 14850 2700
Wire Wire Line
	14100 750  14100 850 
Wire Wire Line
	7500 4650 9200 4650
Wire Wire Line
	9900 1050 9750 1050
Wire Wire Line
	9750 1050 9750 1200
Wire Wire Line
	9400 7350 9400 7300
Wire Wire Line
	9400 7300 10200 7300
Wire Wire Line
	10150 7200 10200 7200
Wire Wire Line
	10150 7400 10200 7400
Wire Wire Line
	10150 7500 10200 7500
Wire Wire Line
	10150 7900 10200 7900
Wire Wire Line
	10150 8000 10200 8000
Wire Wire Line
	10150 8100 10200 8100
Wire Wire Line
	9250 7650 9250 7600
Wire Wire Line
	9250 7600 10200 7600
Wire Wire Line
	9400 7750 9400 7700
Wire Wire Line
	9400 7700 10200 7700
Wire Wire Line
	9500 7850 9500 7800
Wire Wire Line
	9500 7800 10200 7800
Wire Wire Line
	14300 1800 14300 1900
Connection ~ 14850 1800
Wire Wire Line
	9250 1200 9900 1200
Wire Wire Line
	8550 1850 9050 1850
Wire Wire Line
	9050 1850 9050 1500
Wire Wire Line
	9300 900  9300 2050
Connection ~ 9300 1200
Wire Wire Line
	8100 1900 8100 2050
Wire Wire Line
	8100 2050 9300 2050
Wire Wire Line
	3150 5950 3150 6000
Connection ~ 2950 5950
Wire Wire Line
	3700 4900 4100 4900
Connection ~ 3750 4900
Connection ~ 3850 3400
Wire Wire Line
	3750 5300 3850 5300
Connection ~ 3850 5300
Connection ~ 3850 4750
Wire Wire Line
	9300 1100 9250 1100
Wire Wire Line
	9300 1000 9250 1000
Connection ~ 9300 1100
Wire Wire Line
	9300 900  9250 900 
Connection ~ 9300 1000
$Comp
L R-RESCUE-Handheld_board R10
U 1 1 542D6ED5
P 3800 9950
F 0 "R10" V 3875 10050 30  0000 C CNN
F 1 "10K" V 3800 9950 50  0000 C CNN
F 2 "SM0805" H 3800 9950 10  0000 C CNN
F 3 "RC0805JR-0710KL" V 3800 9950 10  0000 C CNN
	1    3800 9950
	1    0    0    -1  
$EndComp
$Comp
L AGND #PWR3
U 1 1 542D6EE5
P 3650 10250
F 0 "#PWR3" H 3650 10250 40  0001 C CNN
F 1 "AGND" H 3650 10180 50  0000 C CNN
F 2 "" H 3650 10250 60  0000 C CNN
F 3 "" H 3650 10250 60  0000 C CNN
	1    3650 10250
	1    0    0    -1  
$EndComp
Text GLabel 3900 9700 2    40   Input ~ 0
DETB_A11_ADDON
Text GLabel 3900 9600 2    40   Input ~ 0
Ain10
Wire Wire Line
	3650 10250 3650 10200
Wire Wire Line
	3650 10200 3800 10200
Wire Wire Line
	3800 9700 3900 9700
Wire Wire Line
	3650 9700 3650 9600
Wire Wire Line
	3650 9600 3900 9600
Wire Wire Line
	5000 1250 5000 1400
Wire Wire Line
	5000 1400 5600 1400
Wire Wire Line
	5600 1400 5600 1350
Wire Wire Line
	5600 1350 5700 1350
$Comp
L R-RESCUE-Handheld_board R11
U 1 1 542EFDEE
P 3475 8825
F 0 "R11" V 3550 8925 30  0000 C CNN
F 1 "20" V 3475 8825 50  0000 C CNN
F 2 "" H 3475 8825 60  0000 C CNN
F 3 "RMCF0805JT20R0" V 3475 8825 10  0000 C CNN
	1    3475 8825
	0    -1   -1   0   
$EndComp
Wire Wire Line
	3725 8825 3900 8825
$Comp
L R-RESCUE-Handheld_board R12
U 1 1 542F04B2
P 3475 8675
F 0 "R12" V 3550 8775 30  0000 C CNN
F 1 "1K" V 3475 8675 50  0000 C CNN
F 2 "" H 3475 8675 60  0000 C CNN
F 3 "RMCF0805JT20R0" V 3475 8675 10  0000 C CNN
	1    3475 8675
	0    -1   -1   0   
$EndComp
Wire Wire Line
	3725 8675 3900 8675
$Comp
L C-RESCUE-Handheld_board C116
U 1 1 549868CB
P 15050 7475
F 0 "C116" V 15100 7550 50  0000 L CNN
F 1 "10u" V 15100 7300 50  0000 L CNN
F 2 "SM0805" H 15050 7475 10  0000 C CNN
F 3 "C0805C106M4PACTU" H 15050 7475 10  0000 C CNN
F 4 "0.24" V 15050 7475 60  0001 C CNN "Price10"
F 5 "0.0705" V 15050 7475 60  0001 C CNN "Price1000"
	1    15050 7475
	0    -1   -1   0   
$EndComp
$Comp
L C-RESCUE-Handheld_board C2
U 1 1 54989782
P 14500 1800
F 0 "C2" V 14550 1875 50  0000 L CNN
F 1 "10u" V 14550 1625 50  0000 L CNN
F 2 "SM0805" H 14500 1800 10  0000 C CNN
F 3 "C0805C106M4PACTU" H 14500 1800 10  0000 C CNN
F 4 "0.24" V 14500 1800 60  0001 C CNN "Price10"
F 5 "0.0705" V 14500 1800 60  0001 C CNN "Price1000"
	1    14500 1800
	0    -1   -1   0   
$EndComp
$Comp
L C-RESCUE-Handheld_board C110
U 1 1 54989C26
P 12150 1450
F 0 "C110" H 12050 1550 50  0000 L CNN
F 1 "10u" H 12000 1375 50  0000 L CNN
F 2 "SM0805" H 12150 1450 10  0000 C CNN
F 3 "C0805C106M4PACTU" H 12150 1450 10  0000 C CNN
F 4 "0.24" V 12150 1450 60  0001 C CNN "Price10"
F 5 "0.0705" V 12150 1450 60  0001 C CNN "Price1000"
	1    12150 1450
	-1   0    0    1   
$EndComp
$Comp
L C-RESCUE-Handheld_board C102
U 1 1 5498A393
P 9750 1400
F 0 "C102" H 9775 1325 50  0000 L CNN
F 1 "10u" H 9800 1475 50  0000 L CNN
F 2 "SM0805" H 9750 1400 10  0000 C CNN
F 3 "C0805C106M4PACTU" H 9750 1400 10  0000 C CNN
F 4 "0.24" V 9750 1400 60  0001 C CNN "Price10"
F 5 "0.0705" V 9750 1400 60  0001 C CNN "Price1000"
	1    9750 1400
	-1   0    0    1   
$EndComp
$Comp
L C-RESCUE-Handheld_board C135
U 1 1 5498A39B
P 8650 1500
F 0 "C135" H 8675 1425 50  0000 L CNN
F 1 "10u" H 8500 1600 50  0000 L CNN
F 2 "SM0805" H 8650 1500 10  0000 C CNN
F 3 "C0805C106M4PACTU" H 8650 1500 10  0000 C CNN
F 4 "0.24" V 8650 1500 60  0001 C CNN "Price10"
F 5 "0.0705" V 8650 1500 60  0001 C CNN "Price1000"
	1    8650 1500
	-1   0    0    1   
$EndComp
$Comp
L C-RESCUE-Handheld_board C9
U 1 1 54A19D22
P 3850 3600
F 0 "C9" H 3875 3525 50  0000 L CNN
F 1 "10u" H 3900 3675 50  0000 L CNN
F 2 "SM0805" H 3850 3600 10  0000 C CNN
F 3 "C0805C106M4PACTU" H 3850 3600 10  0000 C CNN
F 4 "0.24" V 3850 3600 60  0001 C CNN "Price10"
F 5 "0.0705" V 3850 3600 60  0001 C CNN "Price1000"
	1    3850 3600
	-1   0    0    1   
$EndComp
$EndSCHEMATC
