G04 #@! TF.FileFunction,Soldermask,Bot*
%FSLAX46Y46*%
G04 Gerber Fmt 4.6, Leading zero omitted, Abs format (unit mm)*
G04 Created by KiCad (PCBNEW 4.0.2+dfsg1-stable) date Fri 15 Jul 2016 01:04:59 PM EDT*
%MOMM*%
G01*
G04 APERTURE LIST*
%ADD10C,0.100000*%
%ADD11C,1.200000*%
%ADD12C,0.381000*%
%ADD13C,1.100000*%
%ADD14R,1.100000X1.100000*%
%ADD15C,1.000000*%
%ADD16R,3.302000X1.800000*%
%ADD17O,3.302000X1.800000*%
%ADD18C,0.760000*%
%ADD19R,1.700000X2.200000*%
%ADD20O,1.700000X2.200000*%
%ADD21C,0.300000*%
%ADD22C,0.600000*%
%ADD23O,0.650000X0.950000*%
%ADD24C,0.650000*%
%ADD25O,1.400000X0.800000*%
%ADD26O,1.501140X0.899160*%
%ADD27R,0.400000X1.000000*%
%ADD28O,0.950000X1.250000*%
%ADD29O,1.524000X1.000000*%
%ADD30C,0.260000*%
%ADD31R,1.000000X2.500000*%
%ADD32R,2.500000X1.000000*%
G04 APERTURE END LIST*
D10*
D11*
X243826000Y-80127000D03*
X242556000Y-81397000D03*
X241286000Y-80127000D03*
X242556000Y-78857000D03*
D12*
X217261500Y-93644000D03*
X216690000Y-93644000D03*
X216118500Y-93644000D03*
X217261500Y-95104500D03*
X216690000Y-95104500D03*
X217261500Y-95676000D03*
X216690000Y-95676000D03*
X216118500Y-95676000D03*
X216118500Y-95104500D03*
X217261500Y-94215500D03*
X216690000Y-94215500D03*
X216118500Y-94215500D03*
D13*
X110871000Y-95504000D03*
D14*
X115951000Y-94234000D03*
D13*
X110871000Y-94234000D03*
X115951000Y-95504000D03*
X112141000Y-95504000D03*
X114681000Y-94234000D03*
X112141000Y-94234000D03*
X114681000Y-95504000D03*
X113411000Y-95504000D03*
X113411000Y-94234000D03*
D15*
X243610000Y-96390000D03*
D16*
X235336000Y-90577000D03*
D17*
X235336000Y-95657000D03*
D18*
X46714400Y-89331800D03*
X44014400Y-89331800D03*
D19*
X59268360Y-76901040D03*
D20*
X57268360Y-76901040D03*
X55268360Y-76901040D03*
X53268360Y-76901040D03*
D21*
X66521000Y-71319000D03*
X67537000Y-71319000D03*
X67537000Y-72335000D03*
X66521000Y-72335000D03*
X67029000Y-71827000D03*
D22*
X51536000Y-101527000D03*
X50836000Y-101127000D03*
X50836000Y-100327000D03*
X51536000Y-99927000D03*
X50836000Y-99527000D03*
X51536000Y-99127000D03*
X51536000Y-98327000D03*
X50836000Y-97927000D03*
X51536000Y-97527000D03*
X50836000Y-97127000D03*
X50836000Y-96327000D03*
X51536000Y-95927000D03*
D23*
X52186000Y-102327000D03*
D24*
X52186000Y-95127000D03*
D25*
X50936000Y-94597000D03*
X50936000Y-102857000D03*
X44986000Y-103217000D03*
X44986000Y-94237000D03*
D26*
X249996000Y-80117000D03*
X249996000Y-78847000D03*
X249996000Y-81387000D03*
D27*
X246456000Y-93977000D03*
X246456000Y-92377000D03*
X245806000Y-93977000D03*
X247106000Y-93977000D03*
X247106000Y-92377000D03*
X245806000Y-92377000D03*
D28*
X47599400Y-83659900D03*
X47599400Y-78659900D03*
D29*
X44924780Y-84659900D03*
X44924780Y-77659900D03*
D15*
X243600000Y-89860000D03*
D30*
X66294000Y-89955000D03*
X66304000Y-89095000D03*
D12*
X215377500Y-95041000D03*
X214806000Y-95041000D03*
X214234500Y-95041000D03*
X215377500Y-96501500D03*
X214806000Y-96501500D03*
X215377500Y-97073000D03*
X214806000Y-97073000D03*
X214234500Y-97073000D03*
X214234500Y-96501500D03*
X215377500Y-95612500D03*
X214806000Y-95612500D03*
X214234500Y-95612500D03*
X215377500Y-92041000D03*
X214806000Y-92041000D03*
X214234500Y-92041000D03*
X215377500Y-93501500D03*
X214806000Y-93501500D03*
X215377500Y-94073000D03*
X214806000Y-94073000D03*
X214234500Y-94073000D03*
X214234500Y-93501500D03*
X215377500Y-92612500D03*
X214806000Y-92612500D03*
X214234500Y-92612500D03*
X215377500Y-89051000D03*
X214806000Y-89051000D03*
X214234500Y-89051000D03*
X215377500Y-90511500D03*
X214806000Y-90511500D03*
X215377500Y-91083000D03*
X214806000Y-91083000D03*
X214234500Y-91083000D03*
X214234500Y-90511500D03*
X215377500Y-89622500D03*
X214806000Y-89622500D03*
X214234500Y-89622500D03*
X216104500Y-92643000D03*
X216676000Y-92643000D03*
X217247500Y-92643000D03*
X216104500Y-91182500D03*
X216676000Y-91182500D03*
X216104500Y-90611000D03*
X216676000Y-90611000D03*
X217247500Y-90611000D03*
X217247500Y-91182500D03*
X216104500Y-92071500D03*
X216676000Y-92071500D03*
X217247500Y-92071500D03*
D31*
X74630000Y-80560000D03*
X64200000Y-80560000D03*
D32*
X76230000Y-82750000D03*
X76230000Y-96250000D03*
X76230000Y-97750000D03*
X76230000Y-100750000D03*
X62630000Y-100750000D03*
X62630000Y-99250000D03*
X62630000Y-84250000D03*
X62630000Y-82750000D03*
M02*
