G04 #@! TF.FileFunction,Profile,NP*
%FSLAX46Y46*%
G04 Gerber Fmt 4.6, Leading zero omitted, Abs format (unit mm)*
G04 Created by KiCad (PCBNEW 4.0.2+dfsg1-stable) date Thu 11 Aug 2016 05:37:14 PM EDT*
%MOMM*%
G01*
G04 APERTURE LIST*
%ADD10C,0.100000*%
%ADD11C,0.010000*%
G04 APERTURE END LIST*
D10*
D11*
X215840000Y-68550000D02*
X215840000Y-72600000D01*
X216390000Y-72600000D02*
X215840000Y-72600000D01*
X216390000Y-74160000D02*
X216390000Y-72600000D01*
X215840000Y-74160000D02*
X216390000Y-74160000D01*
X216350000Y-68550000D02*
X215840000Y-68550000D01*
X216350000Y-66840000D02*
X216350000Y-68550000D01*
X215840000Y-66840000D02*
X216350000Y-66840000D01*
X210660000Y-78270000D02*
G75*
G03X210660000Y-78270000I-1500000J0D01*
G01*
X207650000Y-74160000D02*
X215840000Y-74160000D01*
X207650000Y-66840000D02*
X207650000Y-74160000D01*
X215840000Y-66840000D02*
X207650000Y-66840000D01*
X221663843Y-86769835D02*
X221663843Y-64269835D01*
X96663843Y-64269835D02*
X96663843Y-86769835D01*
X96663843Y-86769835D02*
X221663843Y-86769835D01*
X122163843Y-75514835D02*
G75*
G03X122163843Y-75514835I-4500000J0D01*
G01*
X164163843Y-75514835D02*
G75*
G03X164163843Y-75514835I-4500000J0D01*
G01*
X131489906Y-75514835D02*
G75*
G03X131489906Y-75514835I-1506063J0D01*
G01*
X221663843Y-64269835D02*
X96663843Y-64269835D01*
M02*
