G04 #@! TF.FileFunction,Legend,Bot*
%FSLAX46Y46*%
G04 Gerber Fmt 4.6, Leading zero omitted, Abs format (unit mm)*
G04 Created by KiCad (PCBNEW 4.0.2+dfsg1-stable) date Thu 11 Aug 2016 05:37:14 PM EDT*
%MOMM*%
G01*
G04 APERTURE LIST*
%ADD10C,0.100000*%
%ADD11C,0.300000*%
G04 APERTURE END LIST*
D10*
D11*
X138768095Y-68674763D02*
X137468095Y-68674763D01*
X138396667Y-69108096D01*
X137468095Y-69541429D01*
X138768095Y-69541429D01*
X137901429Y-70717620D02*
X138768095Y-70717620D01*
X137901429Y-70160477D02*
X138582381Y-70160477D01*
X138706190Y-70222382D01*
X138768095Y-70346191D01*
X138768095Y-70531905D01*
X138706190Y-70655715D01*
X138644286Y-70717620D01*
X138768095Y-71522381D02*
X138706190Y-71398572D01*
X138582381Y-71336667D01*
X137468095Y-71336667D01*
X137901429Y-71831905D02*
X137901429Y-72327143D01*
X137468095Y-72017619D02*
X138582381Y-72017619D01*
X138706190Y-72079524D01*
X138768095Y-72203333D01*
X138768095Y-72327143D01*
X138768095Y-72760476D02*
X137901429Y-72760476D01*
X137468095Y-72760476D02*
X137530000Y-72698571D01*
X137591905Y-72760476D01*
X137530000Y-72822381D01*
X137468095Y-72760476D01*
X137591905Y-72760476D01*
X138706190Y-73317619D02*
X138768095Y-73441429D01*
X138768095Y-73689048D01*
X138706190Y-73812857D01*
X138582381Y-73874762D01*
X138520476Y-73874762D01*
X138396667Y-73812857D01*
X138334762Y-73689048D01*
X138334762Y-73503333D01*
X138272857Y-73379524D01*
X138149048Y-73317619D01*
X138087143Y-73317619D01*
X137963333Y-73379524D01*
X137901429Y-73503333D01*
X137901429Y-73689048D01*
X137963333Y-73812857D01*
X137901429Y-74431905D02*
X139201429Y-74431905D01*
X137963333Y-74431905D02*
X137901429Y-74555714D01*
X137901429Y-74803333D01*
X137963333Y-74927143D01*
X138025238Y-74989048D01*
X138149048Y-75050952D01*
X138520476Y-75050952D01*
X138644286Y-74989048D01*
X138706190Y-74927143D01*
X138768095Y-74803333D01*
X138768095Y-74555714D01*
X138706190Y-74431905D01*
X138706190Y-76103333D02*
X138768095Y-75979523D01*
X138768095Y-75731904D01*
X138706190Y-75608095D01*
X138582381Y-75546190D01*
X138087143Y-75546190D01*
X137963333Y-75608095D01*
X137901429Y-75731904D01*
X137901429Y-75979523D01*
X137963333Y-76103333D01*
X138087143Y-76165238D01*
X138210952Y-76165238D01*
X138334762Y-75546190D01*
X138891905Y-77589047D02*
X138830000Y-77465238D01*
X138706190Y-77341428D01*
X138520476Y-77155714D01*
X138458571Y-77031905D01*
X138458571Y-76908095D01*
X138768095Y-76970000D02*
X138706190Y-76846190D01*
X138582381Y-76722381D01*
X138334762Y-76660476D01*
X137901429Y-76660476D01*
X137653810Y-76722381D01*
X137530000Y-76846190D01*
X137468095Y-76970000D01*
X137468095Y-77217619D01*
X137530000Y-77341428D01*
X137653810Y-77465238D01*
X137901429Y-77527143D01*
X138334762Y-77527143D01*
X138582381Y-77465238D01*
X138706190Y-77341428D01*
X138768095Y-77217619D01*
X138768095Y-76970000D01*
X137468095Y-78889048D02*
X138768095Y-79322381D01*
X137468095Y-79755714D01*
X138768095Y-80870000D02*
X138768095Y-80127143D01*
X138768095Y-80498572D02*
X137468095Y-80498572D01*
X137653810Y-80374762D01*
X137777619Y-80250953D01*
X137839524Y-80127143D01*
X138644286Y-81427143D02*
X138706190Y-81489048D01*
X138768095Y-81427143D01*
X138706190Y-81365238D01*
X138644286Y-81427143D01*
X138768095Y-81427143D01*
X137468095Y-82293810D02*
X137468095Y-82417619D01*
X137530000Y-82541429D01*
X137591905Y-82603334D01*
X137715714Y-82665238D01*
X137963333Y-82727143D01*
X138272857Y-82727143D01*
X138520476Y-82665238D01*
X138644286Y-82603334D01*
X138706190Y-82541429D01*
X138768095Y-82417619D01*
X138768095Y-82293810D01*
X138706190Y-82170000D01*
X138644286Y-82108096D01*
X138520476Y-82046191D01*
X138272857Y-81984286D01*
X137963333Y-81984286D01*
X137715714Y-82046191D01*
X137591905Y-82108096D01*
X137530000Y-82170000D01*
X137468095Y-82293810D01*
X140764286Y-67777145D02*
X140826190Y-67715240D01*
X140888095Y-67529526D01*
X140888095Y-67405716D01*
X140826190Y-67220002D01*
X140702381Y-67096193D01*
X140578571Y-67034288D01*
X140330952Y-66972383D01*
X140145238Y-66972383D01*
X139897619Y-67034288D01*
X139773810Y-67096193D01*
X139650000Y-67220002D01*
X139588095Y-67405716D01*
X139588095Y-67529526D01*
X139650000Y-67715240D01*
X139711905Y-67777145D01*
X140888095Y-68520002D02*
X140826190Y-68396193D01*
X140702381Y-68334288D01*
X139588095Y-68334288D01*
X140888095Y-69572383D02*
X140207143Y-69572383D01*
X140083333Y-69510478D01*
X140021429Y-69386668D01*
X140021429Y-69139049D01*
X140083333Y-69015240D01*
X140826190Y-69572383D02*
X140888095Y-69448573D01*
X140888095Y-69139049D01*
X140826190Y-69015240D01*
X140702381Y-68953335D01*
X140578571Y-68953335D01*
X140454762Y-69015240D01*
X140392857Y-69139049D01*
X140392857Y-69448573D01*
X140330952Y-69572383D01*
X140888095Y-70191430D02*
X140021429Y-70191430D01*
X140145238Y-70191430D02*
X140083333Y-70253335D01*
X140021429Y-70377144D01*
X140021429Y-70562858D01*
X140083333Y-70686668D01*
X140207143Y-70748573D01*
X140888095Y-70748573D01*
X140207143Y-70748573D02*
X140083333Y-70810477D01*
X140021429Y-70934287D01*
X140021429Y-71120001D01*
X140083333Y-71243811D01*
X140207143Y-71305716D01*
X140888095Y-71305716D01*
X140021429Y-71924763D02*
X141321429Y-71924763D01*
X140083333Y-71924763D02*
X140021429Y-72048572D01*
X140021429Y-72296191D01*
X140083333Y-72420001D01*
X140145238Y-72481906D01*
X140269048Y-72543810D01*
X140640476Y-72543810D01*
X140764286Y-72481906D01*
X140826190Y-72420001D01*
X140888095Y-72296191D01*
X140888095Y-72048572D01*
X140826190Y-71924763D01*
X140207143Y-74524762D02*
X140269048Y-74710476D01*
X140330952Y-74772381D01*
X140454762Y-74834286D01*
X140640476Y-74834286D01*
X140764286Y-74772381D01*
X140826190Y-74710476D01*
X140888095Y-74586667D01*
X140888095Y-74091429D01*
X139588095Y-74091429D01*
X139588095Y-74524762D01*
X139650000Y-74648572D01*
X139711905Y-74710476D01*
X139835714Y-74772381D01*
X139959524Y-74772381D01*
X140083333Y-74710476D01*
X140145238Y-74648572D01*
X140207143Y-74524762D01*
X140207143Y-74091429D01*
X140888095Y-75577143D02*
X140826190Y-75453334D01*
X140764286Y-75391429D01*
X140640476Y-75329524D01*
X140269048Y-75329524D01*
X140145238Y-75391429D01*
X140083333Y-75453334D01*
X140021429Y-75577143D01*
X140021429Y-75762857D01*
X140083333Y-75886667D01*
X140145238Y-75948572D01*
X140269048Y-76010476D01*
X140640476Y-76010476D01*
X140764286Y-75948572D01*
X140826190Y-75886667D01*
X140888095Y-75762857D01*
X140888095Y-75577143D01*
X140888095Y-77124762D02*
X140207143Y-77124762D01*
X140083333Y-77062857D01*
X140021429Y-76939047D01*
X140021429Y-76691428D01*
X140083333Y-76567619D01*
X140826190Y-77124762D02*
X140888095Y-77000952D01*
X140888095Y-76691428D01*
X140826190Y-76567619D01*
X140702381Y-76505714D01*
X140578571Y-76505714D01*
X140454762Y-76567619D01*
X140392857Y-76691428D01*
X140392857Y-77000952D01*
X140330952Y-77124762D01*
X140888095Y-77743809D02*
X140021429Y-77743809D01*
X140269048Y-77743809D02*
X140145238Y-77805714D01*
X140083333Y-77867618D01*
X140021429Y-77991428D01*
X140021429Y-78115237D01*
X140888095Y-79105714D02*
X139588095Y-79105714D01*
X140826190Y-79105714D02*
X140888095Y-78981904D01*
X140888095Y-78734285D01*
X140826190Y-78610476D01*
X140764286Y-78548571D01*
X140640476Y-78486666D01*
X140269048Y-78486666D01*
X140145238Y-78548571D01*
X140083333Y-78610476D01*
X140021429Y-78734285D01*
X140021429Y-78981904D01*
X140083333Y-79105714D01*
X139588095Y-80529523D02*
X140888095Y-80962856D01*
X139588095Y-81396189D01*
X139588095Y-82077142D02*
X139588095Y-82200951D01*
X139650000Y-82324761D01*
X139711905Y-82386666D01*
X139835714Y-82448570D01*
X140083333Y-82510475D01*
X140392857Y-82510475D01*
X140640476Y-82448570D01*
X140764286Y-82386666D01*
X140826190Y-82324761D01*
X140888095Y-82200951D01*
X140888095Y-82077142D01*
X140826190Y-81953332D01*
X140764286Y-81891428D01*
X140640476Y-81829523D01*
X140392857Y-81767618D01*
X140083333Y-81767618D01*
X139835714Y-81829523D01*
X139711905Y-81891428D01*
X139650000Y-81953332D01*
X139588095Y-82077142D01*
X140764286Y-83067618D02*
X140826190Y-83129523D01*
X140888095Y-83067618D01*
X140826190Y-83005713D01*
X140764286Y-83067618D01*
X140888095Y-83067618D01*
X139588095Y-84305713D02*
X139588095Y-83686666D01*
X140207143Y-83624761D01*
X140145238Y-83686666D01*
X140083333Y-83810475D01*
X140083333Y-84119999D01*
X140145238Y-84243809D01*
X140207143Y-84305713D01*
X140330952Y-84367618D01*
X140640476Y-84367618D01*
X140764286Y-84305713D01*
X140826190Y-84243809D01*
X140888095Y-84119999D01*
X140888095Y-83810475D01*
X140826190Y-83686666D01*
X140764286Y-83624761D01*
X141708095Y-68829525D02*
X141708095Y-69077144D01*
X141770000Y-69200953D01*
X141893810Y-69324763D01*
X142141429Y-69386668D01*
X142574762Y-69386668D01*
X142822381Y-69324763D01*
X142946190Y-69200953D01*
X143008095Y-69077144D01*
X143008095Y-68829525D01*
X142946190Y-68705715D01*
X142822381Y-68581906D01*
X142574762Y-68520001D01*
X142141429Y-68520001D01*
X141893810Y-68581906D01*
X141770000Y-68705715D01*
X141708095Y-68829525D01*
X142141429Y-69943811D02*
X143441429Y-69943811D01*
X142203333Y-69943811D02*
X142141429Y-70067620D01*
X142141429Y-70315239D01*
X142203333Y-70439049D01*
X142265238Y-70500954D01*
X142389048Y-70562858D01*
X142760476Y-70562858D01*
X142884286Y-70500954D01*
X142946190Y-70439049D01*
X143008095Y-70315239D01*
X143008095Y-70067620D01*
X142946190Y-69943811D01*
X142946190Y-71615239D02*
X143008095Y-71491429D01*
X143008095Y-71243810D01*
X142946190Y-71120001D01*
X142822381Y-71058096D01*
X142327143Y-71058096D01*
X142203333Y-71120001D01*
X142141429Y-71243810D01*
X142141429Y-71491429D01*
X142203333Y-71615239D01*
X142327143Y-71677144D01*
X142450952Y-71677144D01*
X142574762Y-71058096D01*
X142141429Y-72234287D02*
X143008095Y-72234287D01*
X142265238Y-72234287D02*
X142203333Y-72296192D01*
X142141429Y-72420001D01*
X142141429Y-72605715D01*
X142203333Y-72729525D01*
X142327143Y-72791430D01*
X143008095Y-72791430D01*
X143008095Y-74400953D02*
X141708095Y-74400953D01*
X142327143Y-74400953D02*
X142327143Y-75143810D01*
X143008095Y-75143810D02*
X141708095Y-75143810D01*
X143008095Y-76320001D02*
X142327143Y-76320001D01*
X142203333Y-76258096D01*
X142141429Y-76134286D01*
X142141429Y-75886667D01*
X142203333Y-75762858D01*
X142946190Y-76320001D02*
X143008095Y-76196191D01*
X143008095Y-75886667D01*
X142946190Y-75762858D01*
X142822381Y-75700953D01*
X142698571Y-75700953D01*
X142574762Y-75762858D01*
X142512857Y-75886667D01*
X142512857Y-76196191D01*
X142450952Y-76320001D01*
X143008095Y-76939048D02*
X142141429Y-76939048D01*
X142389048Y-76939048D02*
X142265238Y-77000953D01*
X142203333Y-77062857D01*
X142141429Y-77186667D01*
X142141429Y-77310476D01*
X143008095Y-78300953D02*
X141708095Y-78300953D01*
X142946190Y-78300953D02*
X143008095Y-78177143D01*
X143008095Y-77929524D01*
X142946190Y-77805715D01*
X142884286Y-77743810D01*
X142760476Y-77681905D01*
X142389048Y-77681905D01*
X142265238Y-77743810D01*
X142203333Y-77805715D01*
X142141429Y-77929524D01*
X142141429Y-78177143D01*
X142203333Y-78300953D01*
X142141429Y-78796190D02*
X143008095Y-79043809D01*
X142389048Y-79291428D01*
X143008095Y-79539047D01*
X142141429Y-79786666D01*
X143008095Y-80839048D02*
X142327143Y-80839048D01*
X142203333Y-80777143D01*
X142141429Y-80653333D01*
X142141429Y-80405714D01*
X142203333Y-80281905D01*
X142946190Y-80839048D02*
X143008095Y-80715238D01*
X143008095Y-80405714D01*
X142946190Y-80281905D01*
X142822381Y-80220000D01*
X142698571Y-80220000D01*
X142574762Y-80281905D01*
X142512857Y-80405714D01*
X142512857Y-80715238D01*
X142450952Y-80839048D01*
X143008095Y-81458095D02*
X142141429Y-81458095D01*
X142389048Y-81458095D02*
X142265238Y-81520000D01*
X142203333Y-81581904D01*
X142141429Y-81705714D01*
X142141429Y-81829523D01*
X142946190Y-82758095D02*
X143008095Y-82634285D01*
X143008095Y-82386666D01*
X142946190Y-82262857D01*
X142822381Y-82200952D01*
X142327143Y-82200952D01*
X142203333Y-82262857D01*
X142141429Y-82386666D01*
X142141429Y-82634285D01*
X142203333Y-82758095D01*
X142327143Y-82820000D01*
X142450952Y-82820000D01*
X142574762Y-82200952D01*
X143890000Y-69200953D02*
X143828095Y-69077144D01*
X143828095Y-68891429D01*
X143890000Y-68705715D01*
X144013810Y-68581906D01*
X144137619Y-68520001D01*
X144385238Y-68458096D01*
X144570952Y-68458096D01*
X144818571Y-68520001D01*
X144942381Y-68581906D01*
X145066190Y-68705715D01*
X145128095Y-68891429D01*
X145128095Y-69015239D01*
X145066190Y-69200953D01*
X145004286Y-69262858D01*
X144570952Y-69262858D01*
X144570952Y-69015239D01*
X145128095Y-69820001D02*
X143828095Y-69820001D01*
X143828095Y-70315239D01*
X143890000Y-70439048D01*
X143951905Y-70500953D01*
X144075714Y-70562858D01*
X144261429Y-70562858D01*
X144385238Y-70500953D01*
X144447143Y-70439048D01*
X144509048Y-70315239D01*
X144509048Y-69820001D01*
X145128095Y-71739048D02*
X145128095Y-71120001D01*
X143828095Y-71120001D01*
X144261429Y-72048572D02*
X145128095Y-72358096D01*
X144261429Y-72667620D01*
X143828095Y-73039048D02*
X143828095Y-73843810D01*
X144323333Y-73410477D01*
X144323333Y-73596191D01*
X144385238Y-73720001D01*
X144447143Y-73781905D01*
X144570952Y-73843810D01*
X144880476Y-73843810D01*
X145004286Y-73781905D01*
X145066190Y-73720001D01*
X145128095Y-73596191D01*
X145128095Y-73224763D01*
X145066190Y-73100953D01*
X145004286Y-73039048D01*
X145128095Y-75577143D02*
X145066190Y-75453334D01*
X144942381Y-75391429D01*
X143828095Y-75391429D01*
X145128095Y-76072381D02*
X144261429Y-76072381D01*
X143828095Y-76072381D02*
X143890000Y-76010476D01*
X143951905Y-76072381D01*
X143890000Y-76134286D01*
X143828095Y-76072381D01*
X143951905Y-76072381D01*
X145066190Y-77248572D02*
X145128095Y-77124762D01*
X145128095Y-76877143D01*
X145066190Y-76753334D01*
X145004286Y-76691429D01*
X144880476Y-76629524D01*
X144509048Y-76629524D01*
X144385238Y-76691429D01*
X144323333Y-76753334D01*
X144261429Y-76877143D01*
X144261429Y-77124762D01*
X144323333Y-77248572D01*
X145066190Y-78300953D02*
X145128095Y-78177143D01*
X145128095Y-77929524D01*
X145066190Y-77805715D01*
X144942381Y-77743810D01*
X144447143Y-77743810D01*
X144323333Y-77805715D01*
X144261429Y-77929524D01*
X144261429Y-78177143D01*
X144323333Y-78300953D01*
X144447143Y-78362858D01*
X144570952Y-78362858D01*
X144694762Y-77743810D01*
X144261429Y-78920001D02*
X145128095Y-78920001D01*
X144385238Y-78920001D02*
X144323333Y-78981906D01*
X144261429Y-79105715D01*
X144261429Y-79291429D01*
X144323333Y-79415239D01*
X144447143Y-79477144D01*
X145128095Y-79477144D01*
X145066190Y-80034286D02*
X145128095Y-80158096D01*
X145128095Y-80405715D01*
X145066190Y-80529524D01*
X144942381Y-80591429D01*
X144880476Y-80591429D01*
X144756667Y-80529524D01*
X144694762Y-80405715D01*
X144694762Y-80220000D01*
X144632857Y-80096191D01*
X144509048Y-80034286D01*
X144447143Y-80034286D01*
X144323333Y-80096191D01*
X144261429Y-80220000D01*
X144261429Y-80405715D01*
X144323333Y-80529524D01*
X145066190Y-81643810D02*
X145128095Y-81520000D01*
X145128095Y-81272381D01*
X145066190Y-81148572D01*
X144942381Y-81086667D01*
X144447143Y-81086667D01*
X144323333Y-81148572D01*
X144261429Y-81272381D01*
X144261429Y-81520000D01*
X144323333Y-81643810D01*
X144447143Y-81705715D01*
X144570952Y-81705715D01*
X144694762Y-81086667D01*
X145128095Y-82820001D02*
X143828095Y-82820001D01*
X145066190Y-82820001D02*
X145128095Y-82696191D01*
X145128095Y-82448572D01*
X145066190Y-82324763D01*
X145004286Y-82262858D01*
X144880476Y-82200953D01*
X144509048Y-82200953D01*
X144385238Y-82262858D01*
X144323333Y-82324763D01*
X144261429Y-82448572D01*
X144261429Y-82696191D01*
X144323333Y-82820001D01*
M02*
