M48
;DRILL file {KiCad (2015-11-02 BZR 6292, Git 85c3ae3)-product} date 12/7/2015 2:01:30 PM
;FORMAT={-:-/ absolute / inch / decimal}
FMAT,2
INCH,TZ
T1C0.016
T2C0.028
%
G90
G05
M72
T1
X5.29Y-3.62
X5.305Y-3.71
X5.43Y-3.895
X5.495Y-3.69
X5.915Y-3.72
T2
X5.795Y-3.48
X5.795Y-3.53
X5.795Y-3.58
X5.795Y-3.63
X5.795Y-3.68
X5.845Y-3.48
X5.845Y-3.53
X5.845Y-3.58
X5.845Y-3.63
X5.845Y-3.68
T0
M30
