(module 2-SMD_no_lead_alt (layer F.Cu) (tedit 5B8EDF3B)
  (descr "Philips Lumileds Luxeon Z")
  (tags "Luxeon Z")
  (fp_text reference D8 (at -2.8044 -0.3768) (layer F.SilkS)
    (effects (font (size 0.5 0.5) (thickness 0.1)))
  )
  (fp_text value SFH-4 (at 0.1 1.7) (layer F.SilkS)
    (effects (font (size 0.3 0.3) (thickness 0.04)))
  )
  (fp_line (start 1.1 0.25) (end 0.85 0.25) (layer B.Paste) (width 0.05))
  (fp_line (start 1.1 -0.25) (end 1.1 0.25) (layer B.Paste) (width 0.05))
  (fp_line (start 0.85 -0.25) (end 1.1 -0.25) (layer B.Paste) (width 0.05))
  (fp_line (start -0.5 -0.62) (end -0.5 -0.8) (layer B.Paste) (width 0.05))
  (fp_line (start 0.5 -0.62) (end 0.5 -0.8) (layer B.Paste) (width 0.05))
  (fp_line (start 0.5 0.62) (end 0.5 0.8) (layer B.Paste) (width 0.05))
  (fp_line (start -0.5 0.62) (end -0.5 0.8) (layer B.Paste) (width 0.05))
  (fp_arc (start 0 0) (end -0.499999 -0.619999) (angle -102.2310071) (layer B.Paste) (width 0.05))
  (fp_arc (start 0 0) (end 0.499999 0.619999) (angle -102.2310071) (layer B.Paste) (width 0.05))
  (fp_line (start 0.83 -0.8) (end 0.83 0.8) (layer B.Paste) (width 0.05))
  (fp_line (start -0.83 -0.8) (end -0.83 0.8) (layer B.Paste) (width 0.05))
  (fp_circle (center 0 0) (end 0.5 0) (layer F.SilkS) (width 0.05))
  (fp_line (start 1.6 0.8) (end 1.6 -0.8) (layer F.SilkS) (width 0.05))
  (fp_line (start 1.6 0.8) (end -1.6 0.8) (layer F.SilkS) (width 0.05))
  (fp_line (start 1.6 0.9) (end 1.6 1.3) (layer B.Paste) (width 0.05))
  (fp_line (start 1.9 1.1) (end 1.8 1.1) (layer B.Paste) (width 0.05))
  (fp_line (start 1.3 1.1) (end 1.8 1.1) (layer B.Paste) (width 0.05))
  (fp_line (start -1.6 0.8) (end -1.6 -0.8) (layer F.SilkS) (width 0.05))
  (fp_line (start 1.6 -0.8) (end -1.6 -0.8) (layer F.SilkS) (width 0.05))
  (pad 1 thru_hole circle (at 1.65 -0.55) (size 0.381 0.381) (drill 0.254) (layers *.Cu F.Mask))
  (pad 1 thru_hole circle (at 1.65 0.55) (size 0.381 0.381) (drill 0.254) (layers *.Cu F.Mask))
  (pad 2 thru_hole circle (at -1.65 0.55) (size 0.381 0.381) (drill 0.254) (layers *.Cu F.Mask))
  (pad 2 thru_hole circle (at -1.65 -0.55) (size 0.381 0.381) (drill 0.254) (layers *.Cu F.Mask))
  (pad 1 smd rect (at 1.65 0) (size 1 1.6) (layers F.Cu F.Paste F.Mask))
  (pad 2 smd rect (at -1.65 0) (size 1 1.6) (layers F.Cu F.Paste F.Mask))
  (model walter\smd_leds\luxeon_m.wrl
    (at (xyz 0 0 0))
    (scale (xyz 1 1 1))
    (rotate (xyz 0 0 0))
  )
)
