(module conn_usb_B_micro_smd-4 (layer F.Cu) (tedit 564DFE6E)
  (descr "10118194-0001LF  USB B micro SMD connector with retention pins")
  (tags "USB, B, micro, SMD, connector")
  (attr smd)
  (fp_text reference P4 (at 0 2.60096) (layer F.SilkS)
    (effects (font (size 0.4 0.4) (thickness 0.1)))
  )
  (fp_text value USB_MICRO (at 0 -4.0005) (layer F.SilkS)
    (effects (font (size 0.4 0.4) (thickness 0.1)))
  )
  (fp_line (start -4.20116 1.99898) (end 4.20116 1.99898) (layer F.SilkS) (width 0.20066))
  (fp_line (start -4.20116 2.10058) (end 4.20116 2.10058) (layer F.SilkS) (width 0.20066))
  (fp_line (start 3.90116 2.25058) (end 3.90116 2.04992) (layer F.SilkS) (width 0.20066))
  (fp_line (start 4.20116 1.45) (end -4.20116 1.45) (layer F.SilkS) (width 0.20066))
  (fp_line (start -3.90116 2.04992) (end -3.90116 2.25058) (layer F.SilkS) (width 0.20066))
  (fp_line (start -4.2989 2.00058) (end -4.2989 -3.00068) (layer F.SilkS) (width 0.20066))
  (fp_line (start -3.8989 -3.30068) (end 3.8989 -3.30068) (layer F.SilkS) (width 0.20066))
  (fp_line (start 4.2989 -2.90068) (end 4.2989 2.10058) (layer F.SilkS) (width 0.20066))
  (pad "" smd rect (at -1.19888 0) (size 1.89738 1.89738) (layers F.Cu F.Paste F.Mask))
  (pad "" smd rect (at 1.19888 0) (size 1.89738 1.89738) (layers F.Cu F.Paste F.Mask))
  (pad "" smd rect (at 3.5 0) (size 1.65 1.55) (layers F.Cu F.Paste F.Mask))
  (pad "" smd rect (at -3.5 0) (size 1.65 1.55) (layers F.Cu F.Paste F.Mask))
  (pad 1 smd rect (at -1.30048 -2.67462) (size 0.39878 1.34874) (layers F.Cu F.Paste F.Mask))
  (pad 2 smd rect (at -0.6477 -2.67462) (size 0.39878 1.3462) (layers F.Cu F.Paste F.Mask))
  (pad 3 smd rect (at 0 -2.67462) (size 0.39878 1.3462) (layers F.Cu F.Paste F.Mask))
  (pad 4 smd rect (at 0.6477 -2.67462) (size 0.39878 1.3462) (layers F.Cu F.Paste F.Mask))
  (pad 5 smd rect (at 1.30048 -2.67462) (size 0.39878 1.3462) (layers F.Cu F.Paste F.Mask))
  (pad "" thru_hole oval (at 2.5 -2.67462) (size 1.25 0.95) (drill oval 0.85 0.55) (layers *.Cu *.Mask F.SilkS))
  (pad "" thru_hole oval (at -2.5 -2.67462) (size 1.25 0.95) (drill oval 0.85 0.55) (layers *.Cu *.Mask F.SilkS))
  (pad "" thru_hole oval (at 3.5 0) (size 1 1.524) (drill oval 0.5 1.15) (layers *.Cu *.Mask F.SilkS))
  (pad "" thru_hole oval (at -3.5 0) (size 1 1.524) (drill oval 0.5 1.15) (layers *.Cu *.Mask F.SilkS))
  (model walter\conn_pc\usb_B_micro_smd-2.wrl
    (at (xyz 0 0 0))
    (scale (xyz 1 1 1))
    (rotate (xyz 0 0 0))
  )
)
