(module Luxeon_Zt (layer F.Cu) (tedit 55EA0088)
  (descr "Philips Lumileds Luxeon Z")
  (tags "Luxeon Zt")
  (attr smd)
  (fp_text reference D2 (at 0.20066 -1.62052) (layer F.SilkS)
    (effects (font (size 0.5 0.5) (thickness 0.1)))
  )
  (fp_text value LEDT (at 0.10922 1.21412) (layer F.SilkS)
    (effects (font (size 0.5 0.5) (thickness 0.05)))
  )
  (fp_line (start 0.55 -0.75) (end -0.55 0.25) (layer F.SilkS) (width 0.02))
  (fp_line (start 0.55 -0.75) (end 0.55 0.25) (layer F.SilkS) (width 0.02))
  (fp_line (start 0.55 0.25) (end -0.55 0.25) (layer F.SilkS) (width 0.02))
  (fp_line (start -0.55 0.25) (end -0.55 -0.75) (layer F.SilkS) (width 0.02))
  (fp_line (start -0.55 -0.75) (end 0.55 0.25) (layer F.SilkS) (width 0.02))
  (fp_line (start -0.55 -0.75) (end 0.55 -0.75) (layer F.SilkS) (width 0.02))
  (fp_line (start -0.65 -0.85) (end 0.65 -0.85) (layer F.SilkS) (width 0.05))
  (fp_line (start 0.65 -0.85) (end 0.65 0.85) (layer F.SilkS) (width 0.05))
  (fp_line (start 0.65 0.85) (end -0.65 0.85) (layer F.SilkS) (width 0.05))
  (fp_line (start -0.65 0.85) (end -0.65 -0.85) (layer F.SilkS) (width 0.05))
  (pad 2 smd rect (at -0.325 0) (size 0.4 1.5) (layers F.Cu))
  (pad 1 smd rect (at 0.325 0) (size 0.4 1.5) (layers F.Cu))
  (pad 1 thru_hole circle (at 0.3302 -0.3048) (size 0.2032 0.2032) (drill 0.1524) (layers *.Cu *.Mask F.SilkS))
  (pad 1 thru_hole circle (at 0.3302 0) (size 0.2032 0.2032) (drill 0.1524) (layers *.Cu *.Mask F.SilkS))
  (pad 1 thru_hole circle (at 0.3302 -0.635) (size 0.2032 0.2032) (drill 0.1524) (layers *.Cu *.Mask F.SilkS))
  (pad 1 thru_hole circle (at 0.3302 0.3048) (size 0.2032 0.2032) (drill 0.1524) (layers *.Cu *.Mask F.SilkS))
  (pad 2 thru_hole circle (at -0.3302 0) (size 0.2032 0.2032) (drill 0.1524) (layers *.Cu *.Mask F.SilkS))
  (pad 1 thru_hole circle (at 0.3302 0.6096) (size 0.2032 0.2032) (drill 0.1524) (layers *.Cu *.Mask F.SilkS))
  (pad 2 thru_hole circle (at -0.3302 -0.3048) (size 0.2032 0.2032) (drill 0.1524) (layers *.Cu *.Mask F.SilkS))
  (pad 2 thru_hole circle (at -0.3302 -0.635) (size 0.2032 0.2032) (drill 0.1524) (layers *.Cu *.Mask F.SilkS))
  (pad 2 thru_hole circle (at -0.3302 0.3048) (size 0.2032 0.2032) (drill 0.1524) (layers *.Cu *.Mask F.SilkS))
  (pad 2 thru_hole circle (at -0.3302 0.635) (size 0.2032 0.2032) (drill 0.1524) (layers *.Cu *.Mask F.SilkS))
  (model walter\smd_leds\luxeon_m.wrl
    (at (xyz 0 0 0))
    (scale (xyz 1 1 1))
    (rotate (xyz 0 0 0))
  )
)
