EESchema Schematic File Version 2
LIBS:multispec
LIBS:main-rescue
LIBS:main-cache
LIBS:power
LIBS:device
LIBS:transistors
LIBS:conn
LIBS:linear
LIBS:regul
LIBS:74xx
LIBS:cmos4000
LIBS:adc-dac
LIBS:memory
LIBS:xilinx
LIBS:microcontrollers
LIBS:dsp
LIBS:microchip
LIBS:analog_switches
LIBS:motorola
LIBS:texas
LIBS:intel
LIBS:audio
LIBS:interface
LIBS:digital-audio
LIBS:philips
LIBS:display
LIBS:cypress
LIBS:siliconi
LIBS:opto
LIBS:atmel
LIBS:contrib
LIBS:valves
EELAYER 25 0
EELAYER END
$Descr A4 11693 8268
encoding utf-8
Sheet 6 9
Title "Reflectance 1.0"
Date "2017-04-24"
Rev "1.0"
Comp "OurSci"
Comment1 "Zegarac Robert"
Comment2 "Jon Zeeff"
Comment3 ""
Comment4 ""
$EndDescr
$Comp
L TPS63700 U17
U 1 1 56103D11
P 5850 5200
F 0 "U17" H 5850 5225 60  0000 C CNN
F 1 "TPS63700" H 5850 5525 50  0000 C CNN
F 2 "multispeq:DFN-10-1EP_3x3mm_Pitch0.5mm" H 5850 5200 60  0001 C CNN
F 3 "TPS63700DRCR" H 5850 5200 60  0001 C CNN
F 4 "TPS63700DRCR" H 5850 5200 60  0001 C CNN "manf#"
	1    5850 5200
	1    0    0    -1  
$EndComp
Text Notes 5550 4800 0    60   ~ 0
Batt to -7V
$Comp
L R R54
U 1 1 561043BE
P 4700 5200
F 0 "R54" V 4780 5200 50  0000 C CNN
F 1 "10" V 4700 5200 50  0000 C CNN
F 2 "multispeq:r_0603" V 4630 5200 30  0001 C CNN
F 3 "RC1608J100CS" H 4700 5200 30  0001 C CNN
F 4 "RC1608J100CS" H 4700 5200 60  0001 C CNN "manf#"
	1    4700 5200
	0    -1   -1   0   
$EndComp
$Comp
L D_Schottky_Small D7
U 1 1 56104409
P 7000 5400
F 0 "D7" H 6950 5480 50  0000 L CNN
F 1 "SL03" H 6950 5300 50  0000 L CNN
F 2 "multispeq:SOD-123" V 7000 5400 60  0001 C CNN
F 3 "1N5819HW-7-F" V 7000 5400 60  0001 C CNN
F 4 "1N5819HW-7-F" H 7000 5400 60  0001 C CNN "manf#"
	1    7000 5400
	1    0    0    -1  
$EndComp
$Comp
L GND #PWR042
U 1 1 56104B00
P 5850 5650
F 0 "#PWR042" H 5850 5400 50  0001 C CNN
F 1 "GND" H 5850 5500 50  0000 C CNN
F 2 "" H 5850 5650 60  0000 C CNN
F 3 "" H 5850 5650 60  0000 C CNN
	1    5850 5650
	1    0    0    -1  
$EndComp
$Comp
L GND #PWR043
U 1 1 5611E1C6
P 5150 5725
F 0 "#PWR043" H 5150 5475 50  0001 C CNN
F 1 "GND" H 5150 5575 50  0000 C CNN
F 2 "" H 5150 5725 60  0000 C CNN
F 3 "" H 5150 5725 60  0000 C CNN
	1    5150 5725
	1    0    0    -1  
$EndComp
$Comp
L C C46
U 1 1 5611F479
P 5200 5000
F 0 "C46" H 5225 5100 50  0000 L CNN
F 1 "4.7n" H 5225 4900 50  0000 L CNN
F 2 "multispeq:c_0603" H 5238 4850 30  0001 C CNN
F 3 "CL10B472KB8NNNC" H 5200 5000 60  0001 C CNN
F 4 "CL10B472KB8NNNC" H 5200 5000 60  0001 C CNN "manf#"
	1    5200 5000
	0    -1   -1   0   
$EndComp
Text HLabel 8400 5400 2    60   Output ~ 0
-7V
$Comp
L C C54
U 1 1 5612236B
P 7700 5150
F 0 "C54" H 7725 5250 50  0000 L CNN
F 1 "22p" H 7725 5050 50  0000 L CNN
F 2 "multispeq:c_0603" H 7738 5000 30  0001 C CNN
F 3 "06035A220JAT2A" H 7700 5150 60  0001 C CNN
F 4 "06035A220JAT2A" H 7700 5150 60  0001 C CNN "manf#"
	1    7700 5150
	0    1    1    0   
$EndComp
$Comp
L TPS61252 U18
U 1 1 5612A5C1
P 5950 1450
F 0 "U18" H 5950 1400 60  0000 C CNN
F 1 "TPS61252" H 5950 1700 50  0000 C CNN
F 2 "multispeq:DFN-8-1EP_2x2mm_Pitch0.5mm" H 5950 1450 60  0001 C CNN
F 3 "TPS61252DSGR" H 5950 1450 60  0001 C CNN
F 4 "TPS61252DSGR" H 5950 1450 60  0001 C CNN "manf#"
	1    5950 1450
	-1   0    0    -1  
$EndComp
$Comp
L R R57
U 1 1 5612A5CD
P 6650 1600
F 0 "R57" V 6730 1600 50  0000 C CNN
F 1 "27K" V 6650 1600 50  0000 C CNN
F 2 "multispeq:r_0603" V 6580 1600 30  0001 C CNN
F 3 "RC0603JR-0727KL" H 6650 1600 30  0001 C CNN
F 4 "RC0603JR-0727KL" H 6650 1600 60  0001 C CNN "manf#"
	1    6650 1600
	1    0    0    -1  
$EndComp
$Comp
L C C50
U 1 1 5612A5DF
P 6850 1600
F 0 "C50" H 6875 1700 50  0000 L CNN
F 1 "22p" H 6875 1500 50  0000 L CNN
F 2 "multispeq:c_0603" H 6888 1450 30  0001 C CNN
F 3 "06035A220JAT2A" H 6850 1600 60  0001 C CNN
F 4 "06035A220JAT2A" H 6850 1600 60  0001 C CNN "manf#"
	1    6850 1600
	1    0    0    -1  
$EndComp
$Comp
L INDUCTOR_SMALL L3
U 1 1 5612A5EB
P 5050 1400
F 0 "L3" H 5250 1350 50  0000 C CNN
F 1 "1.2uH" H 5050 1350 50  0000 C CNN
F 2 "multispeq:Neosid_Inductor_4R7" H 5050 1400 60  0001 C CNN
F 3 "SRN4026-1R2Y" H 5050 1400 60  0001 C CNN
F 4 "SRN4026-1R2Y" H 5050 1400 60  0001 C CNN "manf#"
	1    5050 1400
	1    0    0    -1  
$EndComp
$Comp
L R R56
U 1 1 5612A5FE
P 6350 1950
F 0 "R56" V 6430 1950 50  0000 C CNN
F 1 "6.8K" V 6350 1950 50  0000 C CNN
F 2 "multispeq:r_0603" V 6280 1950 30  0001 C CNN
F 3 "RC0603JR-076K8L" H 6350 1950 30  0001 C CNN
F 4 "RC0603JR-076K8L" H 6350 1950 60  0001 C CNN "manf#"
	1    6350 1950
	1    0    0    -1  
$EndComp
$Comp
L GND #PWR044
U 1 1 5612A625
P 4700 1900
F 0 "#PWR044" H 4700 1650 50  0001 C CNN
F 1 "GND" H 4700 1750 50  0000 C CNN
F 2 "" H 4700 1900 60  0000 C CNN
F 3 "" H 4700 1900 60  0000 C CNN
	1    4700 1900
	1    0    0    -1  
$EndComp
$Comp
L GND #PWR045
U 1 1 5612A62B
P 6550 1200
F 0 "#PWR045" H 6550 950 50  0001 C CNN
F 1 "GND" H 6550 1050 50  0000 C CNN
F 2 "" H 6550 1200 60  0000 C CNN
F 3 "" H 6550 1200 60  0000 C CNN
	1    6550 1200
	1    0    0    -1  
$EndComp
Text HLabel 8200 1400 2    60   Output ~ 0
+6V
Text HLabel 4650 1875 0    60   Output ~ 0
GNDb
$Comp
L GND #PWR046
U 1 1 561343D2
P 6350 2200
F 0 "#PWR046" H 6350 1950 50  0001 C CNN
F 1 "GND" H 6350 2050 50  0000 C CNN
F 2 "" H 6350 2200 60  0000 C CNN
F 3 "" H 6350 2200 60  0000 C CNN
	1    6350 2200
	1    0    0    -1  
$EndComp
$Comp
L GND #PWR047
U 1 1 561348D5
P 7150 1850
F 0 "#PWR047" H 7150 1600 50  0001 C CNN
F 1 "GND" H 7150 1700 50  0000 C CNN
F 2 "" H 7150 1850 60  0000 C CNN
F 3 "" H 7150 1850 60  0000 C CNN
	1    7150 1850
	1    0    0    -1  
$EndComp
$Comp
L GND #PWR048
U 1 1 56135414
P 7250 5850
F 0 "#PWR048" H 7250 5600 50  0001 C CNN
F 1 "GND" H 7250 5700 50  0000 C CNN
F 2 "" H 7250 5850 60  0000 C CNN
F 3 "" H 7250 5850 60  0000 C CNN
	1    7250 5850
	1    0    0    -1  
$EndComp
$Comp
L PWR_FLAG #FLG049
U 1 1 56271EE7
P 8325 5250
F 0 "#FLG049" H 8325 5345 50  0001 C CNN
F 1 "PWR_FLAG" H 8325 5430 50  0000 C CNN
F 2 "" H 8325 5250 60  0000 C CNN
F 3 "" H 8325 5250 60  0000 C CNN
	1    8325 5250
	1    0    0    -1  
$EndComp
$Comp
L GND #PWR050
U 1 1 564A76BF
P 6650 4900
F 0 "#PWR050" H 6650 4650 50  0001 C CNN
F 1 "GND" H 6650 4750 50  0000 C CNN
F 2 "" H 6650 4900 60  0000 C CNN
F 3 "" H 6650 4900 60  0000 C CNN
	1    6650 4900
	1    0    0    -1  
$EndComp
Text Notes 2025 810  0    100  ~ 0
DC-DC converters & ON/SW\n
$Comp
L INDUCTOR_SMALL L5
U 1 1 562C50C2
P 6850 5850
F 0 "L5" H 6850 5950 50  0000 C CNN
F 1 "10uH" H 6850 5800 50  0000 C CNN
F 2 "multispeq:Neosid_Inductor_LQH32" H 6850 5850 60  0001 C CNN
F 3 "LQH32PN100MN0L" H 6850 5850 60  0001 C CNN
F 4 "LQH32PN100MN0L" H 6850 5850 60  0001 C CNN "manf#"
	1    6850 5850
	-1   0    0    1   
$EndComp
$Comp
L INDUCTOR_SMALL L7
U 1 1 562C6124
P 7700 5400
F 0 "L7" H 7700 5500 50  0000 C CNN
F 1 "10uH" H 7700 5350 50  0000 C CNN
F 2 "multispeq:Neosid_Inductor_LQH32" H 7700 5400 60  0001 C CNN
F 3 "LQH32PN100MN0L" H 7700 5400 60  0001 C CNN
F 4 "LQH32PN100MN0L" H 7700 5400 60  0001 C CNN "manf#"
	1    7700 5400
	-1   0    0    1   
$EndComp
$Comp
L C C53
U 1 1 562CDEF4
P 7400 5700
F 0 "C53" H 7425 5800 50  0000 L CNN
F 1 "100u" H 7425 5600 50  0000 L CNN
F 2 "multispeq:C_1210" H 7438 5550 30  0001 C CNN
F 3 "CL32A107MPVNNNE" H 7400 5700 60  0001 C CNN
F 4 "CL32A107MPVNNNE" H 7400 5700 60  0001 C CNN "manf#"
	1    7400 5700
	1    0    0    -1  
$EndComp
$Comp
L R R63
U 1 1 56307561
P 8000 5150
F 0 "R63" V 8080 5150 50  0000 C CNN
F 1 "130K" V 8000 5150 50  0000 C CNN
F 2 "multispeq:r_0603" V 7930 5150 30  0001 C CNN
F 3 "RC0603JR-07130KL" H 8000 5150 30  0001 C CNN
F 4 "RC0603JR-07130KL" H 8000 5150 60  0001 C CNN "manf#"
	1    8000 5150
	-1   0    0    1   
$EndComp
$Comp
L R R58
U 1 1 563307ED
P 6650 2000
F 0 "R58" V 6730 2000 50  0000 C CNN
F 1 "6.8K" V 6650 2000 50  0000 C CNN
F 2 "multispeq:r_0603" V 6580 2000 30  0001 C CNN
F 3 "RC0603JR-076K8L" H 6650 2000 30  0001 C CNN
F 4 "RC0603JR-076K8L" H 6650 2000 60  0001 C CNN "manf#"
	1    6650 2000
	1    0    0    -1  
$EndComp
$Comp
L R R61
U 1 1 563331AB
P 7400 4800
F 0 "R61" V 7480 4800 50  0000 C CNN
F 1 "27K" V 7400 4800 50  0000 C CNN
F 2 "multispeq:r_0603" V 7330 4800 30  0001 C CNN
F 3 "RC0603JR-0727KL" H 7400 4800 30  0001 C CNN
F 4 "RC0603JR-0727KL" H 7400 4800 60  0001 C CNN "manf#"
	1    7400 4800
	1    0    0    -1  
$EndComp
$Comp
L R R62
U 1 1 563357A8
P 7400 5200
F 0 "R62" V 7480 5200 50  0000 C CNN
F 1 "18K" V 7400 5200 50  0000 C CNN
F 2 "multispeq:r_0603" V 7330 5200 30  0001 C CNN
F 3 "RC0603JR-0718KL" H 7400 5200 30  0001 C CNN
F 4 "RC0603JR-0718KL" H 7400 5200 60  0001 C CNN "manf#"
	1    7400 5200
	1    0    0    -1  
$EndComp
$Comp
L GND #PWR051
U 1 1 5641E388
P 7900 1850
F 0 "#PWR051" H 7900 1600 50  0001 C CNN
F 1 "GND" H 7900 1700 50  0000 C CNN
F 2 "" H 7900 1850 60  0000 C CNN
F 3 "" H 7900 1850 60  0000 C CNN
	1    7900 1850
	1    0    0    -1  
$EndComp
$Comp
L PWR_FLAG #FLG052
U 1 1 56463D2C
P 7900 1400
F 0 "#FLG052" H 7900 1495 50  0001 C CNN
F 1 "PWR_FLAG" H 7900 1580 50  0000 C CNN
F 2 "" H 7900 1400 60  0000 C CNN
F 3 "" H 7900 1400 60  0000 C CNN
	1    7900 1400
	1    0    0    -1  
$EndComp
$Comp
L C C56
U 1 1 5645AC4B
P 8000 5650
F 0 "C56" H 8025 5750 50  0000 L CNN
F 1 "100u" H 8025 5550 50  0000 L CNN
F 2 "multispeq:C_1210" H 8038 5500 30  0001 C CNN
F 3 "CL32A107MPVNNNE" H 8000 5650 60  0001 C CNN
F 4 "CL32A107MPVNNNE" H 8000 5650 60  0001 C CNN "manf#"
	1    8000 5650
	1    0    0    -1  
$EndComp
$Comp
L C C51
U 1 1 5645BC41
P 7150 1600
F 0 "C51" H 7175 1700 50  0000 L CNN
F 1 "100u" H 7175 1500 50  0000 L CNN
F 2 "multispeq:C_1210" H 7188 1450 30  0001 C CNN
F 3 "CL32A107MPVNNNE" H 7150 1600 60  0001 C CNN
F 4 "CL32A107MPVNNNE" H 7150 1600 60  0001 C CNN "manf#"
	1    7150 1600
	1    0    0    -1  
$EndComp
$Comp
L C C55
U 1 1 5645C331
P 7900 1575
F 0 "C55" H 7725 1475 50  0000 L CNN
F 1 "100u" H 7925 1475 50  0000 L CNN
F 2 "multispeq:C_1210" H 7938 1425 30  0001 C CNN
F 3 "CL32A107MPVNNNE" H 7900 1575 60  0001 C CNN
F 4 "CL32A107MPVNNNE" H 7900 1575 60  0001 C CNN "manf#"
	1    7900 1575
	1    0    0    -1  
$EndComp
$Comp
L C C45
U 1 1 565F5FF3
P 5000 5575
F 0 "C45" H 5025 5675 50  0000 L CNN
F 1 "10u" H 5025 5475 50  0000 L CNN
F 2 "multispeq:c_0603" H 5038 5425 30  0001 C CNN
F 3 "CC0603KRX5R6BB106" H 5000 5575 60  0001 C CNN
F 4 "CC0603KRX5R6BB106" H 5000 5575 60  0001 C CNN "manf#"
	1    5000 5575
	1    0    0    -1  
$EndComp
$Comp
L C C47
U 1 1 56603BC3
P 5250 5575
F 0 "C47" H 5275 5675 50  0000 L CNN
F 1 "10u" H 5275 5475 50  0000 L CNN
F 2 "multispeq:c_0603" H 5288 5425 30  0001 C CNN
F 3 "CC0603KRX5R6BB106" H 5250 5575 60  0001 C CNN
F 4 "CC0603KRX5R6BB106" H 5250 5575 60  0001 C CNN "manf#"
	1    5250 5575
	1    0    0    -1  
$EndComp
$Comp
L C C44
U 1 1 566049B8
P 4700 1700
F 0 "C44" H 4725 1800 50  0000 L CNN
F 1 "10u" H 4725 1600 50  0000 L CNN
F 2 "multispeq:c_0603" H 4738 1550 30  0001 C CNN
F 3 "CC0603KRX5R6BB106" H 4700 1700 60  0001 C CNN
F 4 "CC0603KRX5R6BB106" H 4700 1700 60  0001 C CNN "manf#"
	1    4700 1700
	1    0    0    -1  
$EndComp
$Comp
L C C49
U 1 1 56604F36
P 6800 4800
F 0 "C49" H 6825 4900 50  0000 L CNN
F 1 "10u" H 6825 4700 50  0000 L CNN
F 2 "multispeq:c_0603" H 6838 4650 30  0001 C CNN
F 3 "CC0603KRX5R6BB106" H 6800 4800 60  0001 C CNN
F 4 "CC0603KRX5R6BB106" H 6800 4800 60  0001 C CNN "manf#"
	1    6800 4800
	0    1    1    0   
$EndComp
Text HLabel 2865 3685 0    60   Input ~ 0
DC/DC_on
Connection ~ 4700 1500
Wire Wire Line
	5550 1500 4700 1500
Wire Wire Line
	5400 5300 5250 5300
Wire Wire Line
	7900 1725 7900 1850
Connection ~ 7900 1400
Wire Wire Line
	7900 1425 7900 1400
Wire Wire Line
	7850 1400 8200 1400
Connection ~ 8325 5400
Wire Wire Line
	8325 5400 8325 5250
Connection ~ 5850 5600
Wire Wire Line
	6400 5300 6300 5300
Wire Wire Line
	6400 5600 6400 5300
Wire Wire Line
	5850 5600 6400 5600
Wire Wire Line
	5850 5450 5850 5650
Connection ~ 4700 1875
Wire Wire Line
	4650 1875 4700 1875
Wire Wire Line
	5000 5425 5000 5200
Wire Wire Line
	5250 5300 5250 5425
Wire Wire Line
	7400 4950 7400 5000
Wire Wire Line
	4700 1850 4700 1900
Connection ~ 4700 1300
Wire Wire Line
	4700 1300 4700 1550
Wire Wire Line
	6350 1200 6550 1200
Wire Wire Line
	6350 1300 6350 1200
Wire Wire Line
	7150 1750 7150 1850
Wire Wire Line
	6850 1800 6850 1750
Connection ~ 6650 1800
Wire Wire Line
	6650 1750 6650 1850
Wire Wire Line
	6550 1800 6850 1800
Connection ~ 4800 1300
Wire Wire Line
	4800 1300 4800 1400
Wire Wire Line
	5300 1400 5550 1400
Wire Wire Line
	4650 1300 5550 1300
Connection ~ 6350 2150
Wire Wire Line
	6350 2150 6650 2150
Wire Wire Line
	6350 2100 6350 2200
Wire Wire Line
	6350 1800 6350 1600
Wire Wire Line
	6550 1500 6550 1800
Wire Wire Line
	6350 1500 6550 1500
Connection ~ 6650 1400
Wire Wire Line
	6650 1400 6650 1450
Connection ~ 6850 1400
Wire Wire Line
	6850 1400 6850 1450
Connection ~ 7150 1400
Wire Wire Line
	7150 1400 7150 1450
Wire Wire Line
	6350 1400 7350 1400
Connection ~ 7850 5000
Wire Wire Line
	7850 5000 7850 5150
Wire Wire Line
	7550 5050 7550 5150
Wire Wire Line
	7400 5050 7550 5050
Connection ~ 7400 5000
Wire Wire Line
	7150 5000 8000 5000
Wire Wire Line
	7150 5100 7150 5000
Wire Wire Line
	6950 4650 6950 4800
Wire Wire Line
	6650 4900 6650 4800
Connection ~ 8000 5400
Wire Wire Line
	8000 5300 8000 5500
Connection ~ 7400 5850
Wire Wire Line
	8000 5850 8000 5800
Wire Wire Line
	7950 5400 8400 5400
Wire Wire Line
	5350 5000 5400 5000
Connection ~ 5150 5100
Wire Wire Line
	5050 5000 5050 5100
Connection ~ 6600 5400
Wire Wire Line
	6600 5850 6600 5400
Connection ~ 7250 5850
Wire Wire Line
	7100 5850 8000 5850
Wire Wire Line
	6300 5100 7150 5100
Connection ~ 6950 4650
Wire Wire Line
	6300 4650 7400 4650
Wire Wire Line
	6300 5000 6300 4650
Connection ~ 7400 5400
Connection ~ 7150 5400
Wire Wire Line
	7400 5350 7400 5550
Wire Wire Line
	7100 5400 7450 5400
Wire Wire Line
	7150 5200 7150 5400
Wire Wire Line
	6300 5200 7150 5200
Wire Wire Line
	6300 5400 6900 5400
Connection ~ 5150 5725
Wire Wire Line
	5150 5100 5150 5725
Wire Wire Line
	5050 5100 5400 5100
Wire Wire Line
	5000 5725 5250 5725
Connection ~ 5250 5400
Connection ~ 4500 5200
Wire Wire Line
	4500 5400 4500 5200
Wire Wire Line
	4500 5400 5400 5400
Connection ~ 5000 5200
Wire Wire Line
	4850 5200 5400 5200
Wire Wire Line
	4450 5200 4550 5200
Wire Wire Line
	2865 3135 3315 3135
Wire Wire Line
	3715 2835 3715 3135
Connection ~ 3715 2935
Connection ~ 3715 3035
Wire Wire Line
	3515 3435 3190 3435
$Comp
L Q_NMOS_GDS Q11
U 1 1 56A38620
P 3415 3685
F 0 "Q11" H 3715 3735 50  0000 R CNN
F 1 "Q_NMOS_GDS" H 4065 3635 50  0000 R CNN
F 2 "multispeq:sot23" H 3615 3785 29  0001 C CNN
F 3 "2N7002-TP" H 3415 3685 60  0001 C CNN
F 4 "2N7002-TP" H 3415 3685 60  0001 C CNN "manf#"
	1    3415 3685
	1    0    0    -1  
$EndComp
Wire Wire Line
	3515 3435 3515 3485
Wire Wire Line
	2865 3685 3215 3685
$Comp
L GND #PWR053
U 1 1 56A3C69B
P 3515 3885
F 0 "#PWR053" H 3515 3635 50  0001 C CNN
F 1 "GND" H 3515 3735 50  0000 C CNN
F 2 "" H 3515 3885 60  0000 C CNN
F 3 "" H 3515 3885 60  0000 C CNN
	1    3515 3885
	1    0    0    -1  
$EndComp
Text HLabel 2865 3135 0    60   Input ~ 0
Vbatt
Connection ~ 3190 3135
Wire Wire Line
	3715 3135 3890 3135
$Comp
L R R53
U 1 1 56A440EC
P 3190 3285
F 0 "R53" V 3270 3285 50  0000 C CNN
F 1 "2K" V 3190 3285 50  0000 C CNN
F 2 "multispeq:r_0603" V 3120 3285 30  0001 C CNN
F 3 "RC0603JR-072KL" H 3190 3285 30  0001 C CNN
F 4 "RC0603JR-072KL" H 3190 3285 60  0001 C CNN "manf#"
	1    3190 3285
	-1   0    0    1   
$EndComp
$Comp
L R R52
U 1 1 56A575BE
P 3115 3835
F 0 "R52" V 3195 3835 50  0000 C CNN
F 1 "130K" V 3115 3835 50  0000 C CNN
F 2 "multispeq:r_0603" V 3045 3835 30  0001 C CNN
F 3 "RC0603JR-07130KL" H 3115 3835 30  0001 C CNN
F 4 "RC0603JR-07130KL" H 3115 3835 60  0001 C CNN "manf#"
	1    3115 3835
	-1   0    0    1   
$EndComp
$Comp
L GND #PWR054
U 1 1 56A579CC
P 3115 3985
F 0 "#PWR054" H 3115 3735 50  0001 C CNN
F 1 "GND" H 3115 3835 50  0000 C CNN
F 2 "" H 3115 3985 60  0000 C CNN
F 3 "" H 3115 3985 60  0000 C CNN
	1    3115 3985
	1    0    0    -1  
$EndComp
Connection ~ 3115 3685
Text GLabel 4650 1300 0    60   Input ~ 0
Vbatt_sw
Text GLabel 4450 5200 0    60   Input ~ 0
Vbatt_sw
Text GLabel 3890 3135 2    60   Output ~ 0
Vbatt_sw
$Comp
L MOSP-TSOP6 Q12
U 1 1 56A1EBEA
P 3515 3235
F 0 "Q12" H 3765 3185 40  0000 C CNN
F 1 "P-MOS" H 3865 3285 60  0000 C CNN
F 2 "multispeq:sc70-6L" H 3815 3085 60  0001 C CNN
F 3 "SIA461DJ-T1-GE3" H 3565 3235 60  0001 C CNN
F 4 "SIA461DJ-T1-GE3" H 3515 3235 60  0001 C CNN "manf#"
	1    3515 3235
	0    1    -1   0   
$EndComp
Text Notes 5950 900  0    60   ~ 0
Batt to +6V
Text Notes 7130 1070 0    60   ~ 0
C50 should be 100pf\nR57/58 should be higher \nIlim should connect to Vin
Text Notes 4530 1195 0    60   ~ 0
Was SRN4026-1R0Y
$Comp
L INDUCTOR_SMALL L6
U 1 1 5641D904
P 7600 1400
F 0 "L6" H 7600 1500 50  0000 C CNN
F 1 "ferrite" H 7600 1350 50  0000 C CNN
F 2 "multispeq:r_0805" H 7600 1400 60  0001 C CNN
F 3 "MI0805K601R-10" H 7600 1400 60  0001 C CNN
F 4 "MI0805K601R-10" H 7600 1400 60  0001 C CNN "manf#"
	1    7600 1400
	-1   0    0    1   
$EndComp
NoConn ~ 5550 1600
Text Notes 6000 4400 0    60   ~ 0
Optional
$EndSCHEMATC
