(module BLE_CC2540 locked (layer F.Cu) (tedit 56F53B75)
  (tags "BLE, module, CC2540")
  (attr smd)
  (fp_text reference U4 (at 0.06 6.95) (layer F.SilkS)
    (effects (font (size 0.4 0.4) (thickness 0.1)))
  )
  (fp_text value CC2540-S1 (at 0.3 0.315 180) (layer F.Fab)
    (effects (font (size 0.4 0.4) (thickness 0.1)))
  )
  (fp_line (start 8 -7.875) (end -8 -7.875) (layer F.SilkS) (width 0.15))
  (fp_line (start -8 -7.875) (end -8 7.875) (layer F.SilkS) (width 0.15))
  (fp_line (start -8 7.875) (end 8 7.875) (layer F.SilkS) (width 0.15))
  (fp_line (start 8 7.875) (end 8 -7.875) (layer F.SilkS) (width 0.15))
  (pad 18 smd rect (at 5.65 -3.185 270) (size 0.8 2) (layers F.Cu F.Paste F.Mask))
  (pad 1 smd rect (at -5.65 -3.185 270) (size 0.8 2) (layers F.Cu F.Paste F.Mask))
  (pad 17 smd rect (at 5.65 -1.915 270) (size 0.8 2) (layers F.Cu F.Paste F.Mask))
  (pad 2 smd rect (at -5.65 -1.915 270) (size 0.8 2) (layers F.Cu F.Paste F.Mask))
  (pad 16 smd rect (at 5.65 -0.645 270) (size 0.8 2) (layers F.Cu F.Paste F.Mask))
  (pad 3 smd rect (at -5.65 -0.645 270) (size 0.8 2) (layers F.Cu F.Paste F.Mask))
  (pad 15 smd rect (at 5.65 0.625 270) (size 0.8 2) (layers F.Cu F.Paste F.Mask))
  (pad 4 smd rect (at -5.65 0.625 270) (size 0.8 2) (layers F.Cu F.Paste F.Mask))
  (pad 14 smd rect (at 5.65 1.895 270) (size 0.8 2) (layers F.Cu F.Paste F.Mask))
  (pad 5 smd rect (at -5.65 1.895 270) (size 0.8 2) (layers F.Cu F.Paste F.Mask))
  (pad 13 smd rect (at 5.65 3.165 270) (size 0.8 2) (layers F.Cu F.Paste F.Mask))
  (pad 6 smd rect (at -5.65 3.165 270) (size 0.8 2) (layers F.Cu F.Paste F.Mask))
  (pad 12 smd rect (at 5.65 4.435 270) (size 0.8 2) (layers F.Cu F.Paste F.Mask))
  (pad 7 smd rect (at -5.65 4.435 270) (size 0.8 2) (layers F.Cu F.Paste F.Mask))
  (pad 11 smd rect (at 5.65 5.705 270) (size 0.8 2) (layers F.Cu F.Paste F.Mask))
  (pad 8 smd rect (at -5.65 5.705 270) (size 0.8 2) (layers F.Cu F.Paste F.Mask))
  (pad 10 smd rect (at 5.65 6.975 270) (size 0.8 2) (layers F.Cu F.Paste F.Mask))
  (pad 9 smd rect (at -5.65 6.975 270) (size 0.8 2) (layers F.Cu F.Paste F.Mask))
)
