(module c_elec_5x5.8 (layer F.Cu) (tedit 49F5AF88)
  (descr "SMT capacitor, aluminium electrolytic, 5x5.8")
  (fp_text reference c_elec_5x5.8 (at 0 -3.175) (layer F.SilkS)
    (effects (font (size 0.50038 0.50038) (thickness 0.11938)))
  )
  (fp_text value C*** (at 0 3.175) (layer F.SilkS) hide
    (effects (font (size 0.50038 0.50038) (thickness 0.11938)))
  )
  (fp_line (start -2.286 -0.635) (end -2.286 0.762) (layer F.SilkS) (width 0.127))
  (fp_line (start -2.159 -0.889) (end -2.159 0.889) (layer F.SilkS) (width 0.127))
  (fp_line (start -2.032 -1.27) (end -2.032 1.27) (layer F.SilkS) (width 0.127))
  (fp_line (start -1.905 1.397) (end -1.905 -1.397) (layer F.SilkS) (width 0.127))
  (fp_line (start -1.778 -1.524) (end -1.778 1.524) (layer F.SilkS) (width 0.127))
  (fp_line (start -1.651 1.651) (end -1.651 -1.651) (layer F.SilkS) (width 0.127))
  (fp_line (start -1.524 -1.778) (end -1.524 1.778) (layer F.SilkS) (width 0.127))
  (fp_circle (center 0 0) (end -2.413 0) (layer F.SilkS) (width 0.127))
  (fp_line (start -2.667 -2.667) (end 1.905 -2.667) (layer F.SilkS) (width 0.127))
  (fp_line (start 1.905 -2.667) (end 2.667 -1.905) (layer F.SilkS) (width 0.127))
  (fp_line (start 2.667 -1.905) (end 2.667 1.905) (layer F.SilkS) (width 0.127))
  (fp_line (start 2.667 1.905) (end 1.905 2.667) (layer F.SilkS) (width 0.127))
  (fp_line (start 1.905 2.667) (end -2.667 2.667) (layer F.SilkS) (width 0.127))
  (fp_line (start -2.667 2.667) (end -2.667 -2.667) (layer F.SilkS) (width 0.127))
  (fp_line (start 2.159 0) (end 1.397 0) (layer F.SilkS) (width 0.127))
  (fp_line (start 1.778 -0.381) (end 1.778 0.381) (layer F.SilkS) (width 0.127))
  (pad 1 smd rect (at 2.19964 0) (size 2.99974 1.6002) (layers F.Cu F.Paste F.Mask))
  (pad 2 smd rect (at -2.19964 0) (size 2.99974 1.6002) (layers F.Cu F.Paste F.Mask))
  (model walter\smd_cap\c_elec_5x5_8.wrl
    (at (xyz 0 0 0))
    (scale (xyz 1 1 1))
    (rotate (xyz 0 0 0))
  )
)
