(module Cree_XB (layer F.Cu) (tedit 4FA92942)
  (descr "Cree XB")
  (fp_text reference LD? (at 0 -1.80086) (layer F.SilkS)
    (effects (font (size 0.52324 0.52324) (thickness 0.09906)))
  )
  (fp_text value Cree_XB (at 0 1.89992) (layer F.SilkS)
    (effects (font (size 0.5207 0.5207) (thickness 0.09906)))
  )
  (fp_line (start -1.30048 -1.30048) (end 1.30048 -1.30048) (layer F.SilkS) (width 0.14986))
  (fp_line (start 1.30048 -1.30048) (end 1.30048 1.30048) (layer F.SilkS) (width 0.14986))
  (fp_line (start 1.30048 1.30048) (end -1.30048 1.30048) (layer F.SilkS) (width 0.14986))
  (fp_line (start -1.30048 1.30048) (end -1.30048 -1.30048) (layer F.SilkS) (width 0.14986))
  (fp_circle (center 0 0) (end -1.09982 0) (layer F.SilkS) (width 0.14986))
  (fp_line (start -1.00076 0.20066) (end -1.00076 -0.20066) (layer F.SilkS) (width 0.14986))
  (fp_line (start -0.79756 0) (end -1.19888 0) (layer F.SilkS) (width 0.14986))
  (pad 2 smd rect (at 0.99314 0) (size 0.34798 2.3368) (layers F.Cu F.Paste F.Mask)
    (solder_mask_margin 0.03048) (solder_paste_margin -0.03048))
  (pad 1 smd rect (at -0.99314 0) (size 0.34798 2.3368) (layers F.Cu F.Paste F.Mask)
    (solder_mask_margin 0.03048) (solder_paste_margin -0.03048))
  (pad 3 smd rect (at 0 0) (size 0.91948 2.3368) (layers F.Cu F.Paste F.Mask)
    (solder_mask_margin 0.03302) (solder_paste_margin -0.03302))
  (pad 1 smd rect (at -1.29794 0) (size 0.27686 0.3556) (layers F.Cu F.Mask)
    (solder_mask_margin 0.03048) (solder_paste_margin -0.03048))
  (pad 2 smd rect (at 1.29794 0) (size 0.27686 0.3556) (layers F.Cu F.Mask)
    (solder_mask_margin 0.03048) (solder_paste_margin -0.03048))
  (model walter\smd_leds\cree_xb.wrl
    (at (xyz 0 0 0))
    (scale (xyz 1 1 1))
    (rotate (xyz 0 0 0))
  )
)
