(module DFN-10-1EP_3x3mm_Pitch0.5mm (layer F.Cu) (tedit 577CF555)
  (descr "10-Lead Plastic Dual Flat, No Lead Package (MF) - 3x3x0.9 mm Body [DFN] (see Microchip Packaging Specification 00000049BS.pdf)")
  (tags "DFN 0.5")
  (attr smd)
  (fp_text reference U35 (at 1.1557 -2.1463) (layer F.SilkS)
    (effects (font (size 0.4 0.4) (thickness 0.1)))
  )
  (fp_text value TPS63700 (at 0 2.1336) (layer F.Fab)
    (effects (font (size 0.4 0.4) (thickness 0.1)))
  )
  (fp_line (start -2.15 -1.85) (end -2.15 1.85) (layer F.CrtYd) (width 0.05))
  (fp_line (start 2.15 -1.85) (end 2.15 1.85) (layer F.CrtYd) (width 0.05))
  (fp_line (start -2.15 -1.85) (end 2.15 -1.85) (layer F.CrtYd) (width 0.05))
  (fp_line (start -2.15 1.85) (end 2.15 1.85) (layer F.CrtYd) (width 0.05))
  (fp_line (start -1.225 1.65) (end 1.225 1.65) (layer F.SilkS) (width 0.15))
  (fp_line (start -1.95 -1.65) (end 1.225 -1.65) (layer F.SilkS) (width 0.15))
  (pad 11 smd rect (at 0.25 1.51) (size 0.26 0.7) (layers F.Cu F.Paste F.Mask))
  (pad 11 smd rect (at -0.25 1.51) (size 0.26 0.7) (layers F.Cu F.Paste F.Mask))
  (pad 11 smd rect (at 0.25 -1.51) (size 0.26 0.7) (layers F.Cu F.Paste F.Mask))
  (pad 1 smd rect (at -1.55 -1) (size 0.65 0.3) (layers F.Cu F.Paste F.Mask))
  (pad 2 smd rect (at -1.55 -0.5) (size 0.65 0.3) (layers F.Cu F.Paste F.Mask))
  (pad 3 smd rect (at -1.55 0) (size 0.65 0.3) (layers F.Cu F.Paste F.Mask))
  (pad 4 smd rect (at -1.55 0.5) (size 0.65 0.3) (layers F.Cu F.Paste F.Mask))
  (pad 5 smd rect (at -1.55 1) (size 0.65 0.3) (layers F.Cu F.Paste F.Mask))
  (pad 6 smd rect (at 1.55 1) (size 0.65 0.3) (layers F.Cu F.Paste F.Mask))
  (pad 7 smd rect (at 1.55 0.5) (size 0.65 0.3) (layers F.Cu F.Paste F.Mask))
  (pad 8 smd rect (at 1.55 0) (size 0.65 0.3) (layers F.Cu F.Paste F.Mask))
  (pad 9 smd rect (at 1.55 -0.5) (size 0.65 0.3) (layers F.Cu F.Paste F.Mask))
  (pad 10 smd rect (at 1.55 -1) (size 0.65 0.3) (layers F.Cu F.Paste F.Mask))
  (pad 11 smd rect (at 0.3875 0.62) (size 0.775 1.24) (layers F.Cu F.Paste F.Mask)
    (solder_paste_margin_ratio -0.2))
  (pad 11 smd rect (at 0.3875 -0.62) (size 0.775 1.24) (layers F.Cu F.Paste F.Mask)
    (solder_paste_margin_ratio -0.2))
  (pad 11 smd rect (at -0.3875 0.62) (size 0.775 1.24) (layers F.Cu F.Paste F.Mask)
    (solder_paste_margin_ratio -0.2))
  (pad 11 smd rect (at -0.3875 -0.62) (size 0.775 1.24) (layers F.Cu F.Paste F.Mask)
    (solder_paste_margin_ratio -0.2))
  (pad 11 smd rect (at -0.25 -1.51) (size 0.26 0.7) (layers F.Cu F.Paste F.Mask))
  (model Housings_DFN_QFN.3dshapes/DFN-10-1EP_3x3mm_Pitch0.5mm.wrl
    (at (xyz 0 0 0))
    (scale (xyz 1 1 1))
    (rotate (xyz 0 0 0))
  )
)
