(module Edison_Edixeon_RGB (layer F.Cu) (tedit 4F5DD02A)
  (descr "Edison Edixeon RGB")
  (fp_text reference LD? (at 0 -4.59994) (layer F.SilkS)
    (effects (font (size 1.00076 1.00076) (thickness 0.20066)))
  )
  (fp_text value "Edison Edixeon RGB" (at 0 4.8006) (layer F.SilkS)
    (effects (font (size 1.00076 1.00076) (thickness 0.20066)))
  )
  (fp_circle (center -4.15036 -1.84912) (end -4.35102 -1.84912) (layer F.SilkS) (width 0.09906))
  (fp_circle (center -4.15036 1.84912) (end -4.35102 1.84912) (layer F.SilkS) (width 0.09906))
  (fp_line (start 3.70078 1.34874) (end 7.24916 1.34874) (layer F.SilkS) (width 0.381))
  (fp_line (start 7.24916 1.34874) (end 7.24916 2.3495) (layer F.SilkS) (width 0.381))
  (fp_line (start 7.24916 2.3495) (end 3.2004 2.3495) (layer F.SilkS) (width 0.381))
  (fp_line (start 3.70078 -0.50038) (end 7.24916 -0.50038) (layer F.SilkS) (width 0.381))
  (fp_line (start 7.24916 -0.50038) (end 7.24916 0.50038) (layer F.SilkS) (width 0.381))
  (fp_line (start 7.24916 0.50038) (end 3.70078 0.50038) (layer F.SilkS) (width 0.381))
  (fp_line (start 3.2004 -2.3495) (end 7.24916 -2.3495) (layer F.SilkS) (width 0.381))
  (fp_line (start 7.24916 -2.3495) (end 7.24916 -1.34874) (layer F.SilkS) (width 0.381))
  (fp_line (start 7.24916 -1.34874) (end 3.70078 -1.34874) (layer F.SilkS) (width 0.381))
  (fp_line (start -3.70078 1.34874) (end -7.24916 1.34874) (layer F.SilkS) (width 0.381))
  (fp_line (start -7.24916 1.34874) (end -7.24916 2.3495) (layer F.SilkS) (width 0.381))
  (fp_line (start -7.24916 2.3495) (end -3.2004 2.3495) (layer F.SilkS) (width 0.381))
  (fp_line (start -3.70078 -1.34874) (end -7.24916 -1.34874) (layer F.SilkS) (width 0.381))
  (fp_line (start -7.24916 -1.34874) (end -7.24916 -2.3495) (layer F.SilkS) (width 0.381))
  (fp_line (start -7.24916 -2.3495) (end -3.2004 -2.3495) (layer F.SilkS) (width 0.381))
  (fp_line (start -3.70078 0.50038) (end -7.24916 0.50038) (layer F.SilkS) (width 0.381))
  (fp_line (start -7.24916 0.50038) (end -7.24916 -0.50038) (layer F.SilkS) (width 0.381))
  (fp_line (start -7.24916 -0.50038) (end -3.70078 -0.50038) (layer F.SilkS) (width 0.381))
  (fp_line (start 0.65024 3.9497) (end 1.50114 3.70078) (layer F.SilkS) (width 0.381))
  (fp_line (start -1.50114 3.70078) (end -0.65024 3.9497) (layer F.SilkS) (width 0.381))
  (fp_line (start -0.65024 -3.9497) (end -1.50114 -3.70078) (layer F.SilkS) (width 0.381))
  (fp_line (start 0.65024 -3.9497) (end 1.50114 -3.70078) (layer F.SilkS) (width 0.381))
  (fp_line (start 0 -4.0005) (end 0.65024 -3.9497) (layer F.SilkS) (width 0.381))
  (fp_line (start -0.65024 -3.9497) (end 0 -4.0005) (layer F.SilkS) (width 0.381))
  (fp_line (start 0.65024 3.9497) (end 0 4.0005) (layer F.SilkS) (width 0.381))
  (fp_line (start -0.65024 3.9497) (end 0 4.0005) (layer F.SilkS) (width 0.381))
  (fp_circle (center 0 0) (end -2.79908 0) (layer F.SilkS) (width 0.381))
  (fp_line (start -2.10058 3.40106) (end -2.79908 2.79908) (layer F.SilkS) (width 0.381))
  (fp_line (start -2.79908 2.79908) (end -3.40106 2.10058) (layer F.SilkS) (width 0.381))
  (fp_line (start 3.40106 2.10058) (end 2.79908 2.79908) (layer F.SilkS) (width 0.381))
  (fp_line (start 2.79908 2.79908) (end 2.10058 3.40106) (layer F.SilkS) (width 0.381))
  (fp_line (start 2.10058 -3.40106) (end 2.79908 -2.79908) (layer F.SilkS) (width 0.381))
  (fp_line (start 2.79908 -2.79908) (end 3.40106 -2.10058) (layer F.SilkS) (width 0.381))
  (fp_line (start 1.50114 -3.70078) (end 2.10058 -3.40106) (layer F.SilkS) (width 0.381))
  (fp_line (start 3.70078 -1.50114) (end 3.40106 -2.10058) (layer F.SilkS) (width 0.381))
  (fp_line (start 3.70078 1.50114) (end 3.40106 2.10058) (layer F.SilkS) (width 0.381))
  (fp_line (start 1.50114 3.70078) (end 2.10058 3.40106) (layer F.SilkS) (width 0.381))
  (fp_line (start -1.50114 3.70078) (end -2.10058 3.40106) (layer F.SilkS) (width 0.381))
  (fp_line (start -3.70078 1.50114) (end -3.40106 2.10058) (layer F.SilkS) (width 0.381))
  (fp_line (start -3.70078 -1.50114) (end -3.40106 -2.10058) (layer F.SilkS) (width 0.381))
  (fp_line (start -3.40106 -2.10058) (end -2.79908 -2.79908) (layer F.SilkS) (width 0.381))
  (fp_line (start -2.79908 -2.79908) (end -2.10058 -3.40106) (layer F.SilkS) (width 0.381))
  (fp_line (start -2.10058 -3.40106) (end -1.50114 -3.70078) (layer F.SilkS) (width 0.381))
  (fp_line (start 3.70078 -1.50114) (end 3.70078 1.50114) (layer F.SilkS) (width 0.381))
  (fp_line (start -3.70078 1.50114) (end -3.70078 -1.50114) (layer F.SilkS) (width 0.381))
  (pad 2 smd rect (at -6.49986 1.84912) (size 2.79908 1.30048) (layers F.Cu F.Paste F.Mask)
    (solder_mask_margin 0.09906) (solder_paste_margin -0.14986))
  (pad 7 smd circle (at 0 0) (size 6.4008 6.4008) (layers F.Cu F.Paste F.Mask)
    (solder_mask_margin 0.09906) (solder_paste_margin -0.70104))
  (pad 3 smd rect (at -6.49986 0) (size 2.79908 1.30048) (layers F.Cu F.Paste F.Mask))
  (pad 1 smd rect (at -6.49986 -1.84912) (size 2.79908 1.30048) (layers F.Cu F.Paste F.Mask)
    (solder_paste_margin -0.14986))
  (pad 6 smd rect (at 6.49986 -1.84912) (size 2.79908 1.30048) (layers F.Cu F.Paste F.Mask))
  (pad 4 smd rect (at 6.49986 0) (size 2.79908 1.30048) (layers F.Cu F.Paste F.Mask))
  (pad 5 smd rect (at 6.49986 1.84912) (size 2.79908 1.30048) (layers F.Cu F.Paste F.Mask))
  (model walter\smd_leds\edison_edixeon-RGB.wrl
    (at (xyz 0 0 0))
    (scale (xyz 1 1 1))
    (rotate (xyz 0 0 0))
  )
)
