(module ISP_10 (layer F.Cu) (tedit 564B8679)
  (tags ISP_10)
  (attr smd)
  (fp_text reference P3 (at 0 -2.7) (layer F.SilkS)
    (effects (font (size 0.4 0.4) (thickness 0.1)))
  )
  (fp_text value SWD (at 0 2.7) (layer F.Fab)
    (effects (font (size 0.4 0.4) (thickness 0.1)))
  )
  (fp_line (start -2 -1.5) (end -3 -0.5) (layer F.SilkS) (width 0.15))
  (fp_line (start -3 -0.5) (end -3 1.5) (layer F.SilkS) (width 0.15))
  (fp_line (start -3 1.5) (end 3 1.5) (layer F.SilkS) (width 0.15))
  (fp_line (start 3 1.5) (end 3 -1.5) (layer F.SilkS) (width 0.15))
  (fp_line (start 3 -1.5) (end -2 -1.5) (layer F.SilkS) (width 0.15))
  (fp_line (start -3.15 -1.65) (end 3.15 -1.65) (layer F.CrtYd) (width 0.15))
  (fp_line (start 3.15 -1.65) (end 3.15 1.65) (layer F.CrtYd) (width 0.15))
  (fp_line (start 3.15 1.65) (end -3.15 1.65) (layer F.CrtYd) (width 0.15))
  (fp_line (start -3.15 1.65) (end -3.15 -1.65) (layer F.CrtYd) (width 0.15))
  (pad 1 smd circle (at -2 -0.5) (size 0.7 0.7) (layers F.Cu F.Paste F.Mask))
  (pad 2 smd circle (at -2 0.5) (size 0.7 0.7) (layers F.Cu F.Paste F.Mask))
  (pad 3 smd circle (at -1 -0.5) (size 0.7 0.7) (layers F.Cu F.Paste F.Mask))
  (pad 4 smd circle (at -1 0.5) (size 0.7 0.7) (layers F.Cu F.Paste F.Mask))
  (pad 5 smd circle (at 0 -0.5) (size 0.7 0.7) (layers F.Cu F.Paste F.Mask))
  (pad 6 smd circle (at 0 0.5) (size 0.7 0.7) (layers F.Cu F.Paste F.Mask))
  (pad 7 smd circle (at 1 -0.5) (size 0.7 0.7) (layers F.Cu F.Paste F.Mask))
  (pad 8 smd circle (at 1 0.5) (size 0.7 0.7) (layers F.Cu F.Paste F.Mask))
  (pad 9 smd circle (at 2 -0.5) (size 0.7 0.7) (layers F.Cu F.Paste F.Mask))
  (pad 10 smd circle (at 2 0.5) (size 0.7 0.7) (layers F.Cu F.Paste F.Mask))
)
