(module Led_0603 (layer F.Cu) (tedit 50CDB288)
  (descr "SMD LED, 0603")
  (fp_text reference LD** (at 0 -1.09982) (layer F.SilkS)
    (effects (font (size 0.59944 0.59944) (thickness 0.11938)))
  )
  (fp_text value Led_0603 (at 0 1.19888) (layer F.SilkS)
    (effects (font (size 0.59944 0.59944) (thickness 0.11938)))
  )
  (fp_line (start 0.29972 0.50038) (end 0.29972 -0.50038) (layer F.SilkS) (width 0.127))
  (fp_line (start -0.29972 -0.50038) (end -0.29972 0.50038) (layer F.SilkS) (width 0.127))
  (fp_line (start 0 0.09906) (end 0 -0.09906) (layer F.SilkS) (width 0.127))
  (fp_line (start -0.09906 -0.20066) (end -0.09906 0.20066) (layer F.SilkS) (width 0.127))
  (fp_line (start -0.09906 0.20066) (end 0.09906 0) (layer F.SilkS) (width 0.127))
  (fp_line (start 0.09906 0) (end -0.09906 -0.20066) (layer F.SilkS) (width 0.127))
  (fp_line (start -0.8001 -0.50038) (end 0.8001 -0.50038) (layer F.SilkS) (width 0.127))
  (fp_line (start 0.8001 -0.50038) (end 0.8001 0.50038) (layer F.SilkS) (width 0.127))
  (fp_line (start 0.8001 0.50038) (end -0.8001 0.50038) (layer F.SilkS) (width 0.127))
  (fp_line (start -0.8001 0.50038) (end -0.8001 -0.50038) (layer F.SilkS) (width 0.127))
  (pad 1 smd rect (at -0.7493 0) (size 0.79756 0.79756) (layers F.Cu F.Paste F.Mask))
  (pad 2 smd rect (at 0.7493 0) (size 0.79756 0.79756) (layers F.Cu F.Paste F.Mask))
  (model walter\smd_leds\led_0603.wrl
    (at (xyz 0 0 0))
    (scale (xyz 1 1 1))
    (rotate (xyz 0 0 0))
  )
)
