(module Pin_diode_SIPS_down_tight (layer F.Cu) (tedit 577FFD58)
  (descr "Pin photodiode flat")
  (tags "PIN photo diode flat hammamatsu")
  (fp_text reference D7 (at -8.4 5.43) (layer F.SilkS)
    (effects (font (size 0.4 0.4) (thickness 0.1)))
  )
  (fp_text value DETA (at -0.1354 5.9523) (layer F.SilkS) hide
    (effects (font (size 0.4 0.4) (thickness 0.1)))
  )
  (fp_line (start -2.7432 2.3876) (end 2.7432 -2.3876) (layer F.SilkS) (width 0.05))
  (fp_line (start -2.7432 -2.3876) (end 2.7432 2.3876) (layer F.SilkS) (width 0.05))
  (fp_line (start -2.18694 -3.5687) (end -3.44678 -2.32918) (layer F.SilkS) (width 0.15))
  (fp_line (start -2.75 -2.4) (end 2.75 -2.4) (layer F.SilkS) (width 0.05))
  (fp_line (start 2.75 -2.4) (end 2.75 2.4) (layer F.SilkS) (width 0.05))
  (fp_line (start 2.75 2.4) (end -2.75 2.4) (layer F.SilkS) (width 0.05))
  (fp_line (start -2.75 2.4) (end -2.75 -2.4) (layer F.SilkS) (width 0.05))
  (fp_line (start 3.5 -3.65) (end -3.5 -3.65) (layer F.SilkS) (width 0.3048))
  (fp_line (start -3.5 3.65) (end 3.5 3.65) (layer F.SilkS) (width 0.3048))
  (fp_line (start -3.5 -3.65) (end -3.5 3.65) (layer F.SilkS) (width 0.3048))
  (fp_line (start 3.5 -3.65) (end 3.5 3.65) (layer F.SilkS) (width 0.3048))
  (pad 1 thru_hole rect (at -2.54 4.9) (size 1.8 3.302) (drill oval 1.3 2.54) (layers *.Cu *.Mask F.SilkS))
  (pad 2 thru_hole oval (at 2.54 4.9) (size 1.8 3.302) (drill oval 1.3 2.54) (layers *.Cu *.Mask F.SilkS))
  (model walter\pin_strip\pin_strip_4.wrl
    (at (xyz 0 0 0))
    (scale (xyz 1 1 1))
    (rotate (xyz 0 0 0))
  )
)
