(module Seoul_P4 (layer F.Cu) (tedit 4D9845D7)
  (descr "Seoul P4")
  (fp_text reference LD? (at 0 -4.59994) (layer F.SilkS)
    (effects (font (size 1.00076 1.00076) (thickness 0.20066)))
  )
  (fp_text value Seoul_P4 (at 0 4.8006) (layer F.SilkS)
    (effects (font (size 1.00076 1.00076) (thickness 0.20066)))
  )
  (fp_line (start -3.70078 -0.59944) (end -4.8006 -0.59944) (layer F.SilkS) (width 0.381))
  (fp_line (start -4.8006 -0.59944) (end -4.8006 -1.39954) (layer F.SilkS) (width 0.381))
  (fp_line (start -3.70078 -1.39954) (end -4.8006 -1.39954) (layer F.SilkS) (width 0.381))
  (fp_line (start 4.8006 0.59944) (end 4.8006 0.70104) (layer F.SilkS) (width 0.381))
  (fp_line (start 4.8006 0.70104) (end 4.50088 1.00076) (layer F.SilkS) (width 0.381))
  (fp_line (start 4.50088 1.00076) (end 4.8006 1.30048) (layer F.SilkS) (width 0.381))
  (fp_line (start 4.8006 1.30048) (end 4.8006 1.39954) (layer F.SilkS) (width 0.381))
  (fp_line (start 3.79984 0.59944) (end 4.8006 0.59944) (layer F.SilkS) (width 0.381))
  (fp_line (start 3.70078 1.39954) (end 4.8006 1.39954) (layer F.SilkS) (width 0.381))
  (fp_line (start 5.00126 -1.50114) (end 4.50088 -1.50114) (layer F.SilkS) (width 0.381))
  (fp_line (start 5.00126 -0.70104) (end 4.50088 -0.70104) (layer F.SilkS) (width 0.381))
  (fp_line (start 7.2009 -0.29972) (end 5.00126 -0.29972) (layer F.SilkS) (width 0.381))
  (fp_line (start 5.00126 -1.89992) (end 7.2009 -1.89992) (layer F.SilkS) (width 0.381))
  (fp_line (start -4.50088 0.70104) (end -5.00126 0.70104) (layer F.SilkS) (width 0.381))
  (fp_line (start -4.50088 1.50114) (end -5.00126 1.50114) (layer F.SilkS) (width 0.381))
  (fp_line (start -7.2009 1.89992) (end -5.00126 1.89992) (layer F.SilkS) (width 0.381))
  (fp_line (start -7.2009 0.29972) (end -5.00126 0.29972) (layer F.SilkS) (width 0.381))
  (fp_circle (center 0 0) (end -2.79908 0) (layer F.SilkS) (width 0.381))
  (fp_line (start 5.0038 -1.89992) (end 5.0038 -1.50114) (layer F.SilkS) (width 0.381))
  (fp_line (start 4.50088 -1.50114) (end 3.70078 -1.50114) (layer F.SilkS) (width 0.381))
  (fp_line (start 7.2009 -1.89992) (end 7.2009 -0.29972) (layer F.SilkS) (width 0.381))
  (fp_line (start 4.99872 -0.29972) (end 4.99872 -0.70104) (layer F.SilkS) (width 0.381))
  (fp_line (start 4.50088 -0.70104) (end 3.70078 -0.70104) (layer F.SilkS) (width 0.381))
  (fp_line (start -4.99872 1.89992) (end -4.99872 1.50114) (layer F.SilkS) (width 0.381))
  (fp_line (start -4.50088 1.50114) (end -3.70078 1.50114) (layer F.SilkS) (width 0.381))
  (fp_line (start -7.2009 1.89738) (end -7.2009 0.29718) (layer F.SilkS) (width 0.381))
  (fp_line (start -4.99872 0.29972) (end -4.99872 0.70104) (layer F.SilkS) (width 0.381))
  (fp_line (start -4.50088 0.70104) (end -3.70078 0.70104) (layer F.SilkS) (width 0.381))
  (fp_line (start -2.10058 3.40106) (end -2.79908 2.79908) (layer F.SilkS) (width 0.381))
  (fp_line (start -2.79908 2.79908) (end -3.40106 2.10058) (layer F.SilkS) (width 0.381))
  (fp_line (start 3.40106 2.10058) (end 2.79908 2.79908) (layer F.SilkS) (width 0.381))
  (fp_line (start 2.79908 2.79908) (end 2.10058 3.40106) (layer F.SilkS) (width 0.381))
  (fp_line (start 2.10058 -3.40106) (end 2.79908 -2.79908) (layer F.SilkS) (width 0.381))
  (fp_line (start 2.79908 -2.79908) (end 3.40106 -2.10058) (layer F.SilkS) (width 0.381))
  (fp_line (start 1.50114 -3.70078) (end 2.10058 -3.40106) (layer F.SilkS) (width 0.381))
  (fp_line (start 3.70078 -1.50114) (end 3.40106 -2.10058) (layer F.SilkS) (width 0.381))
  (fp_line (start 3.70078 1.50114) (end 3.40106 2.10058) (layer F.SilkS) (width 0.381))
  (fp_line (start 1.50114 3.70078) (end 2.10058 3.40106) (layer F.SilkS) (width 0.381))
  (fp_line (start -1.50114 3.70078) (end -2.10058 3.40106) (layer F.SilkS) (width 0.381))
  (fp_line (start -3.70078 1.50114) (end -3.40106 2.10058) (layer F.SilkS) (width 0.381))
  (fp_line (start -3.70078 -1.50114) (end -3.40106 -2.10058) (layer F.SilkS) (width 0.381))
  (fp_line (start -3.40106 -2.10058) (end -2.79908 -2.79908) (layer F.SilkS) (width 0.381))
  (fp_line (start -2.79908 -2.79908) (end -2.10058 -3.40106) (layer F.SilkS) (width 0.381))
  (fp_line (start -2.10058 -3.40106) (end -1.50114 -3.70078) (layer F.SilkS) (width 0.381))
  (fp_line (start 1.50114 3.70078) (end -1.50114 3.70078) (layer F.SilkS) (width 0.381))
  (fp_line (start 3.70078 -1.50114) (end 3.70078 1.50114) (layer F.SilkS) (width 0.381))
  (fp_line (start -1.50114 -3.70078) (end 1.50114 -3.70078) (layer F.SilkS) (width 0.381))
  (fp_line (start -3.70078 1.50114) (end -3.70078 -1.50114) (layer F.SilkS) (width 0.381))
  (pad 2 smd rect (at 6.64972 -1.12014) (size 3.29946 2.10058) (layers F.Cu F.Paste F.Mask)
    (solder_mask_margin 0.09906) (solder_paste_margin -0.0508))
  (pad 1 smd rect (at -6.64972 1.12014) (size 3.29946 2.10058) (layers F.Cu F.Paste F.Mask)
    (solder_mask_margin 0.09906) (solder_paste_margin -0.0508))
  (pad 3 smd circle (at 0 0) (size 5.99948 5.99948) (layers F.Cu F.Paste F.Mask)
    (solder_mask_margin 0.09906) (solder_paste_margin -0.0508))
  (model walter\smd_leds\seoul_p4.wrl
    (at (xyz 0 0 0))
    (scale (xyz 1 1 1))
    (rotate (xyz 0 0 0))
  )
)
