(module soic-14 (layer F.Cu) (tedit 4F1AAFCC)
  (descr "SOIC Wide, 14 pins")
  (fp_text reference U*** (at 0 -1.016) (layer F.SilkS)
    (effects (font (size 0.7493 0.7493) (thickness 0.14986)))
  )
  (fp_text value SOIC-14 (at 0 1.016) (layer F.SilkS)
    (effects (font (size 0.7493 0.7493) (thickness 0.14986)))
  )
  (fp_line (start 4.699 3.74904) (end -4.699 3.74904) (layer F.SilkS) (width 0.254))
  (fp_line (start -4.699 -3.74904) (end 4.699 -3.74904) (layer F.SilkS) (width 0.254))
  (fp_line (start 3.81 -3.7592) (end 3.81 -4.8514) (layer F.SilkS) (width 0.127))
  (fp_line (start 2.54 -3.7592) (end 2.54 -4.8514) (layer F.SilkS) (width 0.127))
  (fp_line (start 4.699 3.74904) (end 4.699 -3.74904) (layer F.SilkS) (width 0.254))
  (fp_line (start -4.699 -3.74904) (end -4.699 3.74904) (layer F.SilkS) (width 0.254))
  (fp_line (start -3.81 -3.7592) (end -3.81 -4.8514) (layer F.SilkS) (width 0.127))
  (fp_line (start -2.54 -3.7592) (end -2.54 -4.8514) (layer F.SilkS) (width 0.127))
  (fp_line (start -1.27 -4.8514) (end -1.27 -3.7592) (layer F.SilkS) (width 0.127))
  (fp_line (start 0 -4.8514) (end 0 -3.7592) (layer F.SilkS) (width 0.127))
  (fp_line (start 1.27 -4.8514) (end 1.27 -3.7592) (layer F.SilkS) (width 0.127))
  (fp_line (start 3.81 3.7592) (end 3.81 4.8514) (layer F.SilkS) (width 0.127))
  (fp_line (start 2.54 3.7592) (end 2.54 4.8514) (layer F.SilkS) (width 0.127))
  (fp_line (start -3.81 3.7592) (end -3.81 4.8514) (layer F.SilkS) (width 0.127))
  (fp_line (start -2.54 4.8514) (end -2.54 3.7592) (layer F.SilkS) (width 0.127))
  (fp_line (start 1.27 4.8514) (end 1.27 3.7592) (layer F.SilkS) (width 0.127))
  (fp_line (start 0 4.8514) (end 0 3.7592) (layer F.SilkS) (width 0.127))
  (fp_line (start -1.27 4.8514) (end -1.27 3.7592) (layer F.SilkS) (width 0.127))
  (fp_circle (center -3.51536 2.64668) (end -3.79476 3.02768) (layer F.SilkS) (width 0.254))
  (pad 1 smd rect (at -3.81 4.81076) (size 0.55118 1.43002) (layers F.Cu F.Paste F.Mask))
  (pad 2 smd rect (at -2.54 4.81076) (size 0.55118 1.43002) (layers F.Cu F.Paste F.Mask))
  (pad 3 smd rect (at -1.27 4.81076) (size 0.55118 1.43002) (layers F.Cu F.Paste F.Mask))
  (pad 4 smd rect (at 0 4.81076) (size 0.55118 1.43002) (layers F.Cu F.Paste F.Mask))
  (pad 5 smd rect (at 1.27 4.81076) (size 0.55118 1.43002) (layers F.Cu F.Paste F.Mask))
  (pad 6 smd rect (at 2.54 4.81076) (size 0.55118 1.43002) (layers F.Cu F.Paste F.Mask))
  (pad 7 smd rect (at 3.81 4.81076) (size 0.55118 1.43002) (layers F.Cu F.Paste F.Mask))
  (pad 8 smd rect (at 3.81 -4.81076) (size 0.55118 1.43002) (layers F.Cu F.Paste F.Mask))
  (pad 9 smd rect (at 2.54 -4.81076) (size 0.55118 1.43002) (layers F.Cu F.Paste F.Mask))
  (pad 10 smd rect (at 1.27 -4.81076) (size 0.55118 1.43002) (layers F.Cu F.Paste F.Mask))
  (pad 11 smd rect (at 0 -4.81076) (size 0.55118 1.43002) (layers F.Cu F.Paste F.Mask))
  (pad 12 smd rect (at -1.27 -4.81076) (size 0.55118 1.43002) (layers F.Cu F.Paste F.Mask))
  (pad 13 smd rect (at -2.54 -4.81076) (size 0.55118 1.43002) (layers F.Cu F.Paste F.Mask))
  (pad 14 smd rect (at -3.81 -4.81076) (size 0.55118 1.43002) (layers F.Cu F.Paste F.Mask))
  (model walter\smd_dil\soic-14.wrl
    (at (xyz 0 0 0))
    (scale (xyz 1 1 1))
    (rotate (xyz 0 0 0))
  )
)
