(module sot89 (layer F.Cu) (tedit 490475FD)
  (descr SOT89)
  (fp_text reference SOT89 (at 0.0254 -4.6482) (layer F.SilkS)
    (effects (font (size 1.00076 1.00076) (thickness 0.20066)))
  )
  (fp_text value Q*** (at 0 -2.921) (layer F.SilkS) hide
    (effects (font (size 1.00076 1.00076) (thickness 0.20066)))
  )
  (fp_line (start 1.2446 2.5019) (end 1.7526 2.5019) (layer F.SilkS) (width 0.127))
  (fp_line (start 1.7526 2.5019) (end 1.7526 1.3081) (layer F.SilkS) (width 0.127))
  (fp_line (start 1.2446 2.5019) (end 1.2446 1.3081) (layer F.SilkS) (width 0.127))
  (fp_line (start -0.254 2.5019) (end -0.254 1.3081) (layer F.SilkS) (width 0.127))
  (fp_line (start 0.254 2.5019) (end 0.254 1.3081) (layer F.SilkS) (width 0.127))
  (fp_line (start -0.254 2.5019) (end 0.254 2.5019) (layer F.SilkS) (width 0.127))
  (fp_line (start -1.7526 2.5019) (end -1.2446 2.5019) (layer F.SilkS) (width 0.127))
  (fp_line (start -1.2446 2.5019) (end -1.2446 1.3081) (layer F.SilkS) (width 0.127))
  (fp_line (start -1.7526 2.5019) (end -1.7526 1.3081) (layer F.SilkS) (width 0.127))
  (fp_line (start -0.9017 -1.8034) (end 0.9017 -1.8034) (layer F.SilkS) (width 0.127))
  (fp_line (start 0.9017 -1.8034) (end 0.9017 -1.3081) (layer F.SilkS) (width 0.127))
  (fp_line (start -0.9017 -1.8034) (end -0.9017 -1.3081) (layer F.SilkS) (width 0.127))
  (fp_line (start -2.2987 1.3081) (end -2.2987 -1.3081) (layer F.SilkS) (width 0.127))
  (fp_line (start -2.2987 -1.3081) (end 2.2987 -1.3081) (layer F.SilkS) (width 0.127))
  (fp_line (start 2.2987 -1.3081) (end 2.2987 1.3081) (layer F.SilkS) (width 0.127))
  (fp_line (start 2.2987 1.3081) (end -2.2987 1.3081) (layer F.SilkS) (width 0.127))
  (pad 1 smd rect (at -1.50114 1.89992) (size 0.70104 1.6002) (layers F.Cu F.Paste F.Mask))
  (pad 2 smd rect (at 0 1.651) (size 0.70104 2.10058) (layers F.Cu F.Paste F.Mask))
  (pad 3 smd rect (at 1.50114 1.89992) (size 0.70104 1.6002) (layers F.Cu F.Paste F.Mask))
  (pad 2 smd rect (at 0 -0.7493) (size 1.99898 2.75082) (layers F.Cu F.Paste F.Mask))
  (model walter\smd_trans\sot89.wrl
    (at (xyz 0 0 0))
    (scale (xyz 1 1 1))
    (rotate (xyz 0 0 0))
  )
)
